{
  "CG_1781.jpg": {
    "Ancresse": [
      ["2627", "4323", "108", "47"]
    ],
    "Angleterre": [
      ["0", "0", "0", "0"]
    ],
    "Archipel": [
      ["0", "0", "0", "0"]
    ],
    "Aurigny": [
      ["3808", "3188", "525", "285"]
    ],
    "B_08": [
      ["2628", "4773", "105", "48"]
    ],
    "Barneville": [
      ["5578", "5136", "240", "82"]
    ],
    "Binic": [
      ["1666", "9432", "136", "72"]
    ],
    "Braye_du_Valle": [
      ["2549", "4391", "86", "69"]
    ],
    "Brecqhou": [
      ["2865", "4791", "274", "73"]
    ],
    "Bretagne": [
      ["0", "0", "0", "0"]
    ],
    "Calvados": [
      ["0", "0", "0", "0"]
    ],
    "Canard": [
      ["4162", "7814", "154", "56"]
    ],
    "Cancale": [
      ["4916", "9156", "168", "54"]
    ],
    "Carteret": [
      ["5378", "5126", "158", "116"]
    ],
    "Casquets": [
      ["2963", "3058", "282", "87"]
    ],
    "Catel": [
      ["2379", "4544", "108", "35"]
    ],
    "Cherbourg": [
      ["5916", "3734", "296", "72"]
    ],
    "Chouas": [
      ["0", "0", "0", "0"],
      ["4286", "8170", "248", "108"]
    ],
    "Corbiere": [
      ["2195", "4783", "83", "57"]
    ],
    "Cornet_Chateau": [
      ["2621", "4599", "126", "44"]
    ],
    "Coutances": [
      ["6536", "7036", "246", "208"]
    ],
    "Deree": [
      ["3400", "7932", "172", "54"]
    ],
    "Deroute": [
      ["2821", "5380", "705", "133"]
    ],
    "Deux_Brayes": [
      ["2734", "4175", "120", "41"]
    ],
    "Dirouilles": [
      ["4288", "5795", "187", "85"]
    ],
    "Douvres": [
      ["1127", "6989", "450", "202"]
    ],
    "Ecrehou": [
      ["4718", "5988", "217", "115"]
    ],
    "Fermain_Bay": [
      ["0", "0", "0", "0"]
    ],
    "Flandre": [
      ["0", "0", "0", "0"]
    ],
    "Foret": [
      ["2207", "4734", "101", "52"]
    ],
    "France": [
      ["0", "0", "0", "0"]
    ],
    "Frehel": [
      ["3380", "8988", "228", "84"]
    ],
    "GB": [
      ["0", "0", "0", "0"]
    ],
    "Grelets": [
      ["3974", "7122", "512", "208"]
    ],
    "Guernesey": [
      ["0", "0", "0", "0"]
    ],
    "Hanois": [
      ["1781", "4707", "157", "113"]
    ],
    "Herm": [
      ["2888", "4424", "194", "192"]
    ],
    "Hougue_la_Perre": [
      ["2507", "4533", "108", "34"]
    ],
    "Jerbourg": [
      ["2521", "4762", "87", "44"]
    ],
    "Jersey": [
      ["0", "0", "0", "0"]
    ],
    "Jet_Hou": [
      ["2838", "4619", "162", "61"]
    ],
    "Li_Hou": [
      ["1927", "4474", "169", "58"]
    ],
    "Maisons": [
      ["3972", "7618", "176", "60"]
    ],
    "Maitre_Ile": [
      ["4126", "7672", "190", "60"]
    ],
    "Manche": [
      ["0", "0", "0", "0"]
    ],
    "Minquiers": [
      ["3952", "7744", "240", "82"]
    ],
    "Moines": [
      ["3694", "8468", "258", "112"]
    ],
    "Normandie": [
      ["0", "0", "0", "0"]
    ],
    "Ortach": [
      ["3453", "3230", "135", "70"]
    ],
    "Paimpol": [
      ["834", "8502", "114", "154"]
    ],
    "Pater_Noster": [
      ["3710", "5680", "383", "125"]
    ],
    "Plainmont": [
      ["2027", "4665", "107", "61"]
    ],
    "Portrieux": [
      ["1478", "9358", "234", "76"]
    ],
    "Roque_Nord": [
      ["2491", "4198", "134", "63"]
    ],
    "Ruau_Grand": [
      ["3338", "4248", "242", "232"]
    ],
    "Ruau_Petit": [
      ["2988", "3953", "147", "185"]
    ],
    "Sablonneuse": [
      ["2603", "4231", "95", "69"]
    ],
    "Saint_Pierre_du_Bois": [
      ["2191", "4589", "125", "62"]
    ],
    "Saint_Pierre_Port": [
      ["2381", "4607", "231", "40"]
    ],
    "Saint_Sampson": [
      ["2481", "4435", "143", "44"]
    ],
    "Saint_Sauveur": [
      ["2190", "4526", "112", "58"]
    ],
    "Saint-Brieuc": [
      ["1604", "9952", "318", "132"]
    ],
    "Sambule": [
      ["2090", "4320", "152", "55"]
    ],
    "Sauts_Roquiers": [
      ["2276", "4294", "122", "37"]
    ],
    "Sauvages": [
      ["4560", "8040", "215", "123"]
    ],
    "Serk": [
      ["3190", "4838", "258", "130"]
    ],
    "Sommeilleuse": [
      ["2247", "4806", "119", "33"]
    ],
    "Tas_Pois_Aval": [
      ["1941", "4749", "137", "42"]
    ],
    "Valle": [
      ["2614", "4370", "75", "36"]
    ],
    "Valle_Chateau": [
      ["2619", "4396", "99", "59"]
    ],
    "Vason_Baie": [
      ["2200", "4417", "88", "77"]
    ]
  },
  "CG_1794.jpg": {
    "Aiguilles_Wight": [
      ["6762", "2004", "142", "60"]
    ],
    "Ambleteuse_Baie": [
      ["8228", "1927", "-8049", "-1881"]
    ],
    "Angleterre": [
      ["0", "0", "0", "0"]
    ],
    "Archipel": [
      ["0", "0", "0", "0"]
    ],
    "Astigarraga": [
      ["6682", "6616", "50", "54"]
    ],
    "Aurigny": [
      ["6566", "2562", "172", "98"]
    ],
    "Belgique": [
      ["0", "0", "0", "0"]
    ],
    "Bilbao": [
      ["6154", "6624", "118", "84"]
    ],
    "Binic": [
      ["6310", "3402", "80", "44"]
    ],
    "Brehat": [
      ["6304", "3226", "144", "46"]
    ],
    "Brest": [
      ["5626", "3452", "92", "84"]
    ],
    "Bretagne": [
      ["0", "0", "0", "0"]
    ],
    "Calvados": [
      ["0", "0", "0", "0"]
    ],
    "Cancale": [
      ["6712", "3338", "68", "28"]
    ],
    "Carteret": [
      ["6770", "2812", "92", "40"]
    ],
    "Casquets": [
      ["6324", "2584", "184", "62"]
    ],
    "Charente": [
      ["0", "0", "0", "0"]
    ],
    "Cherbourg": [
      ["6856", "2712", "98", "152"]
    ],
    "Chousey": [
      ["6640", "3178", "140", "46"]
    ],
    "Coutances": [
      ["6938", "3072", "188", "54"]
    ],
    "Dieppe": [
      ["7982", "2522", "102", "80"]
    ],
    "Dinan": [
      ["6672", "3484", "100", "60"]
    ],
    "Douvres": [
      ["6274", "2988", "164", "56"]
    ],
    "Dunkerque": [
      ["8578", "1758", "176", "60"]
    ],
    "Espagne": [
      ["0", "0", "0", "0"]
    ],
    "Etretat": [
      ["7668", "2674", "102", "32"]
    ],
    "Europe": [
      ["0", "0", "0", "0"]
    ],
    "Exeter": [
      ["5842", "1930", "156", "52"]
    ],
    "Finistere": [
      ["0", "0", "0", "0"]
    ],
    "Flandre": [
      ["0", "0", "0", "0"]
    ],
    "France": [
      ["0", "0", "0", "0"]
    ],
    "GB": [
      ["0", "0", "0", "0"]
    ],
    "Granville": [
      ["6876", "3248", "160", "44"]
    ],
    "Greenwich": [
      ["7516", "1454", "122", "74"]
    ],
    "Groix": [
      ["6056", "3970", "150", "56"]
    ],
    "Guernesey": [
      ["6256", "2730", "172", "110"]
    ],
    "Harlem": [
      ["9432", "832", "124", "46"]
    ],
    "Herm": [
      ["6428", "2758", "64", "26"]
    ],
    "Hernani": [
      ["6664", "6628", "38", "28"]
    ],
    "Hollande": [
      ["0", "0", "0", "0"]
    ],
    "Hougue_Cap": [
      ["6730", "2656", "134", "80"]
    ],
    "Irlande": [
      ["0", "0", "0", "0"]
    ],
    "Isigny": [
      ["7110", "2934", "104", "44"]
    ],
    "Jersey": [
      ["6518", "2942", "126", "86"]
    ],
    "La_Rochelle": [
      ["7036", "4914", "212", "46"]
    ],
    "Londres": [
      ["7374", "1364", "182", "100"]
    ],
    "Lorient": [
      ["5996", "3868", "140", "70"]
    ],
    "Manche": [
      ["0", "0", "0", "0"]
    ],
    "Minquiers": [
      ["6566", "3086", "150", "36"]
    ],
    "Nantes": [
      ["6878", "4194", "154", "80"]
    ],
    "Normandie": [
      ["0", "0", "0", "0"]
    ],
    "Ostende": [
      ["8798", "1620", "120", "44"]
    ],
    "Paris": [
      ["8500", "3168", "192", "86"]
    ],
    "Pasages": [
      ["6674", "6656", "58", "108"]
    ],
    "Portbail": [
      ["6782", "2850", "96", "34"]
    ],
    "Portland": [
      ["6326", "2054", "140", "66"]
    ],
    "Portrieux": [
      ["6264", "3374", "82", "56"]
    ],
    "Portsmouth": [
      ["7046", "1738", "180", "182"]
    ],
    "Pyrenees": [
      ["0", "0", "0", "0"]
    ],
    "Quimperle": [
      ["6070", "3848", "132", "38"]
    ],
    "Rennes": [
      ["6748", "3764", "192", "50"]
    ],
    "Rochefort": [
      ["7102", "5028", "214", "64"]
    ],
    "Rouen": [
      ["8006", "2786", "150", "82"]
    ],
    "Saint-Brieuc": [
      ["6290", "3442", "140", "56"]
    ],
    "Serk": [
      ["6452", "2790", "128", "70"]
    ],
    "Southampton": [
      ["6876", "1766", "226", "74"]
    ],
    "Tamise": [
      ["7558", "1404", "194", "78"]
    ],
    "Tor_Bay": [
      ["5942", "2126", "100", "46"]
    ],
    "Treport": [
      ["8108", "2458", "96", "80"]
    ],
    "Wales": [
      ["5768", "1012", "482", "100"]
    ],
    "Wight": [
      ["6894", "1958", "168", "82"]
    ],
    "Zuydersee": [
      ["9690", "790", "256", "122"]
    ]
  },
  "CG_1852.jpg": {
    "Ancresse": [
      ["289", "379", "207", "269"]
    ],
    "Archipel": [
      ["0", "0", "0", "0"]
    ],
    "B_01": [
      ["1512", "1802", "124", "62"]
    ],
    "B_02": [
      ["1316", "1972", "138", "60"]
    ],
    "B_03": [
      ["410", "2290", "130", "54"]
    ],
    "B_04": [
      ["378", "2176", "102", "52"]
    ],
    "B_05": [
      ["324", "2806", "114", "50"]
    ],
    "B_06": [
      ["1488", "1288", "146", "72"]
    ],
    "B_07": [
      ["1168", "942", "-1054", "-892"]
    ],
    "B_08": [
      ["492", "3350", "186", "54"]
    ],
    "B_09": [
      ["388", "2104", "122", "58"]
    ],
    "B_10": [
      ["1090", "1250", "198", "88"]
    ],
    "B_11": [
      ["1396", "2540", "124", "48"]
    ],
    "B_12": [
      ["404", "2478", "110", "40"]
    ],
    "B_13": [
      ["1322", "158", "154", "60"]
    ],
    "B_14": [
      ["737", "1326", "-612", "-1238"]
    ],
    "Bourdeaux": [
      ["787", "1101", "-628", "-1022"]
    ],
    "Braye_Grande": [
      ["782", "0", "219", "50"]
    ],
    "Braye_Petite": [
      ["893", "143", "172", "64"]
    ],
    "Cornet_Chateau": [
      ["368", "2338", "-138", "-2250"]
    ],
    "Crevel_Mont_Est": [
      ["681", "1390", "-329", "-1306"]
    ],
    "Fermain_Bay": [
      ["201", "2987", "32", "-2893"]
    ],
    "Grune_Pierre": [
      ["1052", "551", "-894", "-493"]
    ],
    "Guernesey": [
      ["0", "0", "0", "0"]
    ],
    "Hougue_la_Perre": [
      ["250", "1780", "-54", "-1714"]
    ],
    "Jet_Hou": [
      ["1776", "2096", "154", "184"]
    ],
    "Lemarchand_Fort": [
      ["607", "433", "-411", "-282"]
    ],
    "Manche": [
      ["0", "0", "0", "0"]
    ],
    "Mouliere": [
      ["1154", "700", "-1036", "-645"]
    ],
    "Roque_Nord": [
      ["271", "122", "184", "57"]
    ],
    "Sablonneuse": [
      ["340", "321", "127", "54"]
    ],
    "Saint_Sampson_Port": [
      ["602", "1346", "273", "53"]
    ]
  },
  "CG_1871.jpg": {
    "Ancresse": [
      ["6340", "1166", "400", "227"]
    ],
    "Archipel": [
      ["0", "0", "0", "0"]
    ],
    "Bourdeaux": [
      ["7432", "2157", "207", "123"]
    ],
    "Braye_du_Valle": [
      ["5696", "2278", "794", "250"]
    ],
    "Bu_de_la_rue": [
      ["7489", "1818", "156", "190"]
    ],
    "Catel": [
      ["4815", "4280", "226", "94"]
    ],
    "Catiau_Roque": [
      ["1993", "4628", "163", "91"]
    ],
    "Clotures_Route": [
      ["6252", "1673", "554", "73"]
    ],
    "Cobo_Bay": [
      ["3651", "3207", "354", "213"]
    ],
    "Cornet_Chateau": [
      ["6784", "4477", "433", "165"]
    ],
    "Crevel_Mont_Est": [
      ["7273", "2740", "253", "93"]
    ],
    "Crocq-Point": [
      ["2640", "3990", "247", "140"]
    ],
    "Croix_Baillif": [
      ["5176", "4880", "241", "116"]
    ],
    "Dicart_Cap": [
      ["5374", "6861", "397", "251"]
    ],
    "Doyle_Colonne": [
      ["6639", "6172", "162", "150"]
    ],
    "Doyle_Point": [
      ["7398", "1101", "277", "96"]
    ],
    "Doyle_Road": [
      ["5967", "4306", "118", "199"]
    ],
    "Fermain_Bay": [
      ["6524", "5674", "347", "164"]
    ],
    "George_Fort": [
      ["6297", "5051", "286", "240"]
    ],
    "Grand_Mielles": [
      ["4312", "2789", "438", "120"]
    ],
    "Guernesey": [
      ["0", "0", "0", "0"]
    ],
    "Havelet": [
      ["6305", "4786", "187", "80"]
    ],
    "Hougue_des_Pommiers": [
      ["4575", "3012", "248", "161"]
    ],
    "Hougue_la_Perre": [
      ["6485", "3513", "406", "144"]
    ],
    "Houmet_Benet": [
      ["7581", "2081", "203", "187"]
    ],
    "Houmet_Paradis": [
      ["7574", "1696", "214", "257"]
    ],
    "Hubies_Route": [
      ["5961", "5435", "241", "78"]
    ],
    "Huriaux": [
      ["5178", "5277", "236", "98"]
    ],
    "Hyvreuse": [
      ["6123", "4163", "207", "25"]
    ],
    "Jerbourg": [
      ["6515", "6393", "379", "243"]
    ],
    "Leree_Point": [
      ["1322", "4509", "412", "277"]
    ],
    "Li_Hou": [
      ["833", "4441", "320", "386"]
    ],
    "Li_Hou_Detroit": [
      ["1130", "4642", "272", "215"]
    ],
    "Li_Houmet": [
      ["702", "4331", "209", "321"]
    ],
    "Lierre_Chateau": [
      ["6145", "3377", "196", "99"]
    ],
    "Maison_visionnee": [
      ["927", "6386", "285", "192"]
    ],
    "Mare_Pelee": [
      ["5380", "2303", "291", "201"]
    ],
    "Moie": [
      ["4297", "7024", "258", "101"]
    ],
    "Mon_Plaisir": [
      ["5565", "4202", "194", "46"]
    ],
    "Omptolle": [
      ["7536", "1334", "256", "192"]
    ],
    "Perrelle_Bay": [
      ["2024", "4150", "387", "409"]
    ],
    "Petit_Bo": [
      ["4622", "6601", "283", "174"]
    ],
    "Pezeris": [
      ["826", "6059", "348", "200"]
    ],
    "Plainmont": [
      ["709", "6294", "484", "288"]
    ],
    "Port_Enfer": [
      ["4345", "2295", "249", "129"]
    ],
    "Port_Grat": [
      ["4982", "1927", "219", "107"]
    ],
    "Port_Soif": [
      ["4293", "2531", "154", "123"]
    ],
    "Rocquaine": [
      ["924", "5163", "785", "616"]
    ],
    "Rocquaine_Chateau": [
      ["1351", "5851", "311", "129"]
    ],
    "Roque_qui_chante": [
      ["3296", "4535", "254", "113"]
    ],
    "Rousse": [
      ["5476", "1842", "179", "89"]
    ],
    "Saint_Martin": [
      ["5068", "5836", "1176", "353"]
    ],
    "Saint_Pierre_du_Bois": [
      ["1919", "5405", "874", "814"]
    ],
    "Saint_Pierre_du_Bois_Clocher": [
      ["2732", "5969", "246", "123"]
    ],
    "Saint_Pierre_Port": [
      ["5782", "3977", "693", "754"]
    ],
    "Saint_Sampson": [
      ["6880", "2552", "309", "NaN"]
    ],
    "Saint_Sampson_Eglise": [
      ["7027", "2774", "96", "65"]
    ],
    "Saint_Sampson_Port": [
      ["6925", "2602", "278", "162"]
    ],
    "Saints_Baie": [
      ["5670", "6583", "579", "292"]
    ],
    "Sommeilleuse": [
      ["4251", "6617", "322", "212"]
    ],
    "SPP_Cimetiere": [
      ["6145", "4269", "104", "75"]
    ],
    "SPP_Eglise": [
      ["6323", "4492", "111", "40"]
    ],
    "SPP_Hauteville": [
      ["6279", "4646", "149", "220"]
    ],
    "SPP_Port": [
      ["6504", "4215", "359", "310"]
    ],
    "SPP_Salerie": [
      ["6508", "3993", "248", "102"]
    ],
    "Tas_Pois_Aval": [
      ["1152", "6947", "193", "111"]
    ],
    "Tau_Pez_Amont": [
      ["6485", "6744", "261", "105"]
    ],
    "Tielles": [
      ["2168", "6809", "245", "229"]
    ],
    "Torteval": [
      ["1043", "6356", "556", "483"]
    ],
    "Tour_Victoria": [
      ["6072", "4332", "148", "66"]
    ],
    "Valle": [
      ["5937", "1769", "1099", "NaN"]
    ],
    "Valle_Chateau": [
      ["7139", "2442", "241", "NaN"]
    ],
    "Vason_Baie": [
      ["2803", "3731", "529", "354"]
    ],
    "Videclins_Route": [
      ["3863", "4818", "279", "136"]
    ]
  },
  "ILL_EN_1891_Duez_269.jpg": {
    "Maison_visionnee": [
      ["0", "0", "0", "0"]
    ]
  },
  "ILL_H_1882_Hugo_133.jpg": {
    "Maison_visionnee": [
      ["0", "0", "0", "0"]
    ]
  },
  "ILL_HL_1869_Chifflart_80.jpg": {
    "Maison_visionnee": [
      ["0", "0", "0", "0"]
    ]
  },
  "ILL_HL_1869_Chifflart_81.jpg": {
    "Maison_visionnee": [
      ["0", "0", "0", "0"]
    ]
  },
  "ILL_LI_1876_Vierge_121.jpg": {
    "Maison_visionnee": [
      ["0", "0", "0", "0"]
    ]
  },
  "MVH_212_90_StSampson.jpg": {
    "Saint_Sampson": [
      ["0", "0", "0", "0"]
    ]
  },
  "NAF_13450_66.jpg": {
    "Maison_visionnee": [
      ["0", "0", "0", "0"]
    ]
  },
  "NAF_13459_10v.jpg": {
    "Angullieres": [
      ["184", "944", "146", "56"]
    ],
    "Cobo_Bay": [
      ["536", "540", "53", "79"]
    ],
    "Conchee": [
      ["180", "698", "186", "51"]
    ],
    "Corbiere": [
      ["626", "1257", "85", "126"]
    ],
    "Crocq-Point": [
      ["266", "746", "135", "44"]
    ],
    "Dicart_Cap": [
      ["864", "1283", "85", "41"]
    ],
    "Ecossaise": [
      ["139", "437", "195", "79"]
    ],
    "Etat_Petit": [
      ["210", "517", "206", "39"]
    ],
    "Etat-Gros": [
      ["224", "551", "192", "42"]
    ],
    "Foret": [
      ["753", "930", "137", "94"]
    ],
    "Grand_Mielles": [
      ["690", "293", "119", "247"]
    ],
    "Grand_Roque": [
      ["384", "413", "195", "68"]
    ],
    "Grunes_Ouest": [
      ["77", "56", "50", "373"]
    ],
    "Grunettes": [
      ["130", "177", "207", "67"]
    ],
    "Jerbourg": [
      ["890", "1116", "73", "117"]
    ],
    "Leree_Point": [
      ["70", "1039", "164", "57"]
    ],
    "Li_Hou": [
      ["76", "900", "105", "134"]
    ],
    "Maison_visionnee": [
      ["176", "1271", "172", "56"]
    ],
    "Messellettes": [
      ["87", "655", "239", "64"]
    ],
    "Moie": [
      ["717", "1249", "64", "130"]
    ],
    "Moulrette": [
      ["290", "57", "191", "74"]
    ],
    "Pecheries_Bay": [
      ["630", "154", "145", "131"]
    ],
    "Perrelle_Bay": [
      ["263", "834", "138", "122"]
    ],
    "Petit_Bo": [
      ["830", "1156", "66", "91"]
    ],
    "Pezeris": [
      ["147", "1174", "146", "92"]
    ],
    "Plainmont": [
      ["141", "1250", "232", "93"]
    ],
    "Plaquiere": [
      ["197", "103", "202", "86"]
    ],
    "Port_Enfer": [
      ["599", "293", "132", "63"]
    ],
    "Port_Grat": [
      ["769", "70", "114", "79"]
    ],
    "Port_Soif": [
      ["587", "351", "109", "113"]
    ],
    "Rocquaine": [
      ["211", "1106", "130", "55"]
    ],
    "Rocquaine_Chateau": [
      ["332", "1140", "127", "69"]
    ],
    "Rousse": [
      ["879", "54", "83", "70"]
    ],
    "Saint_Pierre_du_Bois": [
      ["580", "841", "141", "145"]
    ],
    "Saint_Sauveur": [
      ["717", "701", "174", "86"]
    ],
    "Saline_Bay": [
      ["500", "507", "91", "66"]
    ],
    "Sauts_Roquiers": [
      ["493", "54", "231", "106"]
    ],
    "Sommeilleuse": [
      ["789", "1304", "124", "55"]
    ],
    "Suzanne": [
      ["101", "60", "185", "59"]
    ],
    "Tas_Pois_Aval": [
      ["79", "1399", "191", "67"]
    ],
    "Tau_Pez_Amont": [
      ["780", "1379", "169", "87"]
    ],
    "Tielles": [
      ["481", "1247", "116", "87"]
    ],
    "Torteval": [
      ["441", "1033", "160", "84"]
    ],
    "Vason_Baie": [
      ["397", "707", "100", "130"]
    ]
  },
  "NAF_13459_11v.jpg": {
    "Boue_Blondel": [
      ["86", "432", "294", "139"]
    ],
    "Colombelle": [
      ["723", "364", "193", "112"]
    ],
    "Grand_Etacre": [
      ["500", "526", "166", "88"]
    ],
    "Hanois": [
      ["357", "1144", "313", "252"]
    ],
    "Hanois_Grand": [
      ["516", "1157", "147", "133"]
    ],
    "Hanois_Mauve": [
      ["369", "1214", "131", "76"]
    ],
    "Hanois_Petit": [
      ["489", "1310", "150", "89"]
    ],
    "Haute_Canee": [
      ["494", "916", "137", "150"]
    ],
    "Li_Hou": [
      ["683", "577", "201", "112"]
    ],
    "Maison_visionnee": [
      ["777", "1139", "186", "226"]
    ],
    "Messellettes": [
      ["796", "224", "160", "125"]
    ],
    "Pecheresse": [
      ["639", "467", "247", "100"]
    ],
    "Plainmont": [
      ["751", "1177", "210", "219"]
    ],
    "Rocquaine": [
      ["710", "757", "181", "369"]
    ],
    "Sambule": [
      ["433", "272", "231", "92"]
    ],
    "Souffleresse": [
      ["417", "187", "279", "84"]
    ]
  },
  "NAF_13459_14.jpg": {
    "B_01": [
      ["304", "114", "148", "230"]
    ],
    "B_02": [
      ["406", "114", "160", "176"]
    ],
    "B_03": [
      ["298", "880", "188", "266"]
    ],
    "B_04": [
      ["102", "844", "212", "248"]
    ],
    "B_05": [
      ["730", "858", "164", "282"]
    ],
    "B_06": [
      ["128", "108", "172", "258"]
    ],
    "B_07": [
      ["142", "444", "182", "286"]
    ],
    "B_08": [
      ["116", "1168", "286", "264"]
    ],
    "B_09": [
      ["738", "418", "196", "370"]
    ],
    "B_10": [
      ["328", "438", "210", "438"]
    ],
    "B_11": [
      ["584", "92", "198", "208"]
    ],
    "B_12": [
      ["508", "872", "208", "272"]
    ],
    "B_13": [
      ["452", "1152", "434", "324"]
    ],
    "B_14": [
      ["532", "414", "198", "424"]
    ]
  },
  "NAF_13459_22V.jpg": {
    "Catiau_Roque": [
      ["230", "312", "430", "134"]
    ]
  },
  "NAF_13459_30.jpg": {
    "Douvres": [
      ["0", "0", "0", "0"]
    ]
  },
  "NAF_13459_37V.jpg": {
    "Douvres": [
      ["0", "0", "0", "0"]
    ]
  },
  "NAF_13459_73V.jpg": {
    "Douvres": [
      ["0", "0", "0", "0"]
    ]
  },
  "NAF_13459_74V.jpg": {
    "Douvres": [
      ["0", "0", "0", "0"]
    ]
  },
  "NAF_13459_82.jpg": {
    "Chaise_Gild_Holm_Ur": [
      ["0", "0", "0", "0"]
    ]
  },
  "NAF_13459_83.jpg": {
    "Maison_visionnee": [
      ["0", "0", "0", "0"]
    ]
  },
  "NAF_13459_8.jpg": {
    "Barneville": [
      ["891", "1254", "56", "223"]
    ],
    "Deroute": [
      ["674", "302", "277", "139"]
    ],
    "Douvres": [
      ["414", "296", "200", "111"]
    ],
    "Frehel": [
      ["610", "737", "186", "87"]
    ],
    "Guernesey": [
      ["709", "439", "240", "69"],
      ["731", "171", "168", "63"]
    ],
    "Hanois": [
      ["621", "190", "125", "93"]
    ],
    "Jersey": [
      ["829", "1240", "51", "133"],
      ["843", "479", "111", "68"]
    ],
    "Mauvais_Cheval": [
      ["577", "1167", "147", "259"]
    ],
    "Minquiers": [
      ["737", "583", "213", "106"]
    ],
    "Paimpol": [
      ["256", "645", "198", "91"]
    ],
    "Plainmont": [
      ["760", "243", "197", "61"]
    ],
    "Saint_Malo": [
      ["704", "814", "160", "76"]
    ],
    "Saint_Sampson_Bravees": [
      ["83", "913", "433", "581"]
    ],
    "Saint-Brieuc": [
      ["441", "730", "190", "111"]
    ],
    "Sillon": [
      ["241", "139", "258", "60"],
      ["264", "566", "296", "72"]
    ]
  },
  "NAF_13459_9v.jpg": {
    "Ancresse": [
      ["434", "570", "160", "147"]
    ],
    "B_13": [
      ["823", "303", "123", "154"]
    ],
    "Boue_Corneille": [
      ["80", "559", "137", "95"]
    ],
    "Bourdeaux": [
      ["820", "1019", "124", "51"]
    ],
    "Braye_du_Valle": [
      ["366", "880", "325", "179"]
    ],
    "Champ_Fleury": [
      ["606", "594", "153", "106"]
    ],
    "Crevel_Mont_Est": [
      ["786", "1130", "145", "94"]
    ],
    "Crevel_Mont_Ouest": [
      ["239", "570", "187", "116"]
    ],
    "Deux_Brayes": [
      ["836", "641", "105", "45"]
    ],
    "Doyle_Point": [
      ["535", "403", "-348", "-312"]
    ],
    "Fontenelle_Pointe": [
      ["783", "474", "155", "97"]
    ],
    "Fruquiers": [
      ["144", "227", "173", "92"]
    ],
    "Gripe_Rousse": [
      ["89", "417", "157", "92"]
    ],
    "Hougue_la_Perre": [
      ["375", "1359", "6", "-1242"]
    ],
    "Houmet_Benet": [
      ["859", "891", "92", "72"]
    ],
    "Houmet_Paradis": [
      ["860", "737", "91", "130"]
    ],
    "Marquis_Banc": [
      ["99", "726", "194", "90"]
    ],
    "Omptolle": [
      ["757", "573", "149", "61"]
    ],
    "Platon": [
      ["383", "482", "158", "107"]
    ],
    "Port_Grat": [
      ["73", "940", "86", "117"]
    ],
    "Roque_Nord": [
      ["349", "259", "207", "81"]
    ],
    "Rousse": [
      ["163", "801", "153", "90"]
    ],
    "Rousse_Mer": [
      ["163", "354", "198", "72"]
    ],
    "Sablonneuse": [
      ["483", "350", "173", "69"]
    ],
    "Saint_Sampson_Eglise": [
      ["692", "1046", "-584", "-1003"]
    ],
    "Saint_Sampson_Presbytere": [
      ["661", "1091", "-550", "-1053"]
    ],
    "Salterns": [
      ["329", "1083", "111", "53"]
    ],
    "Silleuse": [
      ["306", "314", "141", "62"]
    ],
    "Tas_Pois_Aval": [
      ["96", "133", "410", "74"]
    ],
    "Tau_Pez_Amont": [
      ["101", "61", "392", "79"]
    ],
    "Valle_Chateau": [
      ["788", "1037", "-636", "-960"]
    ]
  },
  "NAF_13460_10.jpg": {
    "B_01": [
      ["372", "362", "140", "194"]
    ],
    "B_02": [
      ["502", "354", "172", "176"]
    ],
    "B_03": [
      ["570", "584", "128", "236"]
    ],
    "B_04": [
      ["394", "584", "148", "244"]
    ],
    "B_05": [
      ["868", "596", "122", "256"]
    ],
    "B_06": [
      ["196", "368", "180", "208"]
    ],
    "B_08": [
      ["1022", "584", "234", "210"]
    ],
    "B_09": [
      ["200", "582", "176", "264"]
    ],
    "B_10": [
      ["878", "354", "132", "224"]
    ],
    "B_11": [
      ["640", "332", "190", "250"]
    ],
    "B_12": [
      ["706", "590", "148", "214"]
    ],
    "B_13": [
      ["1178", "398", "300", "288"]
    ],
    "B_14": [
      ["1042", "338", "160", "262"]
    ],
    "Dicart_Cap": [
      ["1132", "70", "156", "52"]
    ],
    "Hanois": [
      ["788", "176", "556", "170"]
    ],
    "Plainmont": [
      ["88", "106", "690", "222"]
    ],
    "Valle_Chateau": [
      ["1152", "110", "260", "60"]
    ]
  },
  "NAF_13460_38.jpg": {
    "Hanois": [
      ["63", "69", "651", "204"]
    ],
    "Plainmont": [
      ["600", "63", "318", "72"]
    ]
  },
  "NAF_13460_81v.jpg": {
    "Exeter": [
      ["248", "274", "164", "96"],
      ["980", "84", "200", "74"]
    ],
    "Guernesey": [
      ["660", "402", "192", "170"],
      ["882", "160", "276", "108"]
    ],
    "Saint_Malo": [
      ["256", "184", "292", "94"],
      ["992", "534", "286", "158"]
    ]
  },
  "NAF_13460-82v.jpg": {
    "Ancresse": [
      ["403", "203", "187", "58"]
    ],
    "B_13": [
      ["743", "106", "181", "60"]
    ],
    "Boue_Corneille": [
      ["109", "370", "170", "98"]
    ],
    "Boue_Vason": [
      ["57", "714", "103", "117"]
    ],
    "Boues_Fosse": [
      ["150", "224", "161", "69"]
    ],
    "Braye_Grande": [
      ["664", "34", "253", "53"]
    ],
    "Braye_Petite": [
      ["672", "73", "253", "63"]
    ],
    "Brecqhou": [
      ["640", "713", "126", "296"]
    ],
    "Catel": [
      ["326", "653", "228", "148"]
    ],
    "Cobo_Bay": [
      ["237", "697", "152", "83"]
    ],
    "Cromlech": [
      ["387", "417", "146", "73"]
    ],
    "Deux_Brayes": [
      ["664", "29", "259", "108"]
    ],
    "Ecrehou": [
      ["757", "687", "82", "330"]
    ],
    "Equerrier": [
      ["203", "1091", "138", "59"]
    ],
    "Fontenelle_Demie": [
      ["596", "216", "147", "118"]
    ],
    "Fruquiers": [
      ["59", "179", "160", "71"]
    ],
    "Gripe_Rousse": [
      ["87", "319", "237", "87"]
    ],
    "Grune_Pierre": [
      ["737", "153", "189", "61"]
    ],
    "Grunettes": [
      ["60", "635", "139", "81"]
    ],
    "Hanois": [
      ["86", "1410", "150", "64"]
    ],
    "Houmet_Paradis": [
      ["700", "317", "227", "86"]
    ],
    "Jet_Hou": [
      ["590", "716", "100", "304"]
    ],
    "Lemarchand_Fort": [
      ["473", "253", "118", "137"]
    ],
    "Li_Hou": [
      ["508", "729", "83", "304"],
      ["560", "1136", "110", "85"],
      ["63", "1201", "101", "99"]
    ],
    "Maison_visionnee": [
      ["320", "1350", "166", "70"]
    ],
    "Mouliere": [
      ["753", "212", "174", "61"]
    ],
    "Noirmont": [
      ["367", "494", "143", "70"]
    ],
    "Perrelle_Bay": [
      ["153", "1010", "187", "83"]
    ],
    "Plainmont": [
      ["287", "1340", "197", "115"]
    ],
    "Port_Enfer": [
      ["231", "570", "126", "80"]
    ],
    "Port_Soif": [
      ["197", "649", "117", "80"]
    ],
    "Rocquaine": [
      ["157", "1321", "156", "86"]
    ],
    "Roque_Noire": [
      ["145", "412", "149", "107"]
    ],
    "Rousse_Mer": [
      ["111", "276", "209", "67"]
    ],
    "Sablonneuse": [
      ["443", "120", "213", "66"]
    ],
    "Saint_Sampson": [
      ["717", "388", "183", "63"]
    ],
    "Sauts_Roquiers": [
      ["60", "527", "179", "120"]
    ],
    "Silleuse": [
      ["301", "170", "125", "57"]
    ],
    "Torteval": [
      ["509", "1313", "181", "90"]
    ],
    "Tour_Eree": [
      ["196", "1180", "213", "109"]
    ],
    "Vason_Baie": [
      ["189", "774", "90", "107"]
    ]
  },
  "NAF_13460_83.jpg": {
    "Aiguillons": [
      ["407", "160", "133", "100"]
    ],
    "Boue_le_Mouet": [
      ["478", "580", "220", "48"]
    ],
    "Boue_South": [
      ["207", "575", "175", "127"]
    ],
    "Cat_Rock": [
      ["283", "488", "179", "62"]
    ],
    "Grand_Etacre": [
      ["72", "908", "173", "72"]
    ],
    "Hanois": [
      ["124", "152", "348", "338"],
      ["578", "878", "258", "234"],
      ["138", "1316", "222", "84"],
      ["345", "93", "88", "60"]
    ],
    "Hanois_13_Rochers": [
      ["55", "170", "80", "295"]
    ],
    "Hanois_Grand": [
      ["222", "234", "140", "100"]
    ],
    "Hanois_Light_Red": [
      ["246", "360", "216", "124"]
    ],
    "Hanois_Mauve": [
      ["120", "236", "118", "78"]
    ],
    "Haute_Canee": [
      ["293", "1120", "202", "158"]
    ],
    "Hautes_Fourquies": [
      ["152", "125", "240", "49"]
    ],
    "Herouee": [
      ["544", "205", "149", "85"]
    ],
    "Li_Hou": [
      ["319", "913", "-118", "-812"]
    ],
    "Li_Houmet": [
      ["147", "972", "35", "-900"]
    ],
    "Maison_visionnee": [
      ["696", "392", "-532", "-229"]
    ],
    "Nipple_Rock": [
      ["112", "707", "226", "146"],
      ["630", "151", "177", "64"]
    ],
    "Pecheresse": [
      ["220", "842", "200", "70"]
    ],
    "Percee": [
      ["507", "505", "110", "67"]
    ],
    "Plainmont": [
      ["612", "1002", "203", "80"],
      ["685", "335", "178", "252"]
    ],
    "Rocquaine": [
      ["495", "113", "253", "72"]
    ],
    "Roque_Herpin": [
      ["643", "608", "159", "92"]
    ],
    "Roque_Ronde": [
      ["480", "423", "113", "85"]
    ],
    "Roque_Rouge": [
      ["562", "291", "126", "136"]
    ],
    "Tas_Pois_Aval": [
      ["633", "698", "177", "107"]
    ]
  },
  "NAF_13460_9v.jpg": {
    "Brecqhou": [
      ["312", "46", "144", "574"]
    ],
    "Jet_Hou": [
      ["210", "126", "90", "510"]
    ],
    "Li_Hou": [
      ["118", "130", "98", "510"]
    ]
  },
  "NAF_13462_12.jpg": {
    "Ortach": [
      ["0", "0", "0", "0"]
    ]
  },
  "NAF_13462_16v.jpg": {
    "Aiguilles_Wight": [
      ["0", "0", "0", "0"]
    ]
  },
  "NAF_13462_27v.jpg": {
    "Aiguilles_Wight": [
      ["0", "0", "0", "0"]
    ]
  },
  "NAF_13462_62.jpg": {
    "Aiguilles_Wight": [
      ["0", "0", "0", "0"]
    ],
    "Aurigny": [
      ["0", "0", "0", "0"]
    ],
    "Casquets": [
      ["0", "0", "0", "0"]
    ],
    "Jersey": [
      ["0", "0", "0", "0"]
    ],
    "Ortach": [
      ["0", "0", "0", "0"]
    ],
    "Southampton": [
      ["0", "0", "0", "0"]
    ],
    "Weymouth": [
      ["0", "0", "0", "0"]
    ]
  },
  "NAF_24745_101.jpg": {
    "Normandie": [
      ["0", "0", "0", "0"]
    ]
  },
  "NAF_24745_123.jpg": {
    "Maison_visionnee": [
      ["0", "0", "0", "0"]
    ]
  },
  "NAF_24745_222.jpg": {
    "Douvres": [
      ["0", "0", "0", "0"]
    ]
  },
  "NAF_24745_232.jpg": {
    "Douvres": [
      ["0", "0", "0", "0"]
    ]
  },
  "NAF_24745_2.jpg": {
    "Bu_de_la_rue": [
      ["257", "568", "181", "133"]
    ],
    "Douvres": [
      ["561", "555", "151", "212"]
    ]
  },
  "NAF_24745_414.jpg": {
    "Braye_du_Valle": [
      ["0", "0", "0", "0"]
    ],
    "Saint_Sampson": [
      ["0", "0", "0", "0"]
    ]
  },
  "NAF_24745_425.jpg": {
    "Catel": [
      ["0", "0", "0", "0"]
    ]
  },
  "NAF_24745_434.jpg": {
    "Saint_Pierre_Port": [
      ["0", "0", "0", "0"]
    ]
  },
  "NAF_24745_447.jpg": {
    "Saint_Sampson": [
      ["0", "0", "0", "0"]
    ]
  },
  "NAF_24745_44V.jpg": {
    "Ortach": [
      ["0", "0", "0", "0"]
    ]
  },
  "NAF_24745_69.jpg": {
    "Guernesey": [
      ["0", "0", "0", "0"]
    ]
  },
  "NAF_24745_96.jpg": {
    "Guernesey": [
      ["0", "0", "0", "0"]
    ]
  }
}
