<?xml version="1.0" encoding="UTF-8" standalone="no"?>
<!-- Created with Inkscape (http://www.inkscape.org/) -->

<svg
   xmlns:dc="http://purl.org/dc/elements/1.1/"
   xmlns:cc="http://creativecommons.org/ns#"
   xmlns:rdf="http://www.w3.org/1999/02/22-rdf-syntax-ns#"
   xmlns:svg="http://www.w3.org/2000/svg"
   xmlns="http://www.w3.org/2000/svg"
   xmlns:sodipodi="http://sodipodi.sourceforge.net/DTD/sodipodi-0.dtd"
   xmlns:inkscape="http://www.inkscape.org/namespaces/inkscape"
   width="5.0662351mm"
   height="9.8242416mm"
   viewBox="0 0 5.0662351 9.8242415"
   version="1.1"
   id="svg1412"
   inkscape:version="0.92.5 (2060ec1f9f, 2020-04-08)"
   sodipodi:docname="B_01.svg">
  <defs
     id="defs1406" />
  <sodipodi:namedview
     id="base"
     pagecolor="#ffffff"
     bordercolor="#666666"
     borderopacity="1.0"
     inkscape:pageopacity="0.0"
     inkscape:pageshadow="2"
     inkscape:zoom="3.959798"
     inkscape:cx="2.3849532"
     inkscape:cy="-30.471649"
     inkscape:document-units="mm"
     inkscape:current-layer="layer1"
     showgrid="false"
     fit-margin-top="0"
     fit-margin-left="0"
     fit-margin-right="0"
     fit-margin-bottom="0"
     inkscape:window-width="1916"
     inkscape:window-height="1041"
     inkscape:window-x="0"
     inkscape:window-y="18"
     inkscape:window-maximized="0" />
  <metadata
     id="metadata1409">
    <rdf:RDF>
      <cc:Work
         rdf:about="">
        <dc:format>image/svg+xml</dc:format>
        <dc:type
           rdf:resource="http://purl.org/dc/dcmitype/StillImage" />
        <dc:title></dc:title>
      </cc:Work>
    </rdf:RDF>
  </metadata>
  <g
     inkscape:label="Calque 1"
     inkscape:groupmode="layer"
     id="layer1"
     transform="translate(-43.83798,-95.514633)">
    <path
       style="fill:#000000;stroke-width:0.26458332"
       d="m 48.584923,104.99039 c -0.0702,-0.23775 -0.280217,-0.57753 -0.536903,-0.86865 -0.231882,-0.26298 -0.567153,-0.67347 -0.745046,-0.9122 -0.186303,-0.25002 -0.415638,-0.4572 -0.540885,-0.48863 -0.280352,-0.0704 -0.655795,0.12345 -0.897975,0.46356 -0.142938,0.20074 -0.204726,0.23616 -0.260675,0.14944 -0.06031,-0.0935 -0.08813,-0.0911 -0.156702,0.0133 -0.04585,0.0699 -0.08395,0.21025 -0.08467,0.31199 -0.0021,0.29758 -0.160497,0.63287 -0.406883,0.86122 -0.20661,0.19147 -0.232197,0.1973 -0.258852,0.0589 -0.08564,-0.44468 0.742043,-1.82477 1.094369,-1.82477 0.195652,0 0.197606,-0.0439 0.03639,-0.81663 -0.07802,-0.37397 -0.129432,-1.11753 -0.134645,-1.947335 -0.0081,-1.290516 -0.148053,-2.643229 -0.318752,-3.081094 -0.151719,-0.389175 -0.416977,-0.589605 -0.780313,-0.589605 -0.276864,0 -0.351126,-0.03594 -0.413549,-0.200118 -0.04185,-0.110066 -0.136154,-0.223171 -0.209572,-0.251343 -0.143589,-0.0551 -0.180677,-0.271378 -0.05939,-0.346337 0.04075,-0.02519 0.254127,0.01556 0.474167,0.09052 0.315793,0.107601 0.465164,0.117253 0.709071,0.04582 0.169951,-0.04977 0.741794,-0.09962 1.270762,-0.110781 0.827879,-0.01746 0.972897,-5.29e-4 1.04175,0.122647 0.04399,0.07861 0.05864,0.177472 0.03254,0.219694 -0.02609,0.04222 4.23e-4,0.09385 0.05892,0.114737 0.210655,0.07521 -0.02042,0.165386 -0.440017,0.171717 -0.643131,0.0097 -0.742182,0.15775 -0.804045,1.201772 -0.11233,1.895748 -0.129408,2.566707 -0.07901,3.104306 0.04343,0.46327 0.08248,0.57203 0.218136,0.60751 0.146082,0.0382 0.158365,0.0906 0.105948,0.4517 -0.03261,0.22467 -0.09546,0.47814 -0.139655,0.56327 -0.1348,0.25962 -0.02585,0.39611 0.252477,0.31629 0.385229,-0.11048 0.708594,0.0837 1.137344,0.68279 0.212326,0.29671 0.506322,0.67282 0.653324,0.8358 0.38804,0.43023 0.52725,0.73168 0.497837,1.07805 -0.03725,0.43861 -0.181566,0.42599 -0.315492,-0.0276 z"
       id="path4161"
       inkscape:connector-curvature="0" />
  </g>
</svg>
