<?xml version="1.0" encoding="UTF-8" standalone="no"?>
<!-- Created with Inkscape (http://www.inkscape.org/) -->

<svg
   xmlns:dc="http://purl.org/dc/elements/1.1/"
   xmlns:cc="http://creativecommons.org/ns#"
   xmlns:rdf="http://www.w3.org/1999/02/22-rdf-syntax-ns#"
   xmlns:svg="http://www.w3.org/2000/svg"
   xmlns="http://www.w3.org/2000/svg"
   xmlns:sodipodi="http://sodipodi.sourceforge.net/DTD/sodipodi-0.dtd"
   xmlns:inkscape="http://www.inkscape.org/namespaces/inkscape"
   width="17.538103mm"
   height="42.623737mm"
   viewBox="0 0 17.538102 42.623743"
   version="1.1"
   id="svg1412"
   inkscape:version="0.92.5 (2060ec1f9f, 2020-04-08)"
   sodipodi:docname="B_02.svg">
  <defs
     id="defs1406" />
  <sodipodi:namedview
     id="base"
     pagecolor="#ffffff"
     bordercolor="#666666"
     borderopacity="1.0"
     inkscape:pageopacity="0.0"
     inkscape:pageshadow="2"
     inkscape:zoom="2.8"
     inkscape:cx="-117.74583"
     inkscape:cy="21.091873"
     inkscape:document-units="mm"
     inkscape:current-layer="layer1"
     showgrid="false"
     fit-margin-top="0"
     fit-margin-left="0"
     fit-margin-right="0"
     fit-margin-bottom="0"
     inkscape:window-width="1916"
     inkscape:window-height="1041"
     inkscape:window-x="0"
     inkscape:window-y="18"
     inkscape:window-maximized="0" />
  <metadata
     id="metadata1409">
    <rdf:RDF>
      <cc:Work
         rdf:about="">
        <dc:format>image/svg+xml</dc:format>
        <dc:type
           rdf:resource="http://purl.org/dc/dcmitype/StillImage" />
        <dc:title></dc:title>
      </cc:Work>
    </rdf:RDF>
  </metadata>
  <g
     inkscape:label="Calque 1"
     inkscape:groupmode="layer"
     id="layer1"
     transform="translate(-58.683279,-33.495034)">
    <path
       inkscape:connector-curvature="0"
       style="fill:#000000;stroke-width:0.26458332"
       d="m 74.486713,73.206992 c -0.30934,-1.679432 -0.978127,-3.96231 -1.486199,-5.073068 -0.508071,-1.110755 -0.923766,-2.14258 -0.923766,-2.292943 0,-0.15036 -0.533111,-0.855403 -1.18469,-1.566767 -1.08331,-1.182698 -1.281277,-1.265685 -2.313271,-0.969711 -0.62072,0.178019 -1.397294,0.227475 -1.725726,0.109905 -0.328427,-0.117576 -0.47946,-0.08402 -0.335624,0.07456 0.143838,0.158584 0.08471,0.501378 -0.13139,0.761765 -0.301241,0.362971 -0.259368,0.473429 0.179451,0.473429 0.314799,0 0.57236,0.126873 0.57236,0.28194 0,0.155067 -0.535453,0.21943 -1.189897,0.143029 -0.90002,-0.105077 -1.372701,0.0573 -1.940277,0.666522 -0.412708,0.442992 -0.750379,1.01363 -0.750379,1.268085 0,0.254455 -0.198438,0.464613 -0.440974,0.467016 -0.522996,0.0052 -2.028473,2.223749 -2.028473,2.989297 0,0.293761 -0.15875,0.534111 -0.352776,0.534111 -0.194027,0 -0.352777,0.3175 -0.352777,0.705557 0,0.388056 -0.198438,0.707985 -0.440973,0.710956 -0.281816,0.0035 -0.310177,0.09895 -0.07858,0.264584 0.199316,0.142549 0.350689,0.695745 0.336386,1.22932 -0.0159,0.593984 0.159401,0.97014 0.452175,0.97014 0.263004,0 0.380072,0.15875 0.260157,0.352777 -0.402875,0.651867 -1.500568,0.370099 -1.717926,-0.440971 -0.325766,-1.215588 -0.261956,-3.020692 0.11502,-3.253674 0.185555,-0.114678 0.247943,-0.441547 0.138644,-0.726376 -0.109299,-0.284827 -0.05488,-0.517866 0.120925,-0.517866 0.17581,0 0.508037,-0.515938 0.738278,-1.14653 0.747842,-2.048185 4.158088,-5.676881 5.103463,-5.430374 0.339815,0.08861 0.537265,0.03073 0.438774,-0.128644 -0.09849,-0.159361 -0.0013,-0.349001 0.215937,-0.421417 0.270971,-0.09032 0.365617,-1.567622 0.301398,-4.704437 -0.152101,-7.429426 0.03341,-10.678629 0.91944,-16.104659 0.189039,-1.15766 -0.06422,-1.332886 -2.020845,-1.398206 -1.93733,-0.06468 -3.235936,-0.529021 -2.918029,-1.043406 0.133546,-0.216082 0.02402,-0.53145 -0.243353,-0.700812 -0.360855,-0.22856 -0.281567,-0.309327 0.307578,-0.313336 0.436563,-0.003 0.79375,0.137817 0.79375,0.312865 0,0.565094 2.166056,1.093285 3.565652,0.869479 0.748228,-0.119647 1.274556,-0.35646 1.169617,-0.526254 -0.104939,-0.169793 0.13607,-0.328559 0.535578,-0.352811 0.74564,-0.04527 1.36417,-0.164587 1.520126,-0.293246 0.04851,-0.04002 0.500592,-0.103732 1.004636,-0.141589 1.112073,-0.08353 1.884405,-0.801753 2.195648,-2.041834 0.350364,-1.395968 -0.403889,-1.851552 -2.244728,-1.355863 -0.813752,0.21912 -1.94278,0.41157 -2.508954,0.42767 -0.566171,0.01609 -1.112483,0.163698 -1.21403,0.328001 -0.101544,0.164304 -0.730885,0.298736 -1.398532,0.298736 -0.911465,0 -1.220078,0.15381 -1.238697,0.61736 -0.02151,0.536017 -0.06014,0.527048 -0.293079,-0.06807 -0.239358,-0.611539 -0.322029,-0.564001 -0.766873,0.440973 -0.772041,1.744158 -1.410902,1.441998 -0.786011,-0.371758 0.636714,-1.848077 0.670062,-1.881378 1.333066,-1.331134 0.343122,0.284765 0.537694,0.308739 0.537694,0.06626 0,-0.208995 0.595312,-0.473046 1.322917,-0.586785 2.241954,-0.350457 5.730954,-1.300938 5.924396,-1.613935 0.365548,-0.591468 2.889322,0.584309 3.17305,1.478262 0.112165,0.353409 -0.184846,1.326877 -0.669946,2.195779 -0.581081,1.040818 -0.75388,1.67848 -0.518597,1.913761 0.235279,0.23528 -0.0021,0.529907 -0.712351,0.884237 -0.836488,0.417296 -1.102008,0.435467 -1.236638,0.08462 -0.208243,-0.542676 -2.569202,0.07585 -2.595161,0.679879 -0.0088,0.205179 -0.118014,1.881179 -0.242657,3.724441 -0.124642,1.843265 -0.295785,6.093902 -0.380315,9.445858 -0.08453,3.351961 -0.242511,6.238176 -0.351065,6.413817 -0.108548,0.175647 -0.01199,0.433928 0.214609,0.573964 0.28973,0.179067 0.219094,0.395655 -0.238061,0.729932 -0.584348,0.427289 -0.505439,0.475319 0.780928,0.475319 0.89571,0 1.765718,0.263316 2.32591,0.703963 1.012015,0.796055 2.929974,4.016725 3.291271,5.526771 0.131752,0.550666 0.398259,1.202552 0.592233,1.44863 0.36399,0.461767 0.862457,2.475077 1.166492,4.711462 0.139785,1.028195 0.04785,1.311259 -0.469858,1.446641 -0.557559,0.145804 -0.71887,-0.240083 -1.206082,-2.885196 z"
       id="path5017" />
  </g>
</svg>
