<?xml version="1.0" encoding="UTF-8" standalone="no"?>
<!-- Created with Inkscape (http://www.inkscape.org/) -->

<svg
   xmlns:dc="http://purl.org/dc/elements/1.1/"
   xmlns:cc="http://creativecommons.org/ns#"
   xmlns:rdf="http://www.w3.org/1999/02/22-rdf-syntax-ns#"
   xmlns:svg="http://www.w3.org/2000/svg"
   xmlns="http://www.w3.org/2000/svg"
   xmlns:sodipodi="http://sodipodi.sourceforge.net/DTD/sodipodi-0.dtd"
   xmlns:inkscape="http://www.inkscape.org/namespaces/inkscape"
   width="8.361537mm"
   height="12.407096mm"
   viewBox="0 0 8.3615367 12.407097"
   version="1.1"
   id="svg1412"
   inkscape:version="0.92.5 (2060ec1f9f, 2020-04-08)"
   sodipodi:docname="B_03_2.svg">
  <defs
     id="defs1406" />
  <sodipodi:namedview
     id="base"
     pagecolor="#ffffff"
     bordercolor="#666666"
     borderopacity="1.0"
     inkscape:pageopacity="0.0"
     inkscape:pageshadow="2"
     inkscape:zoom="3.959798"
     inkscape:cx="15.801328"
     inkscape:cy="23.446482"
     inkscape:document-units="mm"
     inkscape:current-layer="layer1"
     showgrid="false"
     fit-margin-top="0"
     fit-margin-left="0"
     fit-margin-right="0"
     fit-margin-bottom="0"
     inkscape:window-width="1916"
     inkscape:window-height="1041"
     inkscape:window-x="0"
     inkscape:window-y="18"
     inkscape:window-maximized="0" />
  <metadata
     id="metadata1409">
    <rdf:RDF>
      <cc:Work
         rdf:about="">
        <dc:format>image/svg+xml</dc:format>
        <dc:type
           rdf:resource="http://purl.org/dc/dcmitype/StillImage" />
        <dc:title></dc:title>
      </cc:Work>
    </rdf:RDF>
  </metadata>
  <g
     inkscape:label="Calque 1"
     inkscape:groupmode="layer"
     id="layer1"
     transform="translate(-34.94284,-83.14336)">
    <path
       style="fill:#000000;stroke-width:0.26458332"
       d="m 38.575679,83.144927 c -0.202726,-0.0091 -0.544981,0.02172 -1.200443,0.08475 -1.056188,0.101555 -1.279626,0.186584 -1.201995,0.456819 0.09279,0.322998 0.743202,0.820105 1.072804,0.820105 h 0.236678 l 0.0057,0.698664 c 0.0031,0.384175 0.02466,1.224439 0.04754,1.867588 0.04009,1.126524 0.03352,1.185209 -0.175183,1.604036 -0.119158,0.239118 -0.217027,0.474935 -0.217559,0.524 -5.29e-4,0.04907 -0.152662,0.467378 -0.338479,0.929658 -0.185817,0.46228 -0.337965,0.873221 -0.337965,0.913122 0,0.0399 -0.20645,0.524209 -0.458886,1.075905 -0.252436,0.551698 -0.485547,1.179168 -0.517797,1.394229 -0.03225,0.215064 -0.09906,0.390674 -0.148313,0.390674 -0.147325,0 -0.398941,0.269716 -0.398941,0.427363 0,0.106325 0.08756,0.157913 0.317294,0.186552 0.3644,0.04543 0.365151,0.04496 0.394806,-0.157096 0.01222,-0.08325 0.07633,-0.18142 0.14211,-0.218591 0.185626,-0.104894 1.961872,-0.488365 2.03967,-0.440283 0.03806,0.02352 0.06925,0.119624 0.06925,0.213424 0,0.245589 0.252711,0.169727 0.416512,-0.125058 0.202031,-0.363583 0.592439,-0.457401 1.754931,-0.422196 0.552072,0.01672 1.126014,0.04999 1.275374,0.07441 0.587531,0.09602 1.634382,1.208257 1.768369,1.878439 0.07901,0.395181 0.23282,0.239937 0.167431,-0.168982 -0.06303,-0.394197 -0.793292,-1.501026 -1.186492,-1.798341 -0.269727,-0.203951 -0.930907,-0.420243 -1.053166,-0.344681 -0.08819,0.0545 -0.359648,-0.251518 -0.520899,-0.586528 -0.06724,-0.1397 -0.322961,-0.548955 -0.567922,-0.909505 -0.24496,-0.360548 -0.44545,-0.690777 -0.44545,-0.733806 0,-0.04303 -0.02864,-0.09092 -0.06356,-0.106453 -0.123081,-0.0547 -0.745744,-0.879363 -0.948261,-1.255736 -0.112752,-0.20955 -0.255111,-0.419039 -0.316262,-0.465606 -0.08631,-0.06572 -0.113448,-0.578374 -0.121438,-2.291334 -0.01175,-2.515414 0.0114,-2.626659 0.592727,-2.859256 0.431155,-0.172514 0.49466,-0.287206 0.280088,-0.501777 -0.09673,-0.09673 -0.159528,-0.145429 -0.362251,-0.154514 z m -1.353923,0.440801 c 0.02941,0.0013 0.05466,0.0092 0.06873,0.02326 0.02813,0.02814 -0.02186,0.04812 -0.111107,0.04444 -0.09863,-0.004 -0.1187,-0.02413 -0.05116,-0.05116 0.03056,-0.01225 0.06412,-0.01775 0.09353,-0.01654 z m 0.964282,6.339665 c 0.295145,0 1.750594,2.02511 2.081527,2.896463 l 0.08733,0.22996 -0.526066,-0.0088 c -0.289226,-0.0047 -0.640098,0.01148 -0.779798,0.03617 -0.365281,0.06453 -0.672232,-0.03631 -0.709518,-0.233061 -0.01765,-0.09313 -0.03979,-0.416652 -0.04961,-0.719336 -0.0098,-0.302683 -0.04013,-0.626718 -0.06718,-0.719852 -0.02705,-0.09313 -0.07447,-0.46438 -0.105418,-0.825272 -0.04702,-0.548283 -0.036,-0.656291 0.06873,-0.656291 z m -0.687814,0.09767 c 0.119793,0.04155 0.120217,0.584679 0.11679,1.669667 l -0.0052,1.689817 -0.316778,0.09457 c -0.174056,0.05218 -0.560202,0.117887 -0.858345,0.145727 l -0.542087,0.05064 0.06667,-0.329179 c 0.14442,-0.712295 0.193688,-0.884293 0.264583,-0.928108 0.04055,-0.02506 0.07338,-0.1105 0.07338,-0.189653 0,-0.07916 0.166103,-0.467072 0.368969,-0.862478 0.473073,-0.922073 0.712198,-1.382559 0.83199,-1.341004 z"
       id="path4415"
       inkscape:connector-curvature="0" />
  </g>
</svg>
