<?xml version="1.0" encoding="UTF-8" standalone="no"?>
<!-- Created with Inkscape (http://www.inkscape.org/) -->

<svg
   xmlns:dc="http://purl.org/dc/elements/1.1/"
   xmlns:cc="http://creativecommons.org/ns#"
   xmlns:rdf="http://www.w3.org/1999/02/22-rdf-syntax-ns#"
   xmlns:svg="http://www.w3.org/2000/svg"
   xmlns="http://www.w3.org/2000/svg"
   xmlns:sodipodi="http://sodipodi.sourceforge.net/DTD/sodipodi-0.dtd"
   xmlns:inkscape="http://www.inkscape.org/namespaces/inkscape"
   width="6.4103737mm"
   height="15.129002mm"
   viewBox="0 0 6.4103735 15.129003"
   version="1.1"
   id="svg1412"
   inkscape:version="0.92.5 (2060ec1f9f, 2020-04-08)"
   sodipodi:docname="B_05_2.svg">
  <defs
     id="defs1406" />
  <sodipodi:namedview
     id="base"
     pagecolor="#ffffff"
     bordercolor="#666666"
     borderopacity="1.0"
     inkscape:pageopacity="0.0"
     inkscape:pageshadow="2"
     inkscape:zoom="3.959798"
     inkscape:cx="12.11409"
     inkscape:cy="28.59024"
     inkscape:document-units="mm"
     inkscape:current-layer="layer1"
     showgrid="false"
     fit-margin-top="0"
     fit-margin-left="0"
     fit-margin-right="0"
     fit-margin-bottom="0"
     inkscape:window-width="1916"
     inkscape:window-height="1041"
     inkscape:window-x="0"
     inkscape:window-y="18"
     inkscape:window-maximized="0" />
  <metadata
     id="metadata1409">
    <rdf:RDF>
      <cc:Work
         rdf:about="">
        <dc:format>image/svg+xml</dc:format>
        <dc:type
           rdf:resource="http://purl.org/dc/dcmitype/StillImage" />
        <dc:title></dc:title>
      </cc:Work>
    </rdf:RDF>
  </metadata>
  <g
     inkscape:label="Calque 1"
     inkscape:groupmode="layer"
     id="layer1"
     transform="translate(-35.918421,-81.782408)">
    <path
       style="fill:#000000;stroke-width:0.26458332"
       d="m 36.186337,96.748222 c -0.0808,-0.123317 -0.157617,-0.308364 -0.170709,-0.411218 -0.128891,-1.012714 -0.12918,-1.163066 -0.0034,-1.768944 0.190248,-0.916313 0.56747,-1.906989 1.138525,-2.990064 0.459852,-0.872154 0.509501,-0.934021 0.781384,-0.973666 0.282996,-0.04126 0.290113,-0.05196 0.281726,-0.423334 -0.01484,-0.657619 -0.09688,-1.475168 -0.164661,-1.641049 -0.03722,-0.0911 -0.02294,-0.226941 0.03336,-0.317077 0.06815,-0.10913 0.07495,-0.268639 0.02207,-0.51795 -0.04203,-0.198142 -0.06868,-0.722207 -0.05921,-1.16459 0.01916,-0.894925 -0.119438,-2.057345 -0.309761,-2.59827 -0.08189,-0.232735 -0.09611,-0.383259 -0.0414,-0.437978 0.05472,-0.05472 -0.02487,-0.194733 -0.231558,-0.407395 -0.494986,-0.509275 -0.500711,-0.548534 -0.13838,-0.948904 0.30285,-0.334647 0.340974,-0.351882 0.664035,-0.300223 0.188505,0.03014 0.409358,0.01752 0.490781,-0.02804 0.101725,-0.05693 0.214059,-0.0486 0.359058,0.02663 0.144233,0.07483 0.275865,0.08482 0.415909,0.03158 0.168559,-0.06408 0.240872,-0.03908 0.407792,0.141033 0.111596,0.120412 0.237342,0.197647 0.279434,0.171633 0.0421,-0.02601 0.141542,2.54e-4 0.220996,0.05833 0.135393,0.099 0.13371,0.130714 -0.02685,0.505288 -0.09422,0.21981 -0.227092,0.399653 -0.29527,0.399653 -0.129622,0 -0.390057,0.220056 -0.390057,0.329581 0,0.03491 0.257175,0.0319 0.5715,-0.0067 0.69709,-0.08561 1.057294,-0.02495 1.019892,0.171714 -0.01738,0.09147 -0.144454,0.158351 -0.364545,0.191889 -0.185817,0.02832 -0.304607,0.05689 -0.26398,0.0635 0.04063,0.0066 0.02707,0.06841 -0.03013,0.137324 -0.09025,0.108752 -0.123777,0.100886 -0.253661,-0.05951 -0.118626,-0.146497 -0.22651,-0.180657 -0.520203,-0.164714 -0.662969,0.03599 -0.64253,0.0063 -0.697296,1.011778 -0.02719,0.499112 -0.06917,1.669475 -0.0933,2.600809 -0.02413,0.931333 -0.06108,1.845733 -0.08212,2.032 -0.115965,1.026816 -0.118251,1.15361 -0.02133,1.181748 1.391042,0.40381 2.031585,0.728586 2.444983,1.239692 0.157792,0.195088 0.320609,0.575971 0.452403,1.058333 0.186261,0.681707 0.346191,1.103493 0.462296,1.219227 0.08416,0.0839 0.254135,0.422891 0.254135,0.506852 0,0.0472 -0.05651,0.08581 -0.125574,0.08581 -0.161076,0 -0.475041,-0.629618 -0.717741,-1.439333 -0.232309,-0.775054 -0.359603,-1.029229 -0.660294,-1.318472 -0.261556,-0.251597 -1.033782,-0.627081 -1.417391,-0.689184 -0.1397,-0.02262 -0.320985,-0.07695 -0.402849,-0.120742 -0.08187,-0.04379 -0.33536,-0.08764 -0.563314,-0.09745 -0.363035,-0.01561 -0.443828,0.01371 -0.651121,0.236177 -0.251511,0.269939 -0.646634,0.960718 -0.75065,1.312334 -0.03444,0.116416 -0.140046,0.383116 -0.234682,0.592666 -0.09464,0.20955 -0.199293,0.4572 -0.232567,0.550334 -0.03327,0.09313 -0.109108,0.302683 -0.168526,0.465666 -0.05942,0.162984 -0.131879,0.467784 -0.161025,0.677334 -0.06962,0.500525 0.03356,1.584439 0.166015,1.744041 0.07382,0.08895 0.07801,0.152204 0.01429,0.215931 -0.06373,0.06373 -0.133165,0.02445 -0.237041,-0.13408 z"
       id="path4469"
       inkscape:connector-curvature="0" />
  </g>
</svg>
