<?xml version="1.0" encoding="UTF-8" standalone="no"?>
<!-- Created with Inkscape (http://www.inkscape.org/) -->

<svg
   xmlns:dc="http://purl.org/dc/elements/1.1/"
   xmlns:cc="http://creativecommons.org/ns#"
   xmlns:rdf="http://www.w3.org/1999/02/22-rdf-syntax-ns#"
   xmlns:svg="http://www.w3.org/2000/svg"
   xmlns="http://www.w3.org/2000/svg"
   xmlns:sodipodi="http://sodipodi.sourceforge.net/DTD/sodipodi-0.dtd"
   xmlns:inkscape="http://www.inkscape.org/namespaces/inkscape"
   width="17.050814mm"
   height="15.503106mm"
   viewBox="0 0 17.050813 15.503108"
   version="1.1"
   id="svg1412"
   inkscape:version="0.92.5 (2060ec1f9f, 2020-04-08)"
   sodipodi:docname="B_08_2.svg">
  <defs
     id="defs1406" />
  <sodipodi:namedview
     id="base"
     pagecolor="#ffffff"
     bordercolor="#666666"
     borderopacity="1.0"
     inkscape:pageopacity="0.0"
     inkscape:pageshadow="2"
     inkscape:zoom="3.959798"
     inkscape:cx="-82.690584"
     inkscape:cy="-72.927307"
     inkscape:document-units="mm"
     inkscape:current-layer="layer1"
     showgrid="false"
     fit-margin-top="0"
     fit-margin-left="0"
     fit-margin-right="0"
     fit-margin-bottom="0"
     inkscape:window-width="1916"
     inkscape:window-height="1041"
     inkscape:window-x="0"
     inkscape:window-y="18"
     inkscape:window-maximized="0" />
  <metadata
     id="metadata1409">
    <rdf:RDF>
      <cc:Work
         rdf:about="">
        <dc:format>image/svg+xml</dc:format>
        <dc:type
           rdf:resource="http://purl.org/dc/dcmitype/StillImage" />
        <dc:title></dc:title>
      </cc:Work>
    </rdf:RDF>
  </metadata>
  <g
     inkscape:label="Calque 1"
     inkscape:groupmode="layer"
     id="layer1"
     transform="translate(-61.002158,-54.548452)">
    <path
       style="fill:#000000;stroke-width:0.26458332"
       d="m 69.31709,54.551724 c -0.05571,-0.03643 -0.09406,0.232254 -0.108003,0.762228 -0.01905,0.723138 -0.04181,0.832559 -0.199472,0.941546 -0.275267,0.190275 -1.07532,1.485432 -1.183907,1.916679 -0.07435,0.29528 -0.07256,0.466114 0.0067,0.730705 0.213969,0.714158 0.724768,1.251085 1.190625,1.251085 0.433179,0 0.479862,0.100594 0.399976,0.861962 -0.08317,0.792678 -0.02793,2.127372 0.101804,2.468584 0.04716,0.124047 0.143451,0.225308 0.214455,0.225308 0.152707,0 0.161764,0.177999 0.03824,0.75396 -0.05833,0.27197 -0.141444,0.437568 -0.232545,0.461989 -0.628388,0.168396 -2.142675,0.492577 -2.766756,0.592211 -0.753824,0.120346 -1.425728,0.274788 -2.327508,0.53485 -0.404825,0.116747 -0.569034,0.239236 -1.270206,0.94878 -0.511188,0.517292 -0.913082,1.014304 -1.101225,1.361676 -0.162983,0.300918 -0.478851,0.734853 -0.701765,0.964281 -0.222914,0.229431 -0.391334,0.459349 -0.374137,0.51108 0.0172,0.05173 0.142677,0.118377 0.278535,0.147794 0.701937,0.151982 0.870461,0.05549 0.834575,-0.476973 -0.01659,-0.246313 0.0443,-0.459509 0.223759,-0.781864 0.269925,-0.484847 0.297124,-0.571408 0.149344,-0.480074 -0.06104,0.03773 -0.07495,0.02315 -0.03669,-0.03876 0.0337,-0.05456 0.09249,-0.07946 0.130741,-0.05581 0.03826,0.02365 0.135649,-0.06148 0.216009,-0.189134 0.08036,-0.127657 0.265416,-0.346705 0.411345,-0.486791 0.145925,-0.140087 0.360648,-0.368668 0.477488,-0.507982 0.116842,-0.139314 0.307758,-0.29645 0.423749,-0.348816 0.263001,-0.118732 2.166789,-0.604353 2.793111,-0.712616 0.256116,-0.04427 0.694182,-0.120311 0.973582,-0.168984 0.2794,-0.04867 0.785278,-0.169304 1.124479,-0.267684 0.55948,-0.162269 0.681543,-0.16963 1.312582,-0.08113 0.382582,0.05365 0.957209,0.11643 1.276924,0.139528 0.697002,0.05038 0.952272,0.113475 2.381768,0.590661 1.362642,0.454875 2.401965,0.946637 3.449402,1.632458 0.472279,0.309235 0.628902,0.342265 0.628902,0.13126 0,-0.626864 -4.517112,-2.602402 -6.338115,-2.771926 -0.406768,-0.03787 -0.690473,-0.107778 -0.754991,-0.185517 -0.09599,-0.11566 -0.156626,-0.953474 -0.270785,-3.722254 -0.03114,-0.755134 -0.01773,-0.865479 0.117305,-0.949812 0.08406,-0.0525 0.258622,-0.277728 0.388088,-0.500229 0.129464,-0.222504 0.322305,-0.533591 0.428401,-0.69143 0.109725,-0.163238 0.194265,-0.418854 0.195852,-0.592728 0.0016,-0.168127 0.05824,-0.379346 0.126606,-0.469739 0.06966,-0.09209 0.124542,-0.345371 0.124542,-0.575675 0,-0.323482 -0.04418,-0.455004 -0.20774,-0.618569 -0.217009,-0.217009 -0.65037,-0.278717 -0.890903,-0.126606 -0.15159,0.09587 -0.252912,-0.03525 -0.254764,-0.329694 -0.0028,-0.45179 -0.873398,-1.741499 -1.175639,-1.741499 -0.0758,0 -0.176456,-0.0254 -0.223759,-0.05633 z m 0.403077,0.543121 c 0.05821,0.01939 0.101422,0.09912 0.0956,0.176734 -0.0058,0.07761 -0.01537,0.19835 -0.02119,0.2682 -0.02225,0.266848 -0.179834,0.111916 -0.179834,-0.176734 0,-0.205081 0.03388,-0.292047 0.10542,-0.2682 z m 0.220141,0.31781 c 0.08715,0 0.351398,0.606409 0.351398,0.806151 0,0.171772 -0.146492,0.157419 -0.239776,-0.02326 -0.121745,-0.235778 -0.199694,-0.782897 -0.111622,-0.782897 z m -0.730705,1.137398 c 0.04471,-0.0051 0.06248,0.01717 0.04703,0.06356 -0.04219,0.126564 -0.234611,0.196551 -0.234611,0.08527 0,-0.04547 0.0601,-0.106064 0.133842,-0.134359 0.02061,-0.0079 0.03884,-0.01275 0.05374,-0.01447 z m 2.228289,0.165365 c 0.200774,0.0044 0.389877,0.08457 0.463537,0.222208 0.04618,0.08629 0.08372,0.304813 0.08372,0.485243 0,0.359899 -0.185859,0.70825 -0.288872,0.541568 -0.07429,-0.120214 0.0167,-0.435116 0.125574,-0.435116 0.04342,0 0.07855,-0.03706 0.07855,-0.08217 0,-0.04512 -0.05542,-0.06076 -0.123505,-0.03462 -0.06945,0.02665 -0.209126,-0.04365 -0.317812,-0.160198 C 71.352544,57.138084 71.172961,57.015611 71.059627,56.98 l -0.20619,-0.06459 0.232545,-0.121957 c 0.106595,-0.05585 0.231449,-0.0807 0.351917,-0.07803 z m -0.127124,0.813903 c 0.04511,0 0.08165,0.05727 0.08165,0.127125 0,0.06985 -0.01476,0.126605 -0.03307,0.126605 -0.01831,0 -0.05536,-0.05675 -0.08217,-0.126605 -0.0268,-0.06985 -0.01151,-0.127125 0.03359,-0.127125 z m -1.977658,0.09095 c 0.105156,-0.0078 0.143502,0.09329 0.04702,0.230476 -0.147244,0.209372 -0.442868,0.83929 -0.442868,0.943612 0,0.04912 -0.0429,0.0894 -0.0956,0.0894 -0.23295,0 0.08028,-1.039005 0.366903,-1.21698 0.0474,-0.02943 0.08949,-0.04393 0.124539,-0.04651 z m 1.395781,0.07441 c 0.09771,0.0095 0.212968,0.234437 0.312642,0.643887 0.10818,0.444397 0.07583,0.653418 -0.14056,0.905373 -0.06999,0.08149 -0.178697,0.147793 -0.241329,0.147793 -0.143563,0 -0.149678,-0.225081 -0.0078,-0.28267 0.08228,-0.03338 0.08002,-0.06089 -0.0093,-0.123505 -0.07788,-0.0546 -0.09674,-0.163412 -0.0584,-0.337965 0.04119,-0.18754 0.02119,-0.277517 -0.0739,-0.33073 -0.0718,-0.04018 -0.145122,-0.186176 -0.163299,-0.324527 -0.01818,-0.138356 -0.01561,-0.194389 0.0062,-0.124539 0.07617,0.244149 0.171585,0.264684 0.225824,0.04857 0.03903,-0.155507 0.09124,-0.227397 0.149863,-0.221692 z m -2.599325,0.538985 c 0.01863,0.0033 0.04697,0.03762 0.09043,0.09508 0.06837,0.09039 0.12454,0.249732 0.12454,0.354502 0,0.198741 -0.106805,0.319526 -0.199988,0.226343 -0.02978,-0.02978 -0.05275,-0.209312 -0.05116,-0.39946 0.0016,-0.201478 0.0051,-0.281959 0.03617,-0.276469 z m 3.391008,0.120407 c 0.04665,-0.0035 0.09289,0.03841 0.11007,0.12764 0.01786,0.09268 -0.02389,0.148312 -0.111104,0.148312 -0.08134,0 -0.12812,-0.05507 -0.112139,-0.131775 0.01916,-0.09195 0.06652,-0.140685 0.113173,-0.144177 z m -2.353347,0.256831 c 0.01865,0.0033 0.0318,0.03032 0.04548,0.07803 0.02405,0.08386 0.06957,0.214016 0.100769,0.289388 0.03876,0.09364 0.0046,0.15091 -0.108003,0.18035 -0.303464,0.07936 -0.380891,-0.05563 -0.201022,-0.351398 0.08582,-0.141121 0.131696,-0.201851 0.162779,-0.196371 z m -0.773078,0.392224 c 0.0097,-0.0029 0.0204,-0.0013 0.03152,0.0057 0.04455,0.02752 0.05929,0.105794 0.03307,0.174149 -0.06716,0.175016 -0.114204,0.154307 -0.114204,-0.05013 0,-0.07191 0.02058,-0.121094 0.04961,-0.129706 z m 0.69143,0.270269 c 0.337889,0.01304 0.406189,0.04443 0.428914,0.194302 0.03307,0.218054 -0.241626,0.238519 -0.598411,0.04496 -0.338579,-0.183682 -0.286652,-0.256855 0.169497,-0.23926 z"
       id="path4461"
       inkscape:connector-curvature="0" />
  </g>
</svg>
