<?xml version="1.0" encoding="UTF-8" standalone="no"?>
<!-- Created with Inkscape (http://www.inkscape.org/) -->

<svg
   xmlns:dc="http://purl.org/dc/elements/1.1/"
   xmlns:cc="http://creativecommons.org/ns#"
   xmlns:rdf="http://www.w3.org/1999/02/22-rdf-syntax-ns#"
   xmlns:svg="http://www.w3.org/2000/svg"
   xmlns="http://www.w3.org/2000/svg"
   xmlns:sodipodi="http://sodipodi.sourceforge.net/DTD/sodipodi-0.dtd"
   xmlns:inkscape="http://www.inkscape.org/namespaces/inkscape"
   width="8.8061695mm"
   height="13.458214mm"
   viewBox="0 0 8.8061692 13.458215"
   version="1.1"
   id="svg1412"
   inkscape:version="0.92.5 (2060ec1f9f, 2020-04-08)"
   sodipodi:docname="B_12_2.svg">
  <defs
     id="defs1406" />
  <sodipodi:namedview
     id="base"
     pagecolor="#ffffff"
     bordercolor="#666666"
     borderopacity="1.0"
     inkscape:pageopacity="0.0"
     inkscape:pageshadow="2"
     inkscape:zoom="3.959798"
     inkscape:cx="-118.32236"
     inkscape:cy="-75.369435"
     inkscape:document-units="mm"
     inkscape:current-layer="layer1"
     showgrid="false"
     fit-margin-top="0"
     fit-margin-left="0"
     fit-margin-right="0"
     fit-margin-bottom="0"
     inkscape:window-width="1916"
     inkscape:window-height="1041"
     inkscape:window-x="0"
     inkscape:window-y="18"
     inkscape:window-maximized="0" />
  <metadata
     id="metadata1409">
    <rdf:RDF>
      <cc:Work
         rdf:about="">
        <dc:format>image/svg+xml</dc:format>
        <dc:type
           rdf:resource="http://purl.org/dc/dcmitype/StillImage" />
        <dc:title></dc:title>
      </cc:Work>
    </rdf:RDF>
  </metadata>
  <g
     inkscape:label="Calque 1"
     inkscape:groupmode="layer"
     id="layer1"
     transform="translate(-70.429732,-55.947198)">
    <path
       style="fill:#000000;stroke-width:0.26458332"
       d="m 74.513179,55.947316 c -0.04256,0.0019 -0.09319,0.04532 -0.125574,0.12971 -0.02827,0.07366 -0.05116,0.336031 -0.05116,0.582909 0,0.393922 -0.02349,0.454908 -0.190686,0.49971 -0.381113,0.102135 -0.983652,0.05882 -1.059367,-0.07648 -0.06554,-0.117108 -0.09777,-0.11715 -0.321427,-5.29e-4 -0.136845,0.07136 -0.315902,0.129971 -0.397393,0.130225 -0.174176,5.29e-4 -0.190305,0.09298 -0.04237,0.243395 0.0849,0.08632 0.06858,0.138631 -0.08423,0.263552 -0.175334,0.143332 -0.265195,0.424778 -0.135393,0.424778 0.03053,0 0.18124,-0.09573 0.334865,-0.212905 l 0.279569,-0.213424 0.805635,0.14831 0.806151,0.148312 0.04238,0.340032 c 0.159385,1.281448 0.23123,2.178367 0.204639,2.554364 -0.01699,0.240096 -0.0036,0.41974 0.02997,0.398944 0.137491,-0.08525 0.159367,0.748499 0.07648,2.910933 -0.0181,0.471937 -0.179835,0.300924 -0.179835,-0.190169 0,-0.256117 -0.03446,-0.465606 -0.077,-0.465606 -0.04359,0 -0.05956,0.285932 -0.03617,0.655775 0.02281,0.360891 0.04823,0.933833 0.05633,1.272791 l 0.01447,0.615982 -0.338482,0.09147 c -0.672679,0.181108 -2.644087,0.02016 -2.936772,-0.239778 -0.08075,-0.0717 -0.191404,-0.09934 -0.254248,-0.06305 -0.06115,0.03537 -0.08371,0.03459 -0.05064,-0.0021 0.03307,-0.03665 0.0048,-0.173191 -0.06253,-0.303339 -0.09465,-0.183055 -0.09847,-0.246343 -0.01757,-0.279054 0.06025,-0.02437 0.04104,-0.04471 -0.04547,-0.04857 -0.122097,-0.0055 -0.144227,0.04782 -0.117821,0.287319 0.03798,0.344615 0.1408,0.486154 0.528132,0.725538 0.223382,0.138057 0.487047,0.187508 1.2392,0.230995 1.133594,0.06554 1.433618,0.0619 1.896009,-0.0217 0.317587,-0.05742 0.352438,-0.04533 0.406694,0.137459 0.05749,0.193667 0.062,0.194469 0.144692,0.03049 0.162574,-0.322387 1.274123,-0.68429 1.889292,-0.61495 0.261726,0.0295 0.484627,-0.0066 0.736388,-0.119372 0.301758,-0.135102 0.401072,-0.14486 0.603581,-0.06098 0.427977,0.177274 0.930754,1.401657 0.928108,2.259812 -0.0016,0.535397 0.186815,0.399992 0.22066,-0.158647 0.04032,-0.665509 -0.260207,-1.563068 -0.719854,-2.148705 -0.202708,-0.258273 -0.427197,-0.469739 -0.498677,-0.469739 -0.07148,0 -0.251981,0.06461 -0.40101,0.143143 -0.188029,0.09908 -0.445315,0.138117 -0.84129,0.12764 -0.446921,-0.01183 -0.674344,0.03061 -1.047999,0.195855 -0.262393,0.116044 -0.526875,0.210839 -0.588079,0.210839 -0.209203,0 -0.23786,-0.764136 -0.08682,-2.32854 0.145262,-1.504424 0.144899,-1.531025 -0.02429,-2.074291 -0.149436,-0.479849 -0.167417,-0.725443 -0.140044,-1.919264 0.01728,-0.753049 0.07238,-1.445265 0.121957,-1.53789 0.09841,-0.183886 0.608092,-0.249754 1.552361,-0.200504 0.421534,0.02199 0.486791,0.04854 0.486791,0.19482 0,0.150323 0.03531,0.161632 0.31781,0.10387 0.469778,-0.09605 0.766741,-0.06857 0.938445,0.08682 0.127603,0.115481 0.177763,0.120386 0.302824,0.02894 0.136316,-0.09969 0.137443,-0.12006 0.01497,-0.221692 -0.07405,-0.06146 -0.134358,-0.164264 -0.134358,-0.228412 0,-0.06415 -0.04773,-0.117039 -0.105937,-0.117303 -0.118633,-7.94e-4 -0.317293,-0.378042 -0.317293,-0.602549 0,-0.08052 0.04829,-0.196834 0.107487,-0.258382 0.479295,-0.498186 0.625316,-0.916223 0.320394,-0.916223 -0.09038,0 -0.188931,0.04006 -0.219109,0.08888 -0.03763,0.06088 -0.09166,0.05796 -0.172082,-0.0088 -0.09106,-0.07557 -0.279906,-0.02718 -0.84491,0.21549 -0.62737,0.26946 -2.244834,0.767501 -2.275314,0.700733 -0.0057,-0.01257 -0.09562,-0.204927 -0.199469,-0.427365 -0.103846,-0.222438 -0.188619,-0.460563 -0.188619,-0.529167 0,-0.08292 -0.03444,-0.122335 -0.077,-0.120407 z m -0.04444,6.42855 c -0.01241,-0.02183 -0.0213,0.08862 -0.0217,0.298172 -5.29e-4,0.279408 0.01532,0.404212 0.03462,0.276987 0.01924,-0.127222 0.01934,-0.355804 5.29e-4,-0.507981 -0.0047,-0.03804 -0.0093,-0.05991 -0.01344,-0.06718 z m -3.448367,3.98477 c -0.277487,-0.0419 -0.511466,0.749033 -0.571542,2.00763 -0.03544,0.742561 -0.02236,1.037193 0.04599,1.037145 0.126201,-9e-5 0.32471,-0.243215 0.255281,-0.312642 -0.02993,-0.02992 -0.05426,-0.0099 -0.05426,0.04444 0,0.05433 -0.04306,0.0987 -0.09509,0.0987 -0.067,0 -0.07913,-0.26325 -0.04238,-0.902787 0.06399,-1.113415 0.218329,-1.497666 0.617019,-1.53634 0.285689,-0.02771 0.475832,-0.270267 0.211873,-0.270267 -0.08236,0 -0.193231,-0.04285 -0.245981,-0.0956 -0.04103,-0.04103 -0.08128,-0.06429 -0.120922,-0.07028 z"
       id="path4427"
       inkscape:connector-curvature="0" />
  </g>
</svg>
