<?xml version="1.0" encoding="UTF-8" standalone="no"?>
<!-- Created with Inkscape (http://www.inkscape.org/) -->

<svg
   xmlns:dc="http://purl.org/dc/elements/1.1/"
   xmlns:cc="http://creativecommons.org/ns#"
   xmlns:rdf="http://www.w3.org/1999/02/22-rdf-syntax-ns#"
   xmlns:svg="http://www.w3.org/2000/svg"
   xmlns="http://www.w3.org/2000/svg"
   xmlns:sodipodi="http://sodipodi.sourceforge.net/DTD/sodipodi-0.dtd"
   xmlns:inkscape="http://www.inkscape.org/namespaces/inkscape"
   width="104.29048mm"
   height="98.61525mm"
   viewBox="0 0 104.29047 98.615261"
   version="1.1"
   id="svg1412"
   inkscape:version="0.92.5 (2060ec1f9f, 2020-04-08)"
   sodipodi:docname="B_13.svg">
  <defs
     id="defs1406" />
  <sodipodi:namedview
     id="base"
     pagecolor="#ffffff"
     bordercolor="#666666"
     borderopacity="1.0"
     inkscape:pageopacity="0.0"
     inkscape:pageshadow="2"
     inkscape:zoom="0.98994949"
     inkscape:cx="72.513054"
     inkscape:cy="67.327303"
     inkscape:document-units="mm"
     inkscape:current-layer="layer1"
     showgrid="false"
     fit-margin-top="0"
     fit-margin-left="0"
     fit-margin-right="0"
     fit-margin-bottom="0"
     inkscape:window-width="1916"
     inkscape:window-height="1041"
     inkscape:window-x="0"
     inkscape:window-y="18"
     inkscape:window-maximized="0" />
  <metadata
     id="metadata1409">
    <rdf:RDF>
      <cc:Work
         rdf:about="">
        <dc:format>image/svg+xml</dc:format>
        <dc:type
           rdf:resource="http://purl.org/dc/dcmitype/StillImage" />
        <dc:title></dc:title>
      </cc:Work>
    </rdf:RDF>
  </metadata>
  <g
     inkscape:label="Calque 1"
     inkscape:groupmode="layer"
     id="layer1"
     transform="translate(8.9295351,12.787265)">
    <path
       inkscape:connector-curvature="0"
       style="fill:#000000;stroke-width:0.26458332"
       d="m 43.181479,-12.787073 c -0.156864,-0.0042 -0.252699,0.06032 -0.252699,0.217038 0,0.298714 1.485599,2.7281714 1.80661,2.9543372 0.141004,0.099351 -0.142314,0.3685117 -0.62942,0.5984081 -0.740707,0.3495411 -0.853678,0.334354 -0.68988,-0.092498 0.138295,-0.3603889 -0.05997,-0.5105664 -0.674894,-0.5105664 -0.509201,0 -0.870749,0.204126 -0.870749,0.4914635 0,0.2702983 -0.238125,0.5828242 -0.529167,0.6945312 -0.291041,0.1116807 -0.529166,0.4485217 -0.529166,0.7482682 0,0.2997729 -0.150755,0.8206316 -0.334862,1.1575521 -0.184108,0.3369204 -0.766924,1.6445706 -1.295011,2.90576 -0.528088,1.2611891 -1.329833,2.65665445 -1.781805,3.10110155 -0.891773,0.8767234 -1.085906,1.3362517 -0.380855,0.9017529 0.242536,-0.1494895 0.159536,0.1591469 -0.184486,0.68524435 -0.344021,0.5260181 -0.531341,0.9559925 -0.415993,0.9559925 0.115345,0 -0.03304,0.2428611 -0.329695,0.5395119 -0.296661,0.2966773 -0.446921,0.7794625 -0.334349,1.072806 0.122875,0.3202252 0.0286,0.4925748 -0.235643,0.4309798 -0.242083,-0.056436 -0.513101,0.095435 -0.60203,0.3379523 -0.08893,0.2425436 0.03517,0.441325 0.275434,0.441325 0.285692,0 0.224274,0.2347648 -0.177766,0.6790267 -0.750279,0.8290454 -0.616648,1.7582089 0.328663,2.2815289 0.388054,0.214841 0.80287,0.522896 0.92139,0.684688 0.118518,0.16182 0.312021,0.04276 0.429948,-0.264583 0.117928,-0.307313 0.476994,-0.558615 0.797883,-0.558615 0.44808,0 0.491929,0.109749 0.190169,0.473366 -0.216101,0.260377 -0.28838,0.578194 -0.160713,0.705882 0.220779,0.220583 -1.834015,0.383884 -3.148645,0.250137 -0.724077,-0.07366 -0.809749,0.545201 -0.164849,1.1900962 0.302512,0.302525 1.675932,0.470429 4.144968,0.506942 6.142451,0.09075 5.930448,0.0032 6.063713,2.518198 0.02569,0.48506 0.196882,1.080373 0.380339,1.322916 0.212296,0.28067 0.20642,0.440796 -0.01654,0.440796 -0.281773,0 -0.344728,4.839758 -0.0677,5.203296 0.210659,0.276437 0.162766,1.051137 -0.09819,1.5875 -0.1652,0.339566 -0.176117,0.618569 -0.02376,0.618569 0.152348,0 0.294072,1.151996 0.314709,2.557992 0.02064,1.406022 0.09984,3.02895 0.176218,3.606509 0.113623,0.859208 0.01095,1.051692 -0.566375,1.058333 -1.078614,0.0127 -1.938457,0.788062 -4.702038,4.241589 -1.397388,1.74625 -2.855462,3.545654 -3.240629,3.998727 -0.385168,0.453046 -0.700731,0.902229 -0.700731,0.998379 0,0.09618 -0.534752,0.995309 -1.188558,1.998345 -0.653807,1.003009 -1.738998,2.696924 -2.411741,3.764094 -0.672748,1.067144 -2.400181,3.131847 -3.838525,4.588352 -3.15894,3.198865 -4.557059,4.817559 -4.344437,5.030179 0.08726,0.08723 -0.08306,0.359701 -0.378788,0.605128 -0.295733,0.245481 -0.537951,0.584147 -0.537951,0.752925 0,0.514059 -1.507347,2.076371 -2.003496,2.076371 -0.256051,0 -0.465606,0.158406 -0.465606,0.352425 0,0.194045 0.143592,0.352954 0.319363,0.352954 0.175776,0 0.13849,0.384439 -0.0832,0.854207 -0.221695,0.469768 -0.484855,0.847937 -0.58446,0.840264 -1.042934,-0.08033 -1.770967,0.132953 -1.568897,0.459925 0.159205,0.257598 0.0072,0.3166 -0.446484,0.172588 -0.513429,-0.162931 -0.815348,0.02834 -1.190625,0.755517 -0.276543,0.535861 -0.754801,1.254893 -1.062985,1.597316 -0.308181,0.342477 -0.532111,1.096169 -0.497644,1.675342 0.04424,0.743691 -0.102224,1.061244 -0.49816,1.081088 -0.308356,0.01534 -0.386257,0.100012 -0.173117,0.188092 0.643051,0.265668 2.258261,-0.513583 2.258261,-1.089343 0,-0.295883 -0.238125,-0.53795 -0.529167,-0.53795 -0.696825,0 -0.668464,-0.224499 0.1788,-1.414384 0.717834,-1.008089 3.272917,-2.465996 4.321702,-2.465996 0.315344,0 0.671248,-0.158908 0.791165,-0.352954 0.337619,-0.546259 0.817115,-0.417565 0.98547,0.264584 0.100139,0.405738 0.129138,0.365786 0.08475,-0.116788 -0.06949,-0.755385 0.713352,-1.259337 2.954859,-1.902195 1.314318,-0.376952 1.368687,-0.108717 0.202055,0.997876 -1.007891,0.955993 -1.097111,1.399514 -0.340548,1.689814 0.531645,0.204021 2.205162,-1.510982 2.022615,-2.072745 -0.04851,-0.149305 0.07977,-0.271304 0.285255,-0.271304 0.20547,0 0.285634,-0.142055 0.178284,-0.315754 -0.775988,-1.25558 4.640707,-0.480377 7.61814,1.090375 1.097968,0.579225 2.321581,1.356042 2.719213,1.726512 0.397635,0.370443 0.853713,0.673867 1.013891,0.673867 0.426996,0 4.185926,2.466922 3.783748,2.483062 -0.187483,0.0077 0.198946,0.248417 0.858864,0.534828 1.089372,0.472811 1.365663,0.458973 2.998783,-0.148801 0.989314,-0.368195 2.988966,-0.778087 4.444174,-0.911067 3.676473,-0.335862 8.009835,-1.721114 7.114805,-2.274279 -0.64038,-0.395631 2.3812,-0.383857 3.40445,0.01349 0.52053,0.202115 1.34324,0.441775 1.82831,0.532262 0.48507,0.09049 1.51677,0.301467 2.29288,0.46871 0.77611,0.167269 2.52219,0.418544 3.88039,0.558615 2.61952,0.270113 3.35902,0.611055 5.70507,2.63136 1.82145,1.568556 5.06616,3.762878 7.29258,4.93149 3.20466,1.682035 7.63985,6.086898 7.63985,7.587641 0,0.289348 0.11999,0.526071 0.26665,0.526071 0.29643,0 1.85001,3.226488 1.85001,3.842147 0,0.215027 0.1855,0.391186 0.41186,0.391186 0.22635,0 0.3157,0.09618 0.19844,0.213413 -0.11726,0.117264 -0.73914,-0.04008 -1.38183,-0.349329 l -1.1684,-0.56224 0.8816,0.701781 c 0.93103,0.740754 1.16536,0.959115 2.28771,2.129049 0.66901,0.697416 0.71353,0.700644 0.99064,0.07959 0.32808,-0.735251 0.0183,-1.583954 -1.51412,-4.152715 -0.57872,-0.970147 -1.44152,-2.59715 -1.91771,-3.615796 -0.47619,-1.018645 -1.03347,-1.852083 -1.23817,-1.852083 -0.2047,0 -0.37207,-0.232807 -0.37207,-0.517287 0,-1.708943 -7.57605,-7.244 -9.91516,-7.244 -0.39037,0 -0.61924,-0.146394 -0.50849,-0.32557 0.23391,-0.378513 -1.7861,-1.917436 -2.18953,-1.668092 -0.14899,0.09207 -0.57739,-0.05689 -0.95188,-0.330729 -0.37449,-0.273844 -0.52355,-0.497655 -0.33125,-0.497655 0.19231,0 0.54025,0.190394 0.77308,0.423227 0.26929,0.269293 0.42323,0.286862 0.42323,0.04805 0,-0.206534 -0.51611,-0.604441 -1.1467,-0.884158 -0.63059,-0.279771 -0.94792,-0.465138 -0.70538,-0.411877 0.63514,0.139488 0.54652,-0.107792 -0.33125,-0.925513 -0.42464,-0.395658 -1.14824,-0.719349 -1.60817,-0.719349 -0.46766,0 -0.73998,-0.155681 -0.61805,-0.352954 0.11992,-0.194046 0.033,-0.352425 -0.19327,-0.352425 -0.22621,0 -0.3193,0.239845 -0.2067,0.533294 0.1634,0.425794 0.0108,0.487204 -0.75603,0.303345 -1.25569,-0.301096 -1.44096,-0.484214 -0.49041,-0.484214 0.4204,0 0.76429,-0.16764 0.76429,-0.373089 0,-0.205528 -0.14432,-0.284824 -0.32091,-0.17571 -0.42636,0.263525 -3.55773,-3.007307 -3.52743,-3.684535 0.0153,-0.341815 0.0852,-0.377375 0.1974,-0.100753 0.13569,0.334645 0.32221,0.335545 0.8537,0.0037 0.66212,-0.413491 0.94688,-1.314132 0.41599,-1.314132 -0.14552,0 -0.71571,-0.714719 -1.2671,-1.5875 -0.5514,-0.872781 -1.15593,-1.586971 -1.34359,-1.586971 -0.18766,0 -0.24272,-0.160152 -0.12195,-0.355547 0.12075,-0.195342 -0.0284,-0.450453 -0.33177,-0.56687 -0.30334,-0.116364 -0.55139,-0.490379 -0.55139,-0.830977 0,-0.340598 -0.4369,-1.18065 -0.97048,-1.867059 -0.53357,-0.686408 -1.28729,-1.690449 -1.67535,-2.23139 -0.38806,-0.540914 -1.16267,-1.39012 -1.72134,-1.88722 -2.783,-2.476208 -4.44461,-4.483576 -4.46019,-5.387789 -0.004,-0.250402 -0.31821,-0.851773 -0.69764,-1.336861 -0.379419,-0.48506 -0.693311,-1.073732 -0.697623,-1.307941 -0.0043,-0.234182 -1.807935,-2.249434 -4.008025,-4.478284 l -4.000272,-4.052465 -0.04289,-3.373437 c -0.0375,-2.966535 -0.752962,-9.302353 -1.336352,-11.834416 -0.111665,-0.484636 -0.09743,-0.775916 0.03152,-0.646985 0.441444,0.441483 1.633215,-1.120801 1.404565,-1.841235 -0.244777,-0.771208 -0.722027,-0.697812 5.650301,-0.873337 2.134306,-0.05876 4.146906,-0.120253 4.472596,-0.136922 0.87869,-0.04487 1.79604,-1.0783622 1.39061,-1.5668362 -0.34976,-0.421481 -0.39532,-0.588698 -0.39532,-1.461928 0,-0.291042 -0.2696,-0.529167 -0.59945,-0.529167 -0.46645,0 -0.50599,-0.09398 -0.17674,-0.4232277 0.8701,-0.8700823 0.33141,-1.786546 -3.192562,-5.4312079 -1.988778,-2.05686675 -3.579228,-3.8732578 -3.534662,-4.0364264 0.04456,-0.1631156 -0.233421,-0.3964252 -0.617532,-0.5183187 -0.384114,-0.12192 -0.698151,-0.3627438 -0.698151,-0.5348552 0,-0.1721644 -0.404246,-0.7169151 -0.898136,-1.2107863 -0.49389,-0.4938977 -0.771874,-0.9023615 -0.617532,-0.9084469 0.154339,-0.00582 -0.01595,-0.1835414 -0.378788,-0.3943085 -0.457727,-0.2659592 -0.533778,-0.4610629 -0.248047,-0.6376723 0.293219,-0.1812131 0.23536,-0.3978275 -0.201538,-0.7524221 -0.53434,-0.4338108 -0.574956,-0.4298156 -0.312127,0.031009 0.165992,0.2910416 -0.139049,0.064664 -0.677995,-0.5028142 -0.849738,-0.8946885 -1.099793,-1.3749867 -1.225248,-2.3538656 -0.09497,-0.740992 -1.916472,-2.055627 -2.596224,-2.07428 z m 1.363741,3.87985 c 0.198708,-0.032464 0.489591,0.1616075 0.62787,0.5219436 0.111675,0.2910416 0.167989,0.5163343 0.125574,0.5012531 -0.711827,-0.2570692 -0.959115,-0.4391554 -0.959115,-0.7069138 0,-0.1957387 0.08644,-0.2967831 0.205671,-0.3162829 z m -5.870958,8.81239775 c 0.205478,0 0.373621,0.1584061 0.373621,0.352425 0,0.194019 -0.06998,0.3529542 -0.155549,0.3529542 -0.08556,0 -0.253704,-0.1589352 -0.373618,-0.3529542 -0.119917,-0.1940189 -0.04993,-0.352425 0.155546,-0.352425 z m 13.307713,0.4738688 c 0.457894,0.037412 1.557436,0.89548225 3.028757,2.39622535 1.115484,1.1377612 1.909579,2.0703381 1.764229,2.0737777 -0.14534,0.00291 -0.0264,0.159676 0.26459,0.3477948 0.47037,0.3039798 0.47037,0.3436408 0,0.3436408 -0.29104,0 -0.846496,-0.3756819 -1.234553,-0.8366389 C 55.281663,4.0822576 54.980511,3.9621368 54.638662,4.2382295 54.385178,4.4429906 54.218236,4.4646864 54.267623,4.2863043 54.407712,3.7803945 53.85214,2.3742664 53.512114,2.3742664 c -0.167876,0 -0.406001,-0.3173148 -0.529167,-0.7053792 -0.123164,-0.3880379 -0.451702,-0.70537905 -0.729671,-0.70537905 -0.277963,0 -0.505393,-0.1541728 -0.505393,-0.3421063 0,-0.1765565 0.08146,-0.2548202 0.234092,-0.2423583 z m -5.739701,0.2315104 c 0.07626,0 0.229896,0.238125 0.341582,0.52916665 0.111683,0.2910416 0.04944,0.5291666 -0.138493,0.5291666 -0.187939,0 -0.341583,-0.238125 -0.341583,-0.5291666 0,-0.29104165 0.06224,-0.52916665 0.138494,-0.52916665 z M 44.142662,3.1984964 c 0.05633,-0.00556 0.124124,0.012965 0.196887,0.057891 0.194027,0.1199092 0.352949,0.2880784 0.352949,0.3736181 0,0.085593 -0.158922,0.1555486 -0.352949,0.1555486 -0.194029,0 -0.352435,-0.1681427 -0.352435,-0.3736181 0,-0.1284288 0.06167,-0.2041261 0.155548,-0.2134396 z m 3.547586,0.03257 c 0.240785,0 0.402826,0.1229783 0.309026,0.3674269 -0.09474,0.2468562 0.04987,0.6710098 0.321426,0.9425781 0.578686,0.5786967 1.309177,1.8809229 1.310516,2.3357684 0,2.65e-4 0,0 0,0.0026 -0.0016,0.333084 -0.463579,0.380074 -1.524974,0.155019 -0.38337,-0.08128 -0.566134,-0.337582 -0.452167,-0.6345767 C 47.828102,5.9463862 47.450782,5.7373125 46.69496,5.8686252 46.535017,5.8963802 46.506037,5.7538489 46.63088,5.551866 46.755721,5.3500419 46.965921,5.2511141 47.098036,5.3322354 47.230148,5.4133304 47.35519,5.0237048 47.375536,4.466651 47.399136,3.8208031 47.271147,3.5343123 47.022587,3.6759966 46.808201,3.7981548 46.75621,3.7620126 46.907348,3.5959076 47.129619,3.3525174 47.449463,3.2314969 47.690247,3.2321055 Z M 40.6483,3.9261004 c 0.03584,-0.00847 0.06845,0 0.0956,0.026458 0.108617,0.1086114 2.65e-4,0.3931973 -0.24081,0.6325129 -0.348409,0.345784 -0.38885,0.3053821 -0.197406,-0.1974056 0.09936,-0.2609321 0.235104,-0.4359011 0.342615,-0.4614863 z m 3.888652,0.2124075 c 0.302498,0 0.451678,0.158406 0.331764,0.352425 -0.119917,0.1940189 -0.36726,0.3529541 -0.549839,0.3529541 -0.182575,0 -0.331763,-0.1589352 -0.331763,-0.3529541 0,-0.194019 0.247345,-0.352425 0.549838,-0.352425 z M 38.83084,4.6061854 c 0.096,-0.0254 0.238463,0.1369483 0.338997,0.3989387 0.238543,0.6216385 0.03522,0.7307527 -0.312642,0.167931 -0.127892,-0.2069306 -0.157068,-0.4516437 -0.0646,-0.544142 0.01156,-0.011642 0.02453,-0.01905 0.03824,-0.022754 z m 5.363498,0.5906558 c 0.273875,0 0.49816,0.2283619 0.49816,0.5079735 0,0.4269052 -0.650346,1.1685321 -0.732771,0.8356071 C 43.715611,5.5544787 43.778095,5.1968414 44.194338,5.1968412 Z M 40.351162,5.314131 c 0.264096,0 0.426207,0.1621102 0.360182,0.3602037 -0.187441,0.5622925 -0.840258,0.6554259 -0.840258,0.1198827 0,-0.264107 0.215982,-0.4800864 0.480076,-0.4800864 z m -1.685168,0.6315075 c 0.122552,0.00503 0.227674,0.037491 0.286287,0.096097 0.117223,0.1172369 -0.09114,0.2006071 -0.463021,0.1855259 -0.41097,-0.016933 -0.494329,-0.1008063 -0.212908,-0.2134129 0.127331,-0.050932 0.267087,-0.073263 0.389642,-0.06821 z m 1.805056,1.5600893 c 0.277371,0.01058 0.318952,0.245666 0.269235,0.898155 -0.06116,0.802613 -0.249706,1.026292 -0.864548,1.026292 -0.432347,0 -0.884155,-0.158909 -1.004072,-0.352954 -0.119917,-0.194019 -0.04993,-0.352954 0.155546,-0.352954 0.20548,0 0.37362,-0.219393 0.37362,-0.487813 0,-0.268393 0.318696,-0.571394 0.708483,-0.673364 0.150223,-0.03926 0.26928,-0.06085 0.361736,-0.05736 z m 3.250964,0.02064 c 0.209222,0.0058 0.459748,0.07337 0.728639,0.211878 0.50881,0.262043 0.554014,0.43352 0.221176,0.834575 -0.230312,0.277522 -0.279868,0.506069 -0.110588,0.509508 0.169278,0.0029 0.06935,0.159676 -0.221692,0.347795 -0.82215,0.53131 -1.311666,0.416772 -1.513086,-0.353483 -0.117456,-0.449051 -0.04681,-0.620607 0.194818,-0.471276 0.237168,0.146579 0.298498,0.02275 0.163298,-0.329697 -0.183425,-0.477997 0.07715,-0.762318 0.537435,-0.7493 z m 4.70204,0.653176 c 1.031672,-0.03228 3.323829,0.565627 3.323829,0.939483 0,0.171 -0.9525,0.311097 -2.116667,0.311097 -1.574046,0 -2.116667,-0.125995 -2.116667,-0.491437 0,-0.270298 0.249984,-0.587296 0.555003,-0.704347 0.08556,-0.03283 0.207119,-0.05019 0.354502,-0.0548 z m -1.021127,3.0840632 c 0.127045,-0.0217 0.123973,0.168328 0.05736,0.62529 -0.06714,0.460587 -0.320222,0.902494 -0.562758,0.982345 -0.634709,0.209021 -0.543745,-0.800391 0.121957,-1.352868 0.184346,-0.153008 0.307213,-0.241829 0.383441,-0.254767 z m -2.360062,19.51302 c 0.254026,-0.0172 0.209859,0.147029 -0.04909,0.648521 -0.633127,1.226079 -1.426689,1.993714 -1.813843,1.754425 -0.203957,-0.126047 -0.253177,-0.04926 -0.11317,0.177245 0.135964,0.220001 0.05686,0.760915 -0.175699,1.201473 -0.597982,1.132866 -4.186659,5.879994 -5.330426,7.051251 -0.900009,0.921623 -1.571948,1.307492 -1.248502,0.716756 0.07968,-0.14552 0.365553,-0.780176 0.635621,-1.410758 0.270074,-0.630608 0.624613,-1.146704 0.787549,-1.146704 0.162941,0 0.197948,-0.158935 0.07803,-0.352954 -0.119917,-0.194019 -0.06063,-0.352425 0.131776,-0.352425 0.192403,0 0.442357,-0.291968 0.555522,-0.648547 0.113168,-0.356552 0.639972,-1.13784 1.170469,-1.736328 0.5305,-0.598487 1.361332,-1.591575 1.8464,-2.207101 0.485069,-0.615527 1.239303,-1.508337 1.675866,-1.983846 0.436562,-0.475536 0.79375,-0.997585 0.79375,-1.160145 0,-0.162613 0.314491,-0.377931 0.699182,-0.478525 0.15402,-0.04027 0.271891,-0.06657 0.356569,-0.07234 z m 2.979663,0.525595 c 0.320813,0 5.322956,5.075899 6.344833,6.438371 0.545711,0.727604 0.933497,1.319292 0.861962,1.319292 -0.07153,-0.0026 -1.604727,-1.452774 -3.407545,-3.225112 -2.933782,-2.884117 -4.315621,-4.532551 -3.79925,-4.532551 z m -3.006534,2.513013 c 0.122552,0.005 0.227674,0.03752 0.286287,0.09612 0.117223,0.11721 -0.09114,0.200078 -0.463021,0.184997 -0.410969,-0.01693 -0.494329,-0.100278 -0.212908,-0.212884 0.127331,-0.05096 0.267087,-0.07326 0.389642,-0.06824 z m 2.030883,0.309033 c 0.552654,0 10.663324,10.623497 11.615314,12.204435 l 1.18752,1.971967 -2.37505,2.349208 c -1.306332,1.291987 -2.951961,3.063293 -3.656623,3.936207 -1.960576,2.428637 -3.128489,3.606323 -3.128489,3.154838 0,-0.224684 -0.238125,-0.317367 -0.529166,-0.205687 -0.310706,0.119248 -0.529167,0.005 -0.529167,-0.276965 0,-0.264187 -0.259988,-0.580338 -0.577744,-0.702284 -0.475517,-0.182457 -0.541777,-0.569754 -0.374653,-2.18903 0.111678,-1.082093 0.05832,-2.348759 -0.118856,-2.814796 -0.218834,-0.575549 -0.197956,-0.846985 0.06511,-0.846985 0.274945,0 0.2784,-0.13155 0.01188,-0.452702 -0.206441,-0.248734 -0.345157,-1.280266 -0.307991,-2.292879 0.03717,-1.012587 -0.02968,-1.841368 -0.148828,-1.841235 -0.281943,0 -0.655756,-2.629509 -0.877467,-6.173259 -0.09711,-1.552231 -0.226843,-3.496574 -0.287837,-4.321175 -0.06099,-0.824626 -0.04641,-1.499658 0.03204,-1.499658 z m -2.081527,0.63717 c 0.134456,-0.02064 0.249195,0.02648 0.358119,0.135387 0.252555,0.252571 0.279026,0.608886 0.0739,0.992187 -0.297513,0.55589 -0.195945,6.69978 0.136943,8.289423 0.270563,1.29204 0.567507,4.199466 0.747758,7.320491 0.09804,1.697726 0.128172,3.08663 0.06666,3.08663 -0.176363,0 -1.296538,-1.127919 -3.772898,-3.799258 -2.435719,-2.627525 -2.669042,-2.90965 -3.594613,-4.353216 -0.324662,-0.506334 -0.877681,-1.207929 -1.228865,-1.559084 -0.430064,-0.43008 -0.501687,-0.684371 -0.220141,-0.778246 0.229896,-0.07662 0.335211,-0.354515 0.234095,-0.61804 -0.101113,-0.263498 0.145746,-0.809281 0.548801,-1.212347 0.403059,-0.40304 0.732775,-0.900933 0.732775,-1.106382 0,-0.205502 0.158922,-0.275457 0.352948,-0.155548 0.194027,0.119909 0.352949,-0.02924 0.352949,-0.331761 0,-0.302472 0.158406,-0.549831 0.352436,-0.549831 0.194027,0 0.352949,-0.170365 0.352949,-0.378275 0,-0.522128 0.925018,-1.401471 1.192691,-1.133792 0.120116,0.120121 0.218591,-0.04053 0.218591,-0.357082 0,-0.316574 0.311634,-0.742341 0.692465,-0.946176 0.380831,-0.203782 0.607896,-0.590392 0.50488,-0.858864 -0.10302,-0.268473 0.0067,-0.607828 0.243912,-0.754486 0.296275,-0.183092 0.346226,-0.111416 0.159163,0.228917 -0.149786,0.272521 0.117263,0.06466 0.593246,-0.461989 0.398507,-0.440928 0.677143,-0.664104 0.901236,-0.698658 z m -10.171473,8.88783 c 0.205481,0 0.373621,0.158935 0.373621,0.352954 0,0.194046 -0.06999,0.352954 -0.155546,0.352954 -0.08556,0 -0.253703,-0.158908 -0.373621,-0.352954 -0.119917,-0.194019 -0.04993,-0.352954 0.155546,-0.352954 z m -0.249081,2.170933 c 0.07053,-0.02249 0.147159,0.17227 0.296624,0.563271 0.166876,0.436563 0.4621,0.79375 0.656291,0.79375 0.194205,0 0.268595,0.220345 0.165365,0.489374 -0.222144,0.578908 6.244013,7.271914 7.02541,7.271914 0.284662,0 0.608684,0.238125 0.72037,0.529166 0.111683,0.291042 0.407898,0.529167 0.658358,0.529167 0.53177,0 1.389258,1.234863 1.075385,1.548739 -0.117623,0.117607 -0.254926,0.597429 -0.30489,1.066085 -0.06475,0.607298 0.367427,1.316911 1.504302,2.470124 1.580311,1.602951 2.230872,1.965351 2.230872,1.243859 0,-0.205502 -0.181433,-0.260826 -0.403596,-0.123508 -0.278815,0.172324 -0.348604,-0.04024 -0.225308,-0.685217 0.09824,-0.513901 0.07623,-0.934324 -0.04857,-0.934324 -0.124807,0 -0.259575,-0.396531 -0.299723,-0.881591 -0.04788,-0.578485 0.107659,-0.882121 0.452168,-0.882121 0.288869,0 0.525034,0.168169 0.525034,0.373618 0,0.205502 -0.183206,0.260376 -0.407213,0.121946 -0.246626,-0.152426 -0.311507,-0.09723 -0.164846,0.140044 0.133205,0.215556 0.514673,0.289746 0.848008,0.164862 0.53743,-0.201321 0.549019,-0.156845 0.103355,0.390684 -0.461034,0.566341 -0.423048,0.597165 0.455268,0.376714 0.711782,-0.178647 0.931148,-0.116496 0.855245,0.242358 -0.0599,0.283131 0.14233,0.442727 0.48886,0.385498 0.324919,-0.05366 0.686744,0.05837 0.804603,0.249079 0.406432,0.657595 1.250053,-0.05138 1.250053,-1.050581 0,-0.549884 0.161438,-1.099741 0.358632,-1.221634 0.197194,-0.121841 0.274563,-0.357876 0.171566,-0.52451 -0.102997,-0.166661 0.14691,-0.408782 0.555522,-0.538454 0.500759,-0.158935 0.68784,-0.44622 0.574125,-0.881089 -0.115837,-0.442939 -0.01606,-0.586502 0.317809,-0.458364 0.27113,0.104034 0.595628,-0.103055 0.733806,-0.467678 0.136301,-0.359701 0.415232,-0.828198 0.620118,-1.041294 0.204882,-0.213095 1.143232,-1.284658 2.084622,-2.38125 0.94139,-1.096592 1.89516,-1.993662 2.11977,-1.993662 0.37345,0 1.35597,1.220206 1.49138,1.852084 0.0312,0.145521 0.0791,0.383646 0.10645,0.529166 0.0492,0.261647 1.52394,2.073857 2.7988,3.439584 1.24444,1.333129 2.70743,3.491997 2.17868,3.214793 -0.29104,-0.152585 -0.13212,0.05003 0.35295,0.450612 0.48507,0.400579 0.98997,0.732155 1.12241,0.736388 0.13245,0.0042 0.34258,0.327422 0.46664,0.718291 0.12405,0.390896 0.39716,0.604758 0.6072,0.474927 0.22754,-0.140599 0.2802,-0.07162 0.13022,0.171053 -0.13844,0.223997 -0.48979,0.407194 -0.78083,0.407194 -0.31419,0 -0.42533,-0.167322 -0.27389,-0.41238 0.17105,-0.276754 0.0634,-0.339301 -0.32659,-0.189653 -0.37565,0.144145 -0.71411,-0.02381 -0.95498,-0.473869 -0.29501,-0.551206 -0.51224,-0.622088 -1.04025,-0.339513 -0.36715,0.196506 -0.95562,0.346049 -1.30793,0.33229 -0.57259,-0.02222 -0.5661,-0.05538 0.0646,-0.314722 0.78104,-0.321151 0.80282,-0.30689 -1.82366,-1.216448 -1.44672,-0.500988 -3.10202,-0.404336 -2.75281,0.160708 0.098,0.158591 -0.007,0.403251 -0.23461,0.543639 -0.25796,0.159438 -0.31844,0.102394 -0.16123,-0.15195 0.13844,-0.224023 0.0927,-0.407194 -0.10129,-0.407194 -0.19403,0 -0.44652,0.151898 -0.5612,0.33745 -0.11468,0.185579 -0.46779,0.237755 -0.78445,0.116258 -0.36522,-0.140176 -0.48863,-0.08046 -0.33796,0.163301 0.35874,0.580496 -0.71711,1.462114 -1.52601,1.250579 -0.39112,-0.102261 -1.102706,0.07088 -1.581293,0.384466 -1.047578,0.686409 -2.109343,0.765361 -1.73736,0.129196 0.141817,-0.242543 -0.113617,-0.123481 -0.567925,0.264584 -0.698842,0.596926 -0.792237,0.612854 -0.606682,0.103346 0.189696,-0.520832 0.0944,-0.554593 -0.706416,-0.250111 -0.509244,0.193622 -1.154319,0.264213 -1.433505,0.157083 -0.34503,-0.132397 -0.442404,-0.02381 -0.303339,0.338482 0.233812,0.609282 -0.163298,0.707469 -0.698148,0.172614 -0.245449,-0.245454 -0.622906,-0.133244 -1.182876,0.352425 -0.853892,0.740569 -2.478399,0.97708 -2.478399,0.360707 0,-0.194046 -0.238125,-0.352955 -0.529167,-0.352955 -0.291042,0 -0.529167,-0.165285 -0.529167,-0.367426 0,-0.202142 -1.008348,-0.820129 -2.24069,-1.373029 -1.232344,-0.5529 -2.342036,-1.270847 -2.466517,-1.595253 -0.124481,-0.324379 -0.375597,-0.497443 -0.557588,-0.384995 -0.181991,0.112501 -0.43221,0.04067 -0.556038,-0.159676 -0.12383,-0.200342 -0.397116,-0.25781 -0.607716,-0.127635 -0.227436,0.140547 -0.281641,0.07258 -0.133326,-0.167428 0.242421,-0.392218 -0.55236,-0.844444 -3.223059,-1.833483 -0.632058,-0.234077 -1.041011,-0.586317 -0.915705,-0.789094 0.147736,-0.239051 0.05407,-0.255772 -0.269234,-0.04754 -0.668629,0.430768 -3.253309,0.406347 -3.576527,-0.0336 -0.39947,-0.543745 -0.31741,-2.645834 0.103352,-2.645834 0.205483,0 0.259151,-0.185393 0.118856,-0.412379 -0.172217,-0.278659 -0.06181,-0.33872 0.340032,-0.184468 0.500414,0.192008 0.535588,0.11729 0.221691,-0.469238 -0.205343,-0.383673 -0.237064,-0.697627 -0.0708,-0.697627 0.166267,0 0.660712,-0.793591 1.099159,-1.763713 0.438449,-0.970147 0.943155,-1.764241 1.121378,-1.764241 0.178223,0 0.324011,-0.317315 0.324011,-0.705379 0,-0.388038 0.220922,-0.70538 0.490927,-0.70538 0.27001,0 0.604676,-0.436906 0.743625,-0.970491 0.124454,-0.477891 0.188883,-0.7171 0.259413,-0.739484 z m 27.736815,3.877283 c 0.36863,-0.04876 0.85996,0.574966 1.67741,2.076874 0.52477,0.964194 1.07669,1.752864 1.2268,1.752864 0.15012,0 0.3733,0.316389 0.49609,0.703316 0.1228,0.3869 0.46229,0.942869 0.75448,1.235075 0.40553,0.405527 0.42096,0.528108 0.0651,0.517789 -0.55064,-0.01588 -0.967,-0.461989 -1.88257,-2.015384 -0.37168,-0.630581 -0.8002,-1.146175 -0.9524,-1.146175 -0.15219,0 -0.27698,-0.317844 -0.27698,-0.705908 0,-0.388065 -0.15841,-0.705379 -0.35244,-0.705379 -0.19402,0 -0.35295,-0.224843 -0.35295,-0.499719 0,-0.274849 -0.19826,-0.57068 -0.4408,-0.657304 -0.24253,-0.08662 -0.3326,-0.274585 -0.19999,-0.417566 0.0745,-0.08033 0.15316,-0.127238 0.23824,-0.138483 z m -32.47296,1.870181 c 0.02156,-5.3e-5 0.03545,0.02725 0.03928,0.08475 0.05372,0.806239 -0.680061,2.26777 -1.029912,2.051553 -0.200062,-0.12364 -0.353465,0.16428 -0.353465,0.663522 0,0.485087 -0.158406,0.980281 -0.352435,1.10019 -0.194027,0.11991 -0.352949,0.535411 -0.352949,0.923449 0,0.388065 -0.144391,0.61603 -0.320911,0.506942 -0.453165,-0.280062 -1.478899,0.166476 -1.246436,0.542607 0.105976,0.171477 -0.05338,0.217356 -0.354499,0.101812 -0.30112,-0.11557 -0.54777,-0.03921 -0.54777,0.169492 0,0.208994 -0.263742,0.278051 -0.587044,0.153988 -0.368141,-0.141288 -0.500137,-0.08528 -0.354502,0.150389 0.12773,0.206666 -0.0182,0.471805 -0.324011,0.589121 -0.810562,0.311044 -1.103927,0.251301 -0.53485,-0.109061 0.270798,-0.17145 0.398079,-0.558086 0.28267,-0.858838 -0.141684,-0.369305 -0.05095,-0.485457 0.279569,-0.358642 0.763945,0.293158 4.459245,-3.570897 4.165121,-4.35528 -0.202477,-0.539988 -0.156072,-0.565732 0.324009,-0.17571 0.480904,0.39071 0.612365,0.315251 0.920359,-0.529167 0.148182,-0.406294 0.283069,-0.650981 0.347781,-0.651113 z m -2.586921,0.54827 c 0.432123,0 0.482147,0.143192 0.216524,0.617537 -0.590536,1.054603 -2.279078,2.793894 -2.02675,2.087721 0.126994,-0.355441 0.230994,-0.791818 0.230994,-0.969962 0,-0.178144 0.247343,-0.324009 0.549836,-0.324009 0.302503,0 0.452197,-0.158935 0.33228,-0.352954 -0.119915,-0.194019 -0.04071,-0.352425 0.176217,-0.352425 0.21693,0 0.296133,-0.158909 0.176218,-0.352954 -0.119917,-0.194019 0.03536,-0.352954 0.344681,-0.352954 z m -5.262729,9.172575 c -0.08556,0 -0.253704,0.158406 -0.373618,0.352425 -0.119918,0.194019 -0.04993,0.352954 0.155545,0.352954 0.205479,0 0.373621,-0.158935 0.373621,-0.352954 0,-0.194019 -0.06998,-0.352425 -0.155548,-0.352425 z m 4.221967,0.870743 c -0.405085,-0.01296 -0.871228,0.04948 -1.021644,0.199999 -0.103897,0.103955 0.19264,0.220795 0.658873,0.259398 0.466236,0.0386 0.924468,-0.05376 1.018027,-0.205158 0.09415,-0.152321 -0.250174,-0.241168 -0.655256,-0.254239 z m 4.055565,0.0367 c -0.09136,-0.005 -0.214564,0.01058 -0.360186,0.04858 -0.388323,0.10152 -0.7059,0.245507 -0.7059,0.319854 0,0.278369 1.024514,0.122238 1.214398,-0.184996 0.06796,-0.109961 0.0039,-0.174943 -0.148312,-0.183436 z m -2.145605,0.150363 c -0.399507,0 -0.632481,0.151897 -0.517797,0.337449 0.114673,0.185579 0.44174,0.248338 0.72657,0.139013 0.729228,-0.279824 0.643035,-0.476462 -0.208773,-0.476462 z m -5.955194,0 c -0.205478,0 -0.37362,0.158935 -0.37362,0.352954 0,0.194019 0.06998,0.352425 0.155548,0.352425 0.08556,0 0.253704,-0.158406 0.373618,-0.352425 0.119917,-0.194019 0.04993,-0.352954 -0.155546,-0.352954 z m 51.307977,0.716227 c 0.19403,0 0.59108,0.153987 0.88212,0.342106 0.29104,0.188093 0.37025,0.341577 0.17622,0.341577 -0.19403,0 -0.59056,-0.153484 -0.8816,-0.341577 -0.29105,-0.188119 -0.37076,-0.342106 -0.17674,-0.342106 z m -55.996062,0.694531 c -0.206487,0 -0.172003,0.224155 0.08113,0.529167 0.241544,0.291042 0.494041,0.529167 0.561208,0.529167 0.06716,0 0.03055,-0.238125 -0.08113,-0.529167 -0.111686,-0.291042 -0.364183,-0.529167 -0.561208,-0.529167 z m 1.46296,0.04392 c -0.122555,-0.005 -0.26231,0.0172 -0.389641,0.06821 -0.281422,0.112606 -0.198059,0.196506 0.212907,0.213439 0.371886,0.01535 0.580248,-0.06829 0.463021,-0.185526 -0.05861,-0.05863 -0.163732,-0.09107 -0.286287,-0.09612 z m -5.085995,2.426229 c -0.291042,0 -0.529167,0.153644 -0.529167,0.341577 0,0.18796 0.238125,0.250693 0.529167,0.139012 0.291041,-0.11168 0.529166,-0.265826 0.529166,-0.342106 0,-0.07623 -0.238125,-0.138483 -0.529166,-0.138483 z m 64.271017,0.352954 c 0.20735,0 0.57494,0.238125 0.81648,0.529167 0.54935,0.661749 0.37644,0.657939 -0.50849,-0.01138 -0.37664,-0.284877 -0.51535,-0.51779 -0.30799,-0.51779 z m -65.132464,0.70538 c -0.205478,0 -0.373618,0.158908 -0.373618,0.352954 0,0.194019 0.06998,0.352425 0.155546,0.352425 0.08556,0 0.253704,-0.158406 0.373621,-0.352425 0.119914,-0.194046 0.04993,-0.352954 -0.155549,-0.352954 z m -1.275889,0.471275 c -0.09388,0.0093 -0.156062,0.08501 -0.156062,0.21344 0,0.205475 0.158922,0.373618 0.352949,0.373618 0.194027,0 0.352949,-0.06996 0.352949,-0.155549 0,-0.08554 -0.158922,-0.253709 -0.352949,-0.373618 -0.07276,-0.04495 -0.14056,-0.06345 -0.196887,-0.05789 z m 68.471273,0.627354 c 0.17987,0 0.56154,0.104272 1.04645,0.312658 0.46522,0.199919 0.52513,0.309748 0.17621,0.322448 -0.29104,0.01058 -0.76729,-0.134356 -1.05833,-0.322448 -0.32243,-0.208386 -0.3442,-0.312658 -0.16433,-0.312658 z M 10.37573,68.867897 c -0.163549,-0.01005 -0.5701401,0.246089 -0.9782361,0.626322 -0.466397,0.434525 -0.931442,0.793882 -1.03301,0.798909 -0.101568,0.005 -0.501814,0.20582 -0.88987,0.445955 -0.630614,0.390208 -0.594411,0.411507 0.342098,0.197935 1.07151,-0.244369 2.9474581,-1.714262 2.6137951,-2.047954 -0.01273,-0.0127 -0.03141,-0.01984 -0.05478,-0.02117 z m 71.977001,0.195845 c 0.20672,-0.0077 0.50586,0.169069 0.79272,0.514694 0.30342,0.365627 0.31647,0.529166 0.0429,0.529166 -0.21779,0 -0.39584,-0.168169 -0.39584,-0.373618 0,-0.205502 -0.15892,-0.275457 -0.35295,-0.155548 -0.19403,0.119909 -0.35244,0.04995 -0.35244,-0.155549 0,-0.236035 0.10484,-0.353271 0.26562,-0.359145 z m 1.65675,1.04386 c 0.13463,0 0.48255,0.238125 0.77359,0.529167 0.29105,0.291042 0.37843,0.529167 0.19431,0.529167 -0.18413,0 -0.53206,-0.238125 -0.7736,-0.529167 -0.24154,-0.291042 -0.32893,-0.529167 -0.1943,-0.529167 z M 6.0333589,72.052184 c -0.127664,0.0098 -0.304297,0.06779 -0.499194,0.172085 -0.388057,0.207672 -0.705385,0.436483 -0.705385,0.508503 0,0.07202 0.317328,0.04826 0.705385,-0.05323 0.388056,-0.101468 0.705384,-0.33028 0.705384,-0.508503 0,-0.08951 -0.07852,-0.128535 -0.20619,-0.118851 z m -2.114084,1.600438 c -0.11118,0.0056 -0.325355,0.07265 -0.649055,0.196877 -0.306914,0.117739 -0.558106,0.355864 -0.558106,0.529166 0,0.461989 0.332507,0.385789 0.932243,-0.213942 0.358963,-0.35896 0.460222,-0.521441 0.274918,-0.512101 z m -4.155818,0.08938 c -0.03108,0.0074 -0.06758,0.05996 -0.108003,0.160206 -0.09827,0.24376 -0.323808,0.353615 -0.501261,0.243919 -0.177454,-0.10967 -0.322977,-0.03133 -0.322977,0.174149 0,0.205475 0.238125,0.373618 0.529167,0.373618 0.291041,0 0.51658,-0.277998 0.501261,-0.617538 -0.0105,-0.232754 -0.04639,-0.34663 -0.09819,-0.334354 z m -0.932241,1.304846 c -0.19403,0 -0.352436,0.158406 -0.352436,0.352425 0,0.194019 0.158406,0.352954 0.352436,0.352954 0.194027,0 0.352949,-0.158935 0.352949,-0.352954 0,-0.194019 -0.158922,-0.352425 -0.352949,-0.352425 z m 3.924824,0.07337 c -0.396957,0.0026 -1.10226,0.387535 -1.10226,0.682149 0,0.180207 0.330425,0.150548 0.735357,-0.06615 0.404672,-0.216588 0.665673,-0.464 0.57981,-0.549857 -0.0463,-0.04628 -0.121301,-0.06657 -0.212907,-0.06615 z m -5.548498,0.63201 c -0.104785,0 -0.428813,0.238125 -0.719854,0.529167 -0.458968,0.458973 -0.460468,0.529167 -0.01241,0.529167 0.284141,0 0.608166,-0.238125 0.719851,-0.529167 0.111705,-0.291042 0.117184,-0.529167 0.01241,-0.529167 z m 3.719669,0.352954 c -0.205478,0 -0.275463,0.158406 -0.155546,0.352425 0.119917,0.194019 0.288057,0.352955 0.373621,0.352955 0.08556,0 0.155545,-0.158936 0.155545,-0.352955 0,-0.194019 -0.16814,-0.352425 -0.37362,-0.352425 z m -1.486215,0.388091 c -0.05864,0 -0.122108,0 -0.189651,0.0058 -0.541702,0.03715 -0.542658,0.05498 -0.01394,0.195315 0.492704,0.13081 0.443589,0.293318 -0.319876,1.056799 -0.4962,0.496173 -1.099476,0.930963 -1.340488,0.966338 -0.241006,0.03535 -0.678172,0.263498 -0.971516,0.506942 -0.415229,0.344593 -0.591894,0.347953 -0.797369,0.01561 -0.155842,-0.252174 0.04789,-0.679688 0.497644,-1.043861 0.946648,-0.766577 0.968494,-1.020498 0.0677,-0.784965 -0.835892,0.218598 -1.272407,1.375806 -0.754475,1.999879 0.414613,0.49956 -0.125476,1.280028 -0.885735,1.280028 -0.236064,0 -0.509815,0.198781 -0.608229,0.441325 -0.134652,0.33184 -0.271315,0.309853 -0.55294,-0.08837 -0.250782,-0.354595 -0.376195,-0.384625 -0.37982,-0.09096 -0.003,0.241062 -0.48142,0.862701 -1.063503,1.381337 -0.582083,0.518636 -1.058333,1.081246 -1.058333,1.25005 0,0.419894 1.454922,-0.384042 2.169377,-1.198377 0.320235,-0.365019 0.932616,-0.731017 1.360641,-0.813408 0.428021,-0.08244 1.23884,-0.631852 1.801958,-1.221105 0.563112,-0.589228 1.141872,-1.072807 1.285708,-1.072807 0.14383,0 0.779872,-0.487891 1.413867,-1.082092 1.097566,-1.028648 1.218668,-1.686216 0.338997,-1.703256 z m -4.801256,3.139334 c -0.194027,0 -0.45111,0.158936 -0.571024,0.352955 -0.119917,0.194045 -0.05915,0.352954 0.134874,0.352954 0.194027,0 0.451109,-0.158909 0.571024,-0.352954 0.119917,-0.194019 0.05915,-0.352955 -0.134874,-0.352955 z"
       id="path5891" />
  </g>
</svg>
