<?xml version="1.0" encoding="UTF-8" standalone="no"?>
<!-- Created with Inkscape (http://www.inkscape.org/) -->

<svg
   xmlns:dc="http://purl.org/dc/elements/1.1/"
   xmlns:cc="http://creativecommons.org/ns#"
   xmlns:rdf="http://www.w3.org/1999/02/22-rdf-syntax-ns#"
   xmlns:svg="http://www.w3.org/2000/svg"
   xmlns="http://www.w3.org/2000/svg"
   xmlns:sodipodi="http://sodipodi.sourceforge.net/DTD/sodipodi-0.dtd"
   xmlns:inkscape="http://www.inkscape.org/namespaces/inkscape"
   version="1.1"
   id="svg869"
   width="63.947861"
   height="8.7073498"
   viewBox="0 0 63.94786 8.7073496"
   sodipodi:docname="Cherbourg.svg"
   inkscape:version="0.92.5 (2060ec1f9f, 2020-04-08)">
  <metadata
     id="metadata875">
    <rdf:RDF>
      <cc:Work
         rdf:about="">
        <dc:format>image/svg+xml</dc:format>
        <dc:type
           rdf:resource="http://purl.org/dc/dcmitype/StillImage" />
        <dc:title></dc:title>
      </cc:Work>
    </rdf:RDF>
  </metadata>
  <defs
     id="defs873" />
  <sodipodi:namedview
     pagecolor="#ffffff"
     bordercolor="#666666"
     borderopacity="1"
     objecttolerance="10"
     gridtolerance="10"
     guidetolerance="10"
     inkscape:pageopacity="0"
     inkscape:pageshadow="2"
     inkscape:window-width="1916"
     inkscape:window-height="1041"
     id="namedview871"
     showgrid="false"
     inkscape:zoom="10.511364"
     inkscape:cx="42.977449"
     inkscape:cy="10.877479"
     inkscape:window-x="0"
     inkscape:window-y="18"
     inkscape:window-maximized="0"
     inkscape:current-layer="svg869" />
  <path
     style="fill:#000000;stroke-width:1"
     d="m 4.8917156,8.2436844 c 0,-0.258477 0.291087,-0.469957 0.6468605,-0.469957 0.4067606,0 0.7778796,-0.326636 0.9998438,-0.88 0.1941408,-0.484 0.4760819,-1.168 0.6265359,-1.52 0.9452957,-2.2116 0.9431693,-2.324952 -0.04634,-2.470181 -0.5125664,-0.07523 -1.0793053,0.01058 -1.2594195,0.1907 -0.3686656,0.368666 -0.4172224,0.185587 -0.339024,-1.278271 0.074114,-1.38740401 -0.7171795,-1.60898901 -1.8283718,-0.511996 -0.952949,0.940772 -1.8482514,2.818412 -2.1253758,4.457367 -0.1921706,1.136525 0.5255823,2.180215 1.2865519,1.870784 1.5929794,-0.647748 1.5821324,-0.646989 1.1195571,-0.07832 -0.9493059,1.16704 -3.69242493,0.149437 -3.95309458,-1.466462 -0.147044,-0.911531 0.56550015,-3.058697 1.28070268,-3.859244 1.1137586,-1.24666301 3.020957,-2.20342201 4.4369025,-2.22580301 1.7257385,-0.02728 1.9418412,0.177056 1.2706412,1.20143601 -0.5133884,0.78353 -0.5069651,0.811497 0.1966534,0.856222 0.4000573,0.02543 1.2648928,0.03516 1.9218564,0.02163 1.4132987,-0.02912 1.8166687,0.393805 0.8625926,0.904411 -0.485793,0.259988 -0.639121,0.582685 -0.535189,1.126371 0.08012,0.419095 0.03911,0.696137 -0.09112,0.615649 -0.2596436,-0.160469 -1.0703946,2.712742 -0.8325766,2.95056 0.08085,0.08085 0.454228,-0.01742 0.8297256,-0.218381 0.8838631,-0.473029 1.4302101,-1.854468 0.9583071,-2.423077 -0.261961,-0.315643 -0.184857,-0.505826 0.313121,-0.772335 0.43151,-0.230938 0.660661,-0.671526 0.660661,-1.270249 v -0.916674 l 4.182692,0.04793 4.182693,0.04793 -0.188694,0.95 c -0.240792,1.212301 -0.73767,1.738648 -0.966202,1.023509 -0.09377,-0.29343 -0.237972,-0.749509 -0.320448,-1.013509 -0.230099,-0.73653 -1.055645,-0.571027 -1.646012,0.329986 -0.604148,0.922045 -0.386129,1.4059 0.355969,0.790014 0.812861,-0.674615 0.922253,-0.111914 0.244537,1.25787 -0.650796,1.315377 -1.03576,1.391502 -1.055876,0.208796 -0.01048,-0.616182 -0.04597,-0.606085 -0.468661,0.133334 -0.616732,1.078859 -0.616732,1.952382 0,1.71572 0.264,-0.101306 0.48,-0.02479 0.48,0.170043 0,0.232106 -1.020524,0.360674 -2.96,0.372908 -3.2969541,0.0208 -7.2274851,0.253315 -7.839999,0.463791 -0.22,0.0756 -0.4,-0.07403 -0.4,-0.332505 z m 8.2136064,-0.717431 c 0.205483,-0.13072 0.73903,-1.208515 1.185659,-2.395099 0.729706,-1.938649 0.75672,-2.161272 0.266394,-2.195342 -0.66762,-0.04639 -1.464114,0.05852 -1.624654,0.213998 -0.276264,0.267545 -1.25004,4.268216 -1.08023,4.438026 0.252743,0.252743 0.801103,0.225788 1.252831,-0.06158 z m 36.591291,0.967474 c -0.0026,-0.22 -0.112899,-0.382948 -0.244899,-0.362106 -0.132,0.02084 -0.564,0.02084 -0.96,0 -1.018327,-0.0536 -0.896368,-0.615091 0.16,-0.736639 0.712662,-0.082 1.041344,-0.435933 1.728473,-1.861255 0.466659,-0.968 0.934445,-2.052746 1.03952,-2.410546 0.190442,-0.648482 0.04353,-0.688501 -1.818787,-0.495452 -0.25304,0.02623 -1.41176,1.833132 -1.555728,2.425998 -0.04274,0.176 -0.195325,0.464 -0.339075,0.64 -0.143754,0.176 -0.558253,0.716 -0.92111,1.2 -1.166093,1.555393 -1.241754,0.938376 -0.11449,-0.933633 1.387101,-2.303505 1.60496,-2.993227 1.05544,-3.341418 -0.591558,-0.374828 -1.874243,-0.357331 -1.874243,0.02557 0,0.170784 -0.36,1.097557 -0.8,2.059496 -0.950125,2.077182 -0.975322,2.386343 -0.24,2.944533 0.503158,0.381952 0.456355,0.426133 -0.461114,0.435278 -1.518675,0.01514 -2.01711,-1.21498 -1.227667,-3.029823 0.872938,-2.006785 0.904122,-2.4 0.190346,-2.4 -0.520387,0 -0.958717,-0.508961 -0.581565,-0.675279 0.044,-0.0194 2.920803,-0.09321 6.392896,-0.164019 l 6.312892,-0.128739 0.195443,0.778708 c 0.304839,1.214569 0.03822,1.939924 -0.754579,2.052906 -0.652662,0.09301 -0.704748,0.22359 -0.510573,1.28 0.215911,1.174656 0.669514,1.752541 1.144976,1.458688 0.138388,-0.08553 0.165856,0.06797 0.06104,0.341115 -0.111059,0.28942 -0.574272,0.49662 -1.110236,0.49662 -0.723351,0 -0.95512,-0.17077 -1.085763,-0.8 -0.09135,-0.44 -0.244029,-1.172708 -0.33928,-1.628241 -0.136208,-0.651394 -0.265293,-0.751797 -0.604564,-0.470227 -0.581664,0.482737 -0.852054,2.042279 -0.402281,2.320253 0.514464,0.317957 0.158333,0.565607 -0.925735,0.643742 -0.51383,0.03703 -1.040032,0.217442 -1.169337,0.400905 -0.152829,0.216838 -0.236813,0.19359 -0.24,-0.06643 z m 4.743097,-5.198642 c 0.162887,-1.099474 -0.622444,-1.392204 -1.126819,-0.42002 -0.231648,0.4465 -0.421177,1.006718 -0.421177,1.244928 0,0.746508 1.427923,-0.01442 1.547996,-0.824908 z m -30.806231,4.291428 c -0.11419,-0.454967 -0.133088,-1.066967 -0.042,-1.36 0.0911,-0.293032 0.02218,-0.748786 -0.15315,-1.012786 -0.275779,-0.415256 -0.3827,-0.396216 -0.792695,0.141161 -0.260655,0.341639 -0.473919,1.097639 -0.473919,1.68 0,1.057273 -0.0024,1.058839 -1.6,1.058839 -1.756548,0 -2.002546,-0.182793 -0.840547,-0.624584 0.437222,-0.166232 0.853351,-0.66287 0.980761,-1.170509 0.12172,-0.484971 0.499966,-1.45852 0.840548,-2.163442 0.755858,-1.564448 0.757021,-1.481465 -0.02076,-1.481465 -1.038066,0 -0.730938,-0.553893 0.4,-0.721384 1.789512,-0.265026 2.266271,0.286963 1.494073,1.729828 -0.424402,0.793004 -0.226549,1.034817 0.625443,0.764405 0.931223,-0.295559 1.196528,-1.395284 0.469507,-1.946172 -0.553365,-0.419304 -0.539625,-0.446939 0.226977,-0.4565 1.725886,-0.02153 2.141035,1.580476 0.645292,2.490092 -0.694253,0.422201 -0.862196,0.691809 -0.6449,1.035297 0.161594,0.255439 0.296013,0.860434 0.298708,1.344434 0.0027,0.484 0.1489,0.88 0.3249,0.88 0.176,0 0.32,0.144 0.32,0.32 0,0.176 -0.416389,0.32 -0.92531,0.32 -0.728237,0 -0.969527,-0.17618 -1.132926,-0.827214 z m 2.858236,0.315127 c 0.352,-0.270452 0.784,-0.589873 0.96,-0.709822 0.470562,-0.320704 1.408722,-2.308228 1.629751,-3.452684 0.162612,-0.841981 0.07686,-1.035764 -0.558833,-1.262918 -0.542031,-0.193684 -0.01663,-0.29893 1.888739,-0.378343 2.852698,-0.118897 3.622435,0.19037 3.351085,1.346405 -0.08385,0.357197 -0.361223,0.817484 -0.616394,1.02286 -0.403667,0.324894 -0.397753,0.474432 0.0455,1.150931 0.474755,0.724568 0.464979,0.834056 -0.143549,1.607674 -0.693737,0.881945 -1.707225,1.354971 -2.221769,1.036967 -0.17617,-0.108879 -0.03857,-0.464949 0.317136,-0.820655 0.73791,-0.73791 0.812819,-1.676851 0.175946,-2.205409 -0.61544,-0.510769 -1.655312,0.611504 -1.931698,2.08477 -0.202357,1.078656 -0.225739,1.092183 -1.870418,1.082134 -1.563243,-0.0096 -1.626206,-0.04037 -1.0255,-0.50191 z m 5.6751,-3.779844 c 0.405168,-0.59986 0.266131,-1.468069 -0.2351,-1.468069 -0.264,0 -0.48,0.272593 -0.48,0.605763 0,0.33317 -0.216,0.688651 -0.48,0.789957 -0.264,0.101307 -0.48,0.319232 -0.48,0.484278 0,0.383826 1.364208,0.04835 1.6751,-0.411929 z m 3.449651,3.720127 c -0.638508,-0.517036 -0.672969,-0.693275 -0.359756,-1.84 0.452774,-1.65768 1.891225,-3.148697 3.706518,-3.841964 1.393027,-0.532001 1.486307,-0.531196 2.093244,0.01807 1.224445,1.108109 0.64546,3.187267 -1.402297,5.035695 -0.692554,0.625142 -1.039389,0.698021 -1.301738,0.273531 -0.09738,-0.157558 0.02077,-0.362383 0.262573,-0.455167 0.459952,-0.176501 1.476704,-2.789717 1.476704,-3.795369 0,-1.259329 -1.603811,-0.336983 -2.603053,1.497004 -0.709126,1.301521 -1.065043,3.04 -0.622374,3.04 0.189987,0 0.345427,0.144 0.345427,0.32 0,0.50413 -0.821926,0.374392 -1.595248,-0.251804 z m 2.075248,0.251804 c -0.108774,-0.176 -0.04527,-0.32 0.141114,-0.32 0.186387,0 0.338886,0.144 0.338886,0.32 0,0.176 -0.0635,0.32 -0.141113,0.32 -0.07761,0 -0.230112,-0.144 -0.338887,-0.32 z m 20.079999,-0.434239 c -0.66958,-0.658672 -1.019955,-2.444611 -0.48,-2.446681 0.132,-5.12e-4 0.528,-0.432092 0.88,-0.95908 0.352,-0.526988 0.82,-0.958574 1.04,-0.95908 0.22,-5.12e-4 0.400912,-0.10892 0.402023,-0.24092 0.0037,-0.438354 1.955718,-1.36 2.880448,-1.36 1.253721,0 1.359433,0.881374 0.249475,2.08 -1.117683,1.206968 -1.113773,1.361714 0.03018,1.19382 0.507158,-0.07444 1.019654,0.02251 1.138886,0.215422 0.186819,0.302284 -0.396288,0.502087 -1.157302,0.396549 -0.11897,-0.0165 -0.309834,0.395824 -0.424144,0.916273 -0.208951,0.951348 -0.311479,1.004878 -3.359546,1.753998 -0.264,0.06488 -0.804,-0.200752 -1.2,-0.590301 z m 2.401655,-0.285761 c 0.44823,-0.560259 0.821715,-1.874457 0.50246,-1.768039 -0.145264,0.04842 -0.300115,-0.05596 -0.344115,-0.231961 -0.044,-0.176 0.172,-0.32 0.48,-0.32 0.308,0 0.665795,-0.144 0.795101,-0.32 0.388688,-0.529055 0.27495,-1.656694 -0.207485,-2.057081 -0.357549,-0.296738 -0.588995,-0.22881 -1.104045,0.324032 -1.405091,1.50819 -2.015036,3.633582 -1.259571,4.389049 0.487466,0.487467 0.737674,0.483948 1.137655,-0.016 z m -43.761653,0.351302 c 0,-0.149216 0.150021,-0.271302 0.33338,-0.271302 0.18336,0 0.642512,-0.288 1.02034,-0.64 1.11124,-1.035278 1.595758,-0.685671 0.886473,0.63964 -0.322732,0.60303 -2.240193,0.835555 -2.240193,0.271662 z M 4.2517156,6.6879634 c 0,-0.06917 0.2234791,-0.21152 0.4966202,-0.316334 0.284776,-0.109279 0.413223,-0.05563 0.3011145,0.125763 -0.1879225,0.304065 -0.7977347,0.449743 -0.7977347,0.190571 z"
     id="path879"
     inkscape:connector-curvature="0" />
</svg>
