<?xml version="1.0" encoding="UTF-8" standalone="no"?>
<!-- Created with Inkscape (http://www.inkscape.org/) -->

<svg
   xmlns:dc="http://purl.org/dc/elements/1.1/"
   xmlns:cc="http://creativecommons.org/ns#"
   xmlns:rdf="http://www.w3.org/1999/02/22-rdf-syntax-ns#"
   xmlns:svg="http://www.w3.org/2000/svg"
   xmlns="http://www.w3.org/2000/svg"
   xmlns:sodipodi="http://sodipodi.sourceforge.net/DTD/sodipodi-0.dtd"
   xmlns:inkscape="http://www.inkscape.org/namespaces/inkscape"
   version="1.1"
   id="svg869"
   width="32.892174"
   height="18.447697"
   viewBox="0 0 32.892174 18.447697"
   sodipodi:docname="Jersey.svg"
   inkscape:version="0.92.5 (2060ec1f9f, 2020-04-08)">
  <metadata
     id="metadata875">
    <rdf:RDF>
      <cc:Work
         rdf:about="">
        <dc:format>image/svg+xml</dc:format>
        <dc:type
           rdf:resource="http://purl.org/dc/dcmitype/StillImage" />
        <dc:title></dc:title>
      </cc:Work>
    </rdf:RDF>
  </metadata>
  <defs
     id="defs873" />
  <sodipodi:namedview
     pagecolor="#ffffff"
     bordercolor="#666666"
     borderopacity="1"
     objecttolerance="10"
     gridtolerance="10"
     guidetolerance="10"
     inkscape:pageopacity="0"
     inkscape:pageshadow="2"
     inkscape:window-width="1916"
     inkscape:window-height="1041"
     id="namedview871"
     showgrid="false"
     inkscape:zoom="13.212216"
     inkscape:cx="16.565804"
     inkscape:cy="17.247666"
     inkscape:window-x="0"
     inkscape:window-y="18"
     inkscape:window-maximized="0"
     inkscape:current-layer="svg869" />
  <path
     style="fill:#000000;stroke-width:1"
     d="M 22.265222,6.6361796e-4 C 22.011551,-0.02167338 21.110651,0.52312112 20.509363,1.1451951 c -0.71804,0.742866 -0.798828,1.090858 -0.798828,3.394531 0,1.411634 0.106794,2.646071 0.238281,2.744141 0.131486,0.09807 0.291036,0.617684 0.353516,1.154296 0.06248,0.536612 0.215422,1.14048 0.339843,1.341797 0.451741,0.7309329 1.492681,0.3268319 1.941407,-0.753906 0.434614,-1.046752 0.361424,-1.570711 -0.291016,-2.113281 -0.473683,-0.393915 -0.627253,-0.967015 -0.664062,-2.464844 -0.02638,-1.073449 0.07094,-1.877249 0.216796,-1.787109 0.145855,0.09014 0.265625,-0.133707 0.265625,-0.496094 0,-0.362387 0.144313,-0.658203 0.320313,-0.658203 0.176,0 0.318359,-0.216469 0.318359,-0.480469 0,-0.26399998 -0.151503,-0.48046898 -0.33789,-0.48046898 -0.18639,0 -0.25206,-0.142422 -0.144532,-0.316406 0.09385,-0.1518471 0.0826,-0.2210698 -0.002,-0.22851550204 z M 24.454675,3.7858201 c -0.0831,0.01924 -0.170404,0.0605 -0.269531,0.121093 -0.287899,0.176 -0.477512,0.415383 -0.419922,0.533204 0.05759,0.117821 -0.229436,0.570247 -0.638672,1.005859 -0.409239,0.435612 -0.606794,0.877793 -0.4375,0.982422 0.169295,0.10463 0.46882,-0.0011 0.664063,-0.236328 0.294327,-0.354643 0.640398,-0.332148 2.025391,0.136719 1.157361,0.391804 1.844732,0.471431 2.240234,0.259765 0.83768,-0.448313 0.708407,-1.025632 -0.179688,-0.802734 -0.758244,0.190307 -1.343014,-0.210261 -2.285156,-1.560547 -0.253692,-0.363594 -0.449925,-0.497163 -0.699219,-0.439453 z m 4.136719,0.658203 c -0.179043,-0.0092 -0.319863,0.05228 -0.451172,0.183594 -0.497235,0.497236 0.407726,1.359375 1.427735,1.359375 1.182822,0 1.590024,0.718636 1.398437,2.470703 -0.337052,3.0823389 -0.622023,4.7476829 -0.945312,5.5292969 -0.379261,0.916932 -0.315412,1.898481 0.160156,2.478515 0.620835,0.757213 1.531678,0.464661 1.736328,-0.558594 0.1056,-0.527999 0.282578,-0.960944 0.392578,-0.960937 0.11,6e-6 0.224919,-0.539213 0.25586,-1.199219 0.03096,-0.660007 0.117226,-2.496077 0.191406,-4.0800779 l 0.134765,-2.880859 -1.095703,-1.042969 c -0.603357,-0.573597 -1.243318,-0.952152 -1.421875,-0.841797 -0.17856,0.110355 -0.674788,0.01356 -1.101562,-0.214844 -0.285434,-0.152762 -0.502597,-0.232971 -0.681641,-0.242187 z m -13.61914,3.642578 c -0.133932,0.03287 -0.222657,0.136343 -0.222657,0.332031 0,0.270899 -0.233912,0.728053 -0.521484,1.015625 -0.342707,0.342707 -0.397991,0.565251 -0.160156,0.6445319 0.199572,0.06652 0.364487,0.43312 0.367187,0.814453 0.0036,0.510944 0.07656,0.577765 0.279297,0.257812 0.200446,-0.316343 0.337756,-0.33329 0.503906,-0.06445 0.340278,0.550582 2.052607,0.167843 2.927735,-0.654297 1.033697,-0.9711049 0.966428,-1.1408499 -0.390625,-0.9824219 -0.845605,0.09872 -1.039419,0.216107 -0.720703,0.439453 0.356106,0.2495479 0.3501,0.2824649 -0.03516,0.1777349 C 16.740449,9.9966231 16.44944,9.6040561 16.35311,9.1959791 16.196601,8.5329811 15.374047,7.9879901 14.972254,8.0866011 Z M 1.6226441,8.5709761 c -0.3504264,-0.0584 -0.73024007,0.185346 -0.93359367,0.695313 -0.8993432,2.2553589 -0.9088618,2.7470069 -0.083984,4.1503899 0.386031,0.656763 0.84991057,0.919814 1.89257807,1.076172 1.6585356,0.248713 2.0489739,0.724442 1.1074219,1.349609 -0.817526,0.542817 -0.8961048,1.416395 -0.1914062,2.121094 0.5512022,0.551202 0.7926916,0.598751 1.5488281,0.308594 0.2773834,-0.106442 0.4235479,-0.322911 0.3261719,-0.480469 -0.097376,-0.157558 -0.033778,-0.285156 0.140625,-0.285156 0.1744021,0 0.6339065,-0.442817 1.0195312,-0.984375 0.5186032,-0.728311 0.6075912,-1.077956 0.3417969,-1.34375 -0.2657945,-0.265799 -0.359375,-0.260593 -0.359375,0.02344 0,0.2112 -0.1443125,0.384766 -0.3203125,0.384766 -0.176,0 -0.3203125,-0.271113 -0.3203125,-0.601562 0,-0.758645 -0.5686083,-1.236044 -1.7226563,-1.445313 -0.8950118,-0.162297 -2.4375,-1.009874 -2.4375,-1.339844 0,-0.09433 0.1287887,-0.09199 0.2871094,0.0059 C 2.2895158,12.435662 2.5184213,9.6199651 2.177332,9.0104721 2.0318694,8.7505031 1.8329,8.6060171 1.6226441,8.5709761 Z m 10.0644529,1.060547 c -0.617071,0.0018 -1.097656,0.8454829 -1.097656,2.0371089 0,0.907424 -0.09416,1.051141 -0.59375,0.892578 -0.343385,-0.108987 -0.766566,0.0156 -1,0.296875 -0.241461,0.290948 -0.268876,0.488282 -0.07031,0.488282 0.182883,0 0.39604,-0.180391 0.47461,-0.400391 0.07857,-0.220004 0.255403,-0.295715 0.392578,-0.167969 0.28013,0.260875 -0.438288,1.272157 -0.761719,1.072266 -0.113999,-0.07045 -0.486474,0.07583 -0.826172,0.324219 -0.339691,0.248393 -0.482045,0.454331 -0.316406,0.457031 0.165639,0.0027 0.08627,0.159702 -0.177734,0.349609 -0.399205,0.287166 -0.382032,0.31247 0.105469,0.154297 0.322393,-0.104606 0.726445,-0.189453 0.898437,-0.189453 0.171993,0 0.224008,-0.144313 0.115234,-0.320313 -0.108774,-0.176 0.01075,-0.320312 0.263672,-0.320312 0.25292,0 0.674923,-0.32275 0.939453,-0.71875 0.458084,-0.685751 0.510754,-0.693488 1.095704,-0.167969 0.583816,0.524498 0.663529,0.516436 1.621093,-0.160156 0.55404,-0.391471 1.09258,-1.050056 1.197266,-1.462891 0.223293,-0.880578 -0.327098,-1.686268 -0.980469,-1.435546 -0.251132,0.09637 -0.457031,0.03147 -0.457031,-0.144532 0,-0.176 -0.247424,-0.4167939 -0.550781,-0.5332029 -0.09277,-0.0356 -0.183332,-0.05104 -0.271485,-0.05078 z"
     id="path891"
     inkscape:connector-curvature="0" />
</svg>
