<?xml version="1.0" encoding="UTF-8" standalone="no"?>
<!-- Created with Inkscape (http://www.inkscape.org/) -->

<svg
   xmlns:dc="http://purl.org/dc/elements/1.1/"
   xmlns:cc="http://creativecommons.org/ns#"
   xmlns:rdf="http://www.w3.org/1999/02/22-rdf-syntax-ns#"
   xmlns:svg="http://www.w3.org/2000/svg"
   xmlns="http://www.w3.org/2000/svg"
   xmlns:sodipodi="http://sodipodi.sourceforge.net/DTD/sodipodi-0.dtd"
   xmlns:inkscape="http://www.inkscape.org/namespaces/inkscape"
   version="1.1"
   id="svg815"
   width="39.012501"
   height="10.139771"
   viewBox="0 0 39.012501 10.139771"
   sodipodi:docname="Lierre_Chateau.svg"
   inkscape:version="0.92.5 (2060ec1f9f, 2020-04-08)">
  <metadata
     id="metadata821">
    <rdf:RDF>
      <cc:Work
         rdf:about="">
        <dc:format>image/svg+xml</dc:format>
        <dc:type
           rdf:resource="http://purl.org/dc/dcmitype/StillImage" />
        <dc:title></dc:title>
      </cc:Work>
    </rdf:RDF>
  </metadata>
  <defs
     id="defs819" />
  <sodipodi:namedview
     pagecolor="#ffffff"
     bordercolor="#666666"
     borderopacity="1"
     objecttolerance="10"
     gridtolerance="10"
     guidetolerance="10"
     inkscape:pageopacity="0"
     inkscape:pageshadow="2"
     inkscape:window-width="1916"
     inkscape:window-height="1041"
     id="namedview817"
     showgrid="false"
     inkscape:zoom="24.367455"
     inkscape:cx="19.599921"
     inkscape:cy="-4.1607921"
     inkscape:window-x="0"
     inkscape:window-y="18"
     inkscape:window-maximized="0"
     inkscape:current-layer="svg815" />
  <path
     style="fill:#000000;stroke-width:0.99999994"
     d="m 0.20078426,0.01043212 c -0.067817,0.019183 -0.1304195,0.065736 -0.171875,0.1328125 -0.082911,0.1341532 0.018819,0.2421875 0.2246093,0.2421875 0.4215662,0 0.4832809,-0.1438718 0.1503907,-0.3496094 -0.06144,-0.037972 -0.1353078,-0.044573 -0.203125,-0.0253906 z m 2.09179684,0.1367187 c -0.3719952,0 -0.731048,0.086848 -0.796875,0.1933594 C 1.4298791,0.44702112 1.3078308,1.8226151 1.2242217,3.399104 1.0560393,6.5702847 0.95786226,7.1228921 0.58164356,7.0416821 0.44118766,7.0113634 0.28273596,7.1072504 0.22812796,7.2545727 0.10805976,7.5784978 3.4467763,7.6376272 3.6460967,7.3151196 3.717142,7.2001663 3.5118739,7.1061352 3.1890655,7.1061352 c -0.7403075,0 -0.8946341,-0.7940084 -0.5527344,-2.8613281 0.3765739,-2.276982 0.7855154,-1.8593994 1.390625,1.4199219 0.4145375,2.2465391 0.8124476,2.4194824 1.8144532,0.7910156 0.3907789,-0.6350969 0.8405797,-1.5501551 1,-2.0332031 0.2625722,-0.7956022 0.89325,-1.6064602 1.0664062,-1.3710938 0.038116,0.05181 0.19609,0.959625 0.3496094,2.015625 0.1535193,1.056 0.3415706,2.1427985 0.4199216,2.4160157 C 8.8317585,8.0215426 7.6625477,9.5065258 7.0835967,9.5065258 6.8596292,9.5065259 6.8438775,9.4337452 7.0308624,9.2467602 7.4040905,8.8735322 7.139442,8.107919 6.5738311,7.9284009 6.2563714,7.8276432 5.9253003,7.9421663 5.6070343,8.2604321 l -0.4824219,0.4824219 0.5332031,0.75 C 5.9997852,9.973106 6.3352577,10.20089 6.5894561,10.125667 6.807958,10.061007 7.259504,9.9446749 7.5914093,9.8659008 8.2517078,9.7091858 8.7435715,9.0525479 10.11094,6.5065259 c 0.496244,-0.924 1.048712,-1.8939262 1.228516,-2.1542969 0.179804,-0.260371 0.328125,-0.6638085 0.328125,-0.8984375 0,-0.2346293 0.161375,-0.4277344 0.359375,-0.4277344 0.198,0 0.359375,-0.161375 0.359375,-0.359375 0,-0.3630326 -0.01772,-0.364121 -8.9648436,-0.4648437 C 2.7582015,2.1943684 2.7413684,2.1621174 2.853128,1.1705884 2.9647357,0.18040702 2.946722,0.14715082 2.2925811,0.14715082 Z m 30.1171869,0.5058594 c -0.316111,-0.019755 -0.34933,0.1205895 -0.367187,0.60351558 -0.05881,1.5905197 -0.08427,1.6492274 -0.736329,1.7246094 -0.543775,0.062864 -0.6213,-8.883e-4 -0.511718,-0.4199218 0.110035,-0.4207828 0.01782,-0.4941407 -0.619141,-0.4941407 -0.441386,0 -0.748047,0.1224136 -0.748047,0.3007813 0,0.1662478 -0.216469,0.4386449 -0.480468,0.6035156 -0.578325,0.3611705 -0.627268,0.7753906 -0.0918,0.7753906 0.335074,0 0.364692,0.2153385 0.21875,1.578125 -0.1338,1.2494004 -0.09313,1.6601067 0.195312,1.9785157 0.268882,0.296814 0.826214,0.4151057 2.128906,0.4492187 1.75619,0.045989 2.75284,-0.2201009 2.19336,-0.5859375 -0.19889,-0.1300505 -0.22524,-1.0121813 -0.0957,-3.1796875 0.09861,-1.65 0.161492,-3.02696868 0.138672,-3.05859378 -0.02283,-0.031625 -0.385312,-0.1251093 -0.804688,-0.2089843 -0.17789,-0.035578 -0.314552,-0.059821 -0.419922,-0.0664063 z M 18.571878,1.2389477 c -1.116504,0.010533 -1.491092,0.1227519 -2,0.5996094 C 15.636286,2.715225 15.26719,3.8401111 15.26719,5.8151196 V 7.586604 l 0.660156,0.00391 c 0.363,0.00202 0.818146,0.1041347 1.011719,0.2265625 0.358084,0.2264754 0.568833,0.1241805 1.587891,-0.7636719 0.487315,-0.424572 0.507018,-0.4210432 0.77539,0.1679688 0.326255,0.7160518 1.460295,0.8346268 2.078125,0.2167969 0.356893,-0.3568934 0.422044,-0.3568934 0.816407,0 0.527612,0.4774823 0.996483,0.4927004 1.603515,0.048828 0.30295,-0.2215232 0.560983,-0.2620472 0.740235,-0.1132813 0.151386,0.1256393 0.83595,0.2528036 1.521484,0.28125 1.055297,0.04379 1.316455,-0.035918 1.705078,-0.515625 0.252456,-0.3116234 0.458984,-0.8436581 0.458984,-1.1816406 0,-0.6493037 -0.604177,-1.4921875 -1.070312,-1.4921875 -0.563815,0 -1.118048,-0.6061445 -0.951172,-1.0410156 0.149062,-0.3884484 0.22742,-0.3682343 0.833984,0.2128906 0.737534,0.7066013 1.1875,0.6174428 1.1875,-0.234375 0,-0.46974 -0.153551,-0.5746109 -1.009765,-0.6894531 -1.150185,-0.1542724 -2.34961,0.3881492 -2.34961,1.0625 0,0.2236865 0.432938,0.9531238 0.960938,1.6210937 0.528,0.6679701 0.958984,1.3349069 0.958984,1.4804688 0,0.503641 -0.836729,0.099746 -1.15039,-0.5546875 -0.3877,-0.8089095 -0.53731,-0.8152643 -1.25,-0.056641 -0.891973,0.9494638 -1.037159,0.7601907 -0.853516,-1.1035157 0.197076,-2.0000108 -0.140164,-2.6171874 -1.427734,-2.6171874 -1.844535,0 -3.096838,1.0708011 -2.119141,1.8105468 0.576401,0.436116 0.85262,0.3358599 1.234375,-0.4472656 0.405228,-0.8312744 0.652253,-0.8179972 0.626953,0.035156 -0.03354,1.1307894 -0.280027,1.3152588 -1.55664,1.1640626 L 19.138284,4.9733223 18.511331,6.0397286 C 17.441207,7.8657586 16.84137,7.2865727 16.89219,4.4811352 16.93591,2.067844 18.09072,0.85193472 18.952737,2.3112134 19.311832,2.9191137 19.450807,2.99836 19.739846,2.758479 19.933102,2.598088 20.058813,2.1876684 20.019143,1.8463696 19.950733,1.2578396 19.875435,1.2266497 18.571878,1.2389477 Z m 18.572265,1.3828125 c -0.212547,-0.00115 -0.606653,0.1092369 -1.009765,0.2910156 -1.75602,0.7918549 -2.073563,3.0996457 -0.634766,4.6132813 0.407789,0.429 0.855033,0.7798009 0.99414,0.7792969 0.504657,-0.00179 1.700857,-0.8957798 2.033204,-1.5195313 C 39.068362,5.76971 38.605516,5.7264955 37.788674,6.7174633 37.164737,7.4744061 36.989417,7.5705508 36.720315,7.3014477 36.54331,7.1244426 36.329746,6.6357046 36.245706,6.2155102 l -0.154297,-0.7636718 1.40625,-0.072266 C 39.13917,5.2945294 39.380075,4.9158899 38.540628,3.7369943 38.040969,3.0352898 37.993925,3.0185728 37.442971,3.3795724 c -0.486215,0.3185785 -0.576172,0.3231966 -0.576172,0.03125 0,-0.1900428 0.135782,-0.3922428 0.300782,-0.4511719 0.164998,-0.058929 0.218743,-0.1941024 0.121093,-0.2988281 -0.02441,-0.026181 -0.07368,-0.03868 -0.144531,-0.039062 z M 5.7027374,2.8444165 c 0.2064636,-0.024028 0.4368525,0.056441 0.515625,0.2617187 0.072512,0.1889635 0.018819,0.7885148 -0.1191407,1.3320313 -0.3188712,1.2562536 -0.6624203,1.2690447 -0.7089843,0.027344 -0.0198,-0.528 -0.045394,-1.0926671 -0.058594,-1.2558594 -0.017184,-0.2124452 0.1646301,-0.341206 0.371094,-0.3652346 z m 4.2890621,0.1210937 c 0.1608545,-0.058365 0.3626665,0.1067842 0.5429685,0.5957032 0.08417,0.2282277 0.01509,0.743622 -0.154297,1.1464843 L 10.071878,5.4420727 9.8355495,4.6530102 c -0.263242,-0.8729845 -0.11184,-1.5902251 0.15625,-1.6875 z m 20.8925785,0.8125 c 0.07267,-0.010929 0.16562,-0.00498 0.283203,0.011719 0.767235,0.1089648 0.894971,1.5023309 0.197265,2.1523437 -0.273437,0.2547454 -0.498047,0.5665014 -0.498047,0.6933594 0,0.126858 -0.121031,0.2304688 -0.269531,0.2304688 -0.1744,0 -0.217984,-0.2655554 -0.121094,-0.75 0.0825,-0.4125 0.150391,-1.1214912 0.150391,-1.5761719 0,-0.5400255 0.0398,-0.7289327 0.257813,-0.761719 z m 5.578124,0.2773438 c 0.06006,-0.00971 0.163993,0.05577 0.34375,0.1933594 0.231001,0.1768108 0.466485,0.3513198 0.521485,0.3886718 0.055,0.037352 -0.133924,0.068359 -0.419922,0.068359 -0.319666,0 -0.521484,-0.1493009 -0.521484,-0.3886719 0,-0.1666553 0.01611,-0.2520072 0.07617,-0.2617187 z M 21.489846,5.9069165 c 0.38982,0 0.308631,0.3590454 -0.18164,0.8027344 -0.50707,0.4588922 -0.761719,0.5042557 -0.761719,0.1386718 0,-0.3322742 0.611085,-0.9414062 0.943359,-0.9414062 z m 12.976563,1.1992187 c -0.132,0 -0.240235,0.1082344 -0.240235,0.2402344 0,0.132 0.108235,0.2402344 0.240235,0.2402344 0.132,0 0.240234,-0.1082344 0.240234,-0.2402344 0,-0.132 -0.108234,-0.2402344 -0.240234,-0.2402344 z"
     id="path849"
     inkscape:connector-curvature="0" />
</svg>
