<?xml version="1.0" encoding="UTF-8" standalone="no"?>
<!-- Created with Inkscape (http://www.inkscape.org/) -->

<svg
   xmlns:dc="http://purl.org/dc/elements/1.1/"
   xmlns:cc="http://creativecommons.org/ns#"
   xmlns:rdf="http://www.w3.org/1999/02/22-rdf-syntax-ns#"
   xmlns:svg="http://www.w3.org/2000/svg"
   xmlns="http://www.w3.org/2000/svg"
   xmlns:sodipodi="http://sodipodi.sourceforge.net/DTD/sodipodi-0.dtd"
   xmlns:inkscape="http://www.inkscape.org/namespaces/inkscape"
   version="1.1"
   id="svg977"
   width="69.329155"
   height="24.503773"
   viewBox="0 0 69.329155 24.503773"
   sodipodi:docname="Saint_Pierre_Port.svg"
   inkscape:version="0.92.5 (2060ec1f9f, 2020-04-08)">
  <metadata
     id="metadata983">
    <rdf:RDF>
      <cc:Work
         rdf:about="">
        <dc:format>image/svg+xml</dc:format>
        <dc:type
           rdf:resource="http://purl.org/dc/dcmitype/StillImage" />
        <dc:title></dc:title>
      </cc:Work>
    </rdf:RDF>
  </metadata>
  <defs
     id="defs981" />
  <sodipodi:namedview
     pagecolor="#ffffff"
     bordercolor="#666666"
     borderopacity="1"
     objecttolerance="10"
     gridtolerance="10"
     guidetolerance="10"
     inkscape:pageopacity="0"
     inkscape:pageshadow="2"
     inkscape:window-width="1916"
     inkscape:window-height="1041"
     id="namedview979"
     showgrid="false"
     inkscape:zoom="8.8480394"
     inkscape:cx="38.119563"
     inkscape:cy="17.908552"
     inkscape:window-x="0"
     inkscape:window-y="18"
     inkscape:window-maximized="0"
     inkscape:current-layer="svg977" />
  <path
     style="fill:#000000;stroke-width:1"
     d="m 8.282191,24.266198 c -0.079,-0.205867 -0.09251,-0.796838 -0.03002,-1.313273 0.06249,-0.516434 0.121313,-1.127971 0.130723,-1.358971 0.029,-0.712051 0.40458,-0.468681 0.995388,0.645 0.644918,1.215684 1.212428,1.558119 2.313999,1.39626 1.097825,-0.161306 1.390788,-0.594122 0.999893,-1.477217 -0.248977,-0.562476 -0.59139,-0.795566 -1.643341,-1.118661 -1.433857,-0.440393 -2.290631,-1.067463 -2.487597,-1.820662 -0.173226,-0.662417 0.296355,-0.771367 1.924118,-0.446431 2.971871,0.593249 3.172115,0.683201 3.553634,1.596305 0.955379,2.286545 -1.073443,4.20227 -4.021024,3.796874 -0.881222,-0.1212 -1.248918,-0.08027 -1.394468,0.155239 -0.159192,0.257578 -0.225634,0.246977 -0.341307,-0.05446 z m 23.893244,-0.192367 c -0.260333,-0.168706 -0.278484,-0.302918 -0.07425,-0.549 0.180072,-0.216974 0.244124,-1.404859 0.191866,-3.558293 -0.0944,-3.890133 -0.05357,-3.592584 -0.493044,-3.592584 -0.198,0 -0.36,-0.09133 -0.36,-0.202963 0,-0.224947 5.934245,-0.586003 6.265601,-0.381216 0.226661,0.140086 0.08746,1.759145 -0.171737,1.997458 -0.08777,0.0807 -0.207792,0.01171 -0.266722,-0.153279 -0.05893,-0.165 -0.287143,-0.302402 -0.507141,-0.305337 -0.220001,-0.0029 -0.670001,-0.216533 -1.000001,-0.474663 -0.837833,-0.65536 -1.44,-0.619188 -1.44,0.0865 0,1.268265 0.322565,2.793496 0.590786,2.793496 0.157049,0 0.539194,-0.27 0.849214,-0.6 0.31002,-0.33 0.636629,-0.6 0.725798,-0.6 0.244896,0 0.09764,3.446604 -0.150441,3.521086 -0.118447,0.03556 -0.485357,-0.307162 -0.815357,-0.761609 -0.33,-0.454445 -0.68639,-0.829236 -0.791976,-0.83287 -0.105588,-0.0036 -0.159588,0.600317 -0.12,1.342114 l 0.07198,1.348721 0.89676,0.07951 c 0.774806,0.0687 0.973968,-0.02496 1.464509,-0.688721 0.312261,-0.422529 0.662789,-0.984235 0.778951,-1.248235 0.158539,-0.360309 0.230482,-0.127166 0.288514,0.93498 0.04252,0.778239 -0.0096,1.494063 -0.115714,1.59072 -0.307303,0.279792 -5.432515,0.503719 -5.817588,0.254177 z m 16.450144,0.0215 c -0.188061,-0.304294 0.243543,-0.605882 0.574424,-0.401386 0.152671,0.09436 0.256634,-0.708285 0.285717,-2.205835 0.02515,-1.29479 0.06493,-2.966287 0.08841,-3.714434 0.03746,-1.193563 -0.01834,-1.376227 -0.455237,-1.490482 -0.984785,-0.257527 -0.17879,-0.40092 2.686277,-0.477909 l 2.914834,-0.07832 v 0.789331 c 0,1.089698 -0.393142,1.230679 -1.220768,0.437762 -0.873079,-0.836464 -1.349438,-0.918957 -1.685076,-0.291816 -0.241828,0.45186 -0.100984,2.591712 0.170585,2.591712 0.06343,0 0.347818,-0.216595 0.631971,-0.481325 0.299618,-0.279136 0.605848,-0.392114 0.729012,-0.268951 0.209287,0.209287 -0.0086,2.430276 -0.238433,2.430276 -0.06502,0 -0.331402,-0.271029 -0.591967,-0.602287 -0.260568,-0.331258 -0.573113,-0.540883 -0.694541,-0.465835 -0.281489,0.173969 -0.275124,1.864356 0.01169,3.101385 0.121555,0.524292 0.19998,0.972641 0.174273,0.996327 -0.230932,0.212793 -3.258172,0.330792 -3.38116,0.131796 z M 24.160004,23.893949 c -0.298502,-0.298496 -0.161798,-0.559995 0.29275,-0.559995 0.560757,0 0.725184,-0.998772 0.740824,-4.5 0.0103,-2.307525 -0.01891,-2.46 -0.471292,-2.46 -0.265256,0 -0.482283,-0.108 -0.482283,-0.24 0,-0.409646 4.847376,-0.299304 5.707791,0.129927 0.9304,0.464145 1.433375,1.746494 0.973718,2.482521 -0.41377,0.662551 -2.421574,1.724871 -3.116825,1.649095 -0.550517,-0.06 -0.564384,-0.01488 -0.552749,1.798457 l 0.01193,1.86 h -1.471934 c -0.809563,0 -1.543934,-0.072 -1.631933,-0.160001 z m 2.359999,-0.799995 c 0,-0.657799 -0.53442,-0.930158 -0.74555,-0.379958 -0.198643,0.517656 0.07774,1.16256 0.445677,1.039915 0.164931,-0.05498 0.299873,-0.351958 0.299873,-0.659957 z m 2.064348,-3.805677 c 0.01339,-0.216876 0.0592,-0.772323 0.101791,-1.234323 0.09072,-0.984019 -0.385744,-1.757887 -1.008016,-1.637212 -0.369334,0.07162 -0.441516,0.337111 -0.459742,1.690881 -0.01728,1.283561 0.05498,1.623163 0.36,1.69183 0.579281,0.130411 0.97889,-0.07265 1.005967,-0.511176 z m 11.975652,4.525677 c 0,-0.132 0.209383,-0.24 0.465295,-0.24 0.366722,0 0.493224,-0.216084 0.597142,-1.02 0.136682,-1.057411 0.107157,-5.94 -0.03592,-5.94 -0.04465,0 -0.413069,0.378 -0.81871,0.84 -0.405643,0.462 -0.834343,0.84 -0.952668,0.84 -0.118327,0 -0.215011,-0.513 -0.214855,-1.14 l 2.4e-4,-1.14 2.939719,-0.06765 c 1.616844,-0.03721 3.081723,0.0275 3.255286,0.143786 0.367493,0.246224 0.302724,2.241228 -0.0768,2.365618 -0.132677,0.04349 -0.385793,-0.247522 -0.562479,-0.646682 -0.368172,-0.831761 -0.957434,-1.487417 -1.201324,-1.336685 -0.287674,0.177792 -0.07902,6.879348 0.225616,7.246411 0.234291,0.282252 -0.02968,0.335198 -1.671156,0.335198 -1.139589,0 -1.949385,-0.0997 -1.949385,-0.24 z m 12,0.128503 c 0,-0.150784 0.292317,-0.54042 0.978333,-1.30404 0.208085,-0.231621 0.447694,-0.601881 0.532469,-0.822796 0.294223,-0.766738 0.649198,-0.395835 0.649198,0.678333 0,0.594 0.027,1.159073 0.06,1.255719 0.033,0.09664 -0.453,0.213028 -1.08,0.258631 -0.627,0.04561 -1.14,0.01598 -1.14,-0.06585 z m 2.879999,-0.128503 c 0,-0.132 0.204293,-0.24 0.453982,-0.24 0.61439,0 0.721754,-0.562771 0.770357,-4.037923 0.03681,-2.632281 -0.0064,-2.976297 -0.411603,-3.274541 -0.673653,-0.495868 -0.156592,-0.593587 2.838924,-0.536524 2.87952,0.05485 3.230088,0.220807 3.460056,1.637942 0.117483,0.723955 0.02354,0.947777 -0.702388,1.673719 l -0.838008,0.838008 0.694339,0.398498 c 0.536573,0.307949 0.694341,0.571829 0.694341,1.161332 0,0.419558 0.224808,1.126581 0.499575,1.571162 0.274766,0.444578 0.463766,0.822254 0.42,0.839275 -0.448234,0.174324 -1.652206,0.06748 -2.176097,-0.193113 -0.684542,-0.340503 -0.8526,-0.75348 -0.959508,-2.357835 -0.05664,-0.850058 -0.139555,-0.968697 -0.72397,-1.035941 l -0.66,-0.07594 v 1.700512 c 0,1.69404 0.0024,1.69994 0.6,1.549923 0.453725,-0.113878 0.6,-0.05648 0.6,0.235428 0,0.327602 -0.345033,0.386018 -2.28,0.386018 -1.36,0 -2.28,-0.09684 -2.28,-0.24 z m 5.088459,-4.930512 c 0.3249,-0.713078 -0.03354,-2.254579 -0.605827,-2.60542 -0.58568,-0.35905 -1.058528,0.288775 -0.98155,1.34477 0.03172,0.435139 0.06695,1.073186 0.0783,1.417881 0.01781,0.5409 0.105466,0.6105 0.640224,0.508275 0.340781,-0.06515 0.731765,-0.364623 0.868858,-0.665506 z m 3.311541,4.930512 c 0,-0.132 0.162,-0.24 0.36,-0.24 0.198,0 0.36,0.108 0.36,0.24 0,0.132 -0.162,0.24 -0.36,0.24 -0.198,0 -0.36,-0.108 -0.36,-0.24 z M 16.89208,23.22773 c -0.188284,-0.490661 0.315289,-1.093776 0.913252,-1.093776 0.715318,0 0.505767,1.292863 -0.226402,1.396834 -0.32605,0.0463 -0.599004,-0.07414 -0.68685,-0.303058 z m 0.627923,-3.249024 c -0.557346,-0.139164 -0.600681,-0.254815 -0.609579,-1.626861 -0.01132,-1.745657 -0.168384,-1.998826 -0.718846,-1.158713 -0.574427,0.876686 -0.872951,0.770661 -0.786062,-0.279178 l 0.07449,-0.9 2.368284,-0.06903 2.368287,-0.06903 -0.167794,0.668541 c -0.222384,0.886049 -0.357823,0.989429 -0.638702,0.487524 -0.128659,-0.229901 -0.388073,-0.418001 -0.576473,-0.418001 -0.26027,0 -0.337762,0.340066 -0.322618,1.41582 0.02445,1.736883 -0.185623,2.150023 -0.990984,1.948932 z m -4.559999,-1.425523 c -0.198,-0.113395 -1.17,-0.395285 -2.16,-0.626419 C 8.6169,17.417078 8.102697,17.048628 8.716662,16.433954 9.047547,16.102687 9.648846,15.996298 11.562805,15.930379 l 2.426628,-0.08357 -0.154715,0.773573 c -0.08509,0.425464 -0.154714,1.084072 -0.154714,1.463572 0,0.724611 -0.1282,0.808157 -0.72,0.469229 z m 0,-0.961809 c 0,-0.326232 -1.237253,-1.244984 -1.540591,-1.144001 -0.600003,0.199742 -0.372582,0.820025 0.39025,1.064397 1.044505,0.334604 1.150341,0.341926 1.150341,0.0796 z m -8.76,-8.6620378 c -0.396,-0.08775 -1.0136678,-0.109776 -1.372595,-0.04894 -0.3589272,0.06083 -0.8449272,0.03606 -1.08,-0.05506 -0.3946632,-0.15297 -0.3970049,-0.188058 -0.030569,-0.45804 0.3189422,-0.234989 0.4239734,-0.894091 0.5350872,-3.357828 0.076038,-1.685996 0.2008353,-3.166712 0.2773277,-3.290479 0.076492,-0.123767 0.075266,-0.32828 -0.00273,-0.454472 C 2.2893679,0.88078918 1.3565755,1.3784352 0.9550392,2.1029062 0.36972,3.1589692 0,3.1222762 0,2.0081262 0,1.4769162 0.1125749,0.97271518 0.2501664,0.88767818 c 0.1375956,-0.08504 1.5754951,-0.18062 3.1953364,-0.212401 1.6198412,-0.03178 3.0732662,-0.136952 3.2298332,-0.233716 0.321584,-0.19875 0.377696,0.527254 0.134668,1.74239402 -0.169431,0.847155 -0.466582,0.97393 -0.683186,0.29147 -0.192631,-0.606928 -1.309414,-1.334871 -1.600829,-1.043455 -0.122486,0.122486 -0.210557,1.40154 -0.195714,2.842343 0.04243,4.118606 0.03479,4.070198 0.629245,3.988158 0.284878,-0.03932 0.584553,0.03627 0.665944,0.167958 0.231243,0.374159 -0.629274,0.675337 -1.42546,0.498907 z m 8.04,-0.235381 c -0.198,-0.127958 -0.579158,-0.234304 -0.847018,-0.236325 -0.26786,-0.00202 -0.642702,-0.219675 -0.832982,-0.483675 -0.190281,-0.264 -0.460545,-0.48 -0.600587,-0.48 -0.243733,0 -0.649029,-1.179779 -0.96212,-2.800642 -0.1511,-0.782237 0.633302,-2.959358 1.066236,-2.959358 0.116343,0 0.155945,-0.21257 0.088,-0.472379 -0.101023,-0.38631202 0.0015,-0.47518202 0.562468,-0.48776802 0.377299,-0.0085 1.283163,-0.05547 2.01303,-0.104466 1.695789,-0.113828 2.472909,0.03982 3.084827,0.60990602 0.501546,0.467261 1.009212,1.929391 1.116177,3.214707 0.07232,0.86899 -0.607142,2.523516 -1.371089,3.338688 -0.91164,0.97277 -2.50446,1.386378 -3.316942,0.861312 z m 1.888687,-0.688688 c 0.532252,-0.532252 0.879047,-3.124985 0.621716,-4.648114 -0.394819,-2.336914 -2.178117,-3.14880202 -3.038171,-1.383198 -0.750838,1.541395 -0.402463,6.083449 0.484575,6.317798 0.883019,0.233288 1.504228,0.141166 1.93188,-0.286486 z m 16.111312,0.716679 c 0,-0.116605 0.201711,-0.264757 0.448243,-0.329227 0.586731,-0.153433 0.792667,-1.161561 0.836527,-4.095089 0.02826,-1.89036 -0.04101,-2.425475 -0.350311,-2.706013 -0.493125,-0.447265 -1.999135,-0.508744 -2.489673,-0.101633 -0.397469,0.329869 -1.803999,3.196607 -1.805897,3.680715 -7.2e-4,0.155791 -0.245143,0.877256 -0.543406,1.603256 -0.928713,2.260593 -1.15025,2.404104 -1.574553,1.02 -0.151747,-0.495 -0.470535,-1.528653 -0.70842,-2.297007 l -0.432519,-1.397006 -0.633141,1.397006 c -0.348226,0.768354 -0.797213,1.802007 -0.997747,2.297007 -0.555149,1.370325 -1.175364,1.09089 -1.464898,-0.66 -0.08731,-0.528 -0.248174,-1.176 -0.35747,-1.44 -0.109299,-0.264 -0.375288,-1.128 -0.591089,-1.92 -0.686839,-2.520728 -0.739174,-2.639942 -1.160064,-2.64253 -0.226315,-0.0014 -0.412404,-0.109392 -0.413532,-0.24000002 -0.0011,-0.130609 0.10595,-0.22667 0.23795,-0.21347 0.132,0.0132 0.996,0.0402 1.92,0.06 1.272471,0.02727 1.68,0.118476 1.68,0.37600002 0,0.187 -0.121809,0.380603 -0.270691,0.43023 -0.286593,0.09553 0.145877,3.199488 0.533069,3.825977 0.275357,0.445536 0.364925,0.289871 1.203446,-2.091538 1.050024,-2.98207002 1.141644,-3.05262302 1.814967,-1.397639 0.307564,0.75598 0.559209,1.513081 0.559209,1.682447 0,0.409818 0.517512,1.530523 0.706757,1.530523 0.08234,0 0.33293,-0.494364 0.556872,-1.098586 0.390638,-1.053997 0.388106,-1.135943 -0.06242,-2.01905 -0.379648,-0.744172 -0.568785,-0.894524 -0.987528,-0.785021 -0.36688,0.09594 -0.486432,0.04092 -0.409905,-0.188662 0.127896,-0.38369002 3.449767,-0.59509902 3.673087,-0.23376102 0.08663,0.140173 0.36185,0.142442 0.720871,0.0059 0.319407,-0.121438 1.122115,-0.156679 1.783793,-0.07831 1.111344,0.131622 1.298359,0.254352 2.453246,1.60996702 0.687605,0.807116 1.431415,1.629483 1.652914,1.827483 0.221498,0.198 0.495797,0.576 0.609552,0.84 0.164215,0.381104 0.224225,0.258597 0.291264,-0.594598 0.142032,-1.80764 -0.124661,-2.662999 -0.924413,-2.964873 -1.13953,-0.43012402 -0.814553,-0.65978602 0.868104,-0.61349502 1.341919,0.03692 1.548094,0.09962 1.407672,0.42811002 -0.756262,1.769112 -0.90841,2.532603 -0.953438,4.784435 -0.02727,1.363768 -0.15739,2.587385 -0.289152,2.719148 -0.159428,0.159426 -0.911595,-0.367824 -2.248421,-1.576086 -1.104869,-0.998611 -2.130761,-1.817228 -2.279758,-1.819149 -0.196584,-0.0025 -0.205716,0.309266 -0.03329,1.136508 0.250433,1.201484 0.762125,1.98 1.301393,1.98 0.17754,0 0.322802,0.108 0.322802,0.24 0,0.138667 -0.760001,0.24 -1.8,0.24 -0.99,0 -1.8,-0.0954 -1.8,-0.212009 z m 6.363677,-1.718075 c -0.03452,-0.468619 -1.269099,-1.742151 -3.388395,-3.495318 -1.130524,-0.935215 -1.295282,-0.982742 -1.295282,-0.373642 0,0.242526 0.461148,0.863526 1.024771,1.38 3.575184,3.276102 3.724373,3.377588 3.658906,2.48896 z m 18.403526,1.5543 c -1.598664,-0.517678 -2.812675,-2.666713 -2.538,-4.492751 0.36827,-2.448251 2.105925,-4.11304302 4.242268,-4.06438102 0.900291,0.02051 1.348678,0.152187 1.608406,0.472346 0.198067,0.244151 0.543475,0.514103 0.767573,0.59989302 0.582175,0.222869 1.155425,1.45401 1.31862,2.831933 0.191553,1.617367 -0.40188,3.102323 -1.675421,4.192427 -0.831902,0.712076 -1.147733,0.838177 -1.961122,0.783012 -0.533241,-0.03617 -1.326285,-0.181281 -1.762324,-0.322479 z m 2.623411,-0.501103 c 0.239299,-0.288339 0.329385,-1.19377 0.329385,-3.310555 0,-3.265133 -0.323004,-4.21255802 -1.436184,-4.21255802 -1.056501,0 -1.50779,0.80470702 -1.692091,3.01721702 -0.184819,2.218728 -0.06798,2.963747 0.646558,4.122783 0.544764,0.883645 1.583479,1.068536 2.152332,0.383113 z m 5.249613,0.576887 c -1.24e-4,-0.099 0.161772,-0.18 0.359772,-0.18 0.288651,0 0.365542,-0.392428 0.387963,-1.98 0.01538,-1.089 0.06538,-2.828157 0.111115,-3.864793 0.07538,-1.70862402 0.03912,-1.89630702 -0.387963,-2.00799102 -1.071321,-0.280157 -0.307185,-0.430469 2.469082,-0.485691 1.616892,-0.03216 3.082277,0.03283 3.256411,0.144428 0.19734,0.126468 0.287751,0.550678 0.24,1.12609302 L 69.24,2.3091902 68.353654,1.5286992 C 67.376357,0.66811918 65.90635,0.26638818 65.717638,0.80831618 c -0.06237,0.179101 -0.05135,0.97257402 0.02448,1.76327202 0.155465,1.620993 0.589375,1.95087 1.443125,1.097123 0.675756,-0.675758 0.734755,-0.637796 0.734755,0.472776 0,1.112379 -0.490687,1.474386 -1.167837,0.861575 -0.815765,-0.738258 -0.992163,-0.483419 -0.992163,1.433361 0,1.617192 0.05376,1.836528 0.4773,1.947286 0.262517,0.06865 0.413511,0.228033 0.335544,0.354186 -0.164011,0.265376 -3.692272,0.166061 -3.692616,-0.10394 z"
     id="path987"
     inkscape:connector-curvature="0" />
</svg>
