<?xml version="1.0" encoding="UTF-8" standalone="no"?>
<!-- Created with Inkscape (http://www.inkscape.org/) -->

<svg
   xmlns:dc="http://purl.org/dc/elements/1.1/"
   xmlns:cc="http://creativecommons.org/ns#"
   xmlns:rdf="http://www.w3.org/1999/02/22-rdf-syntax-ns#"
   xmlns:svg="http://www.w3.org/2000/svg"
   xmlns="http://www.w3.org/2000/svg"
   xmlns:sodipodi="http://sodipodi.sourceforge.net/DTD/sodipodi-0.dtd"
   xmlns:inkscape="http://www.inkscape.org/namespaces/inkscape"
   version="1.1"
   id="svg815"
   viewBox="0 0 7600 11730"
   sodipodi:docname="archipel.svg"
   inkscape:version="0.92.5 (2060ec1f9f, 2020-04-08)">
  <metadata
     id="metadata821">
    <rdf:RDF>
      <cc:Work
         rdf:about="">
        <dc:format>image/svg+xml</dc:format>
        <dc:type
           rdf:resource="http://purl.org/dc/dcmitype/StillImage" />
        <dc:title></dc:title>
      </cc:Work>
    </rdf:RDF>
  </metadata>
  <defs
     id="defs819" />
  <sodipodi:namedview
     pagecolor="#ffffff"
     bordercolor="#666666"
     borderopacity="1"
     objecttolerance="10"
     gridtolerance="10"
     guidetolerance="10"
     inkscape:pageopacity="0"
     inkscape:pageshadow="2"
     inkscape:window-width="1916"
     inkscape:window-height="1041"
     id="namedview817"
     showgrid="false"
     inkscape:zoom="0.037468031"
     inkscape:cx="6105.2923"
     inkscape:cy="5049.2679"
     inkscape:window-x="0"
     inkscape:window-y="18"
     inkscape:window-maximized="0"
     inkscape:current-layer="svg815" />
  <rect
     vector-effect="non-scaling-stroke"
     style="opacity:1;fill:none;fill-opacity:1;stroke:#00000e;stroke-width:2;stroke-linecap:butt;stroke-linejoin:miter;stroke-miterlimit:4;stroke-dasharray:none;stroke-opacity:1;paint-order:markers fill stroke"
     id="rect825"
     width="6165.2559"
     height="8513.9248"
     x="814.02728"
     y="1814.8805" />
  <path
     vector-effect="non-scaling-stroke"
     style="fill:none;stroke:#000000;stroke-width:2;stroke-linecap:butt;stroke-linejoin:miter;stroke-miterlimit:4;stroke-dasharray:none;stroke-opacity:1"
     d="m 817.37046,7927.7262 1220.83464,1981.0998 1273.8782,-830.3799 575.6043,481.2429 1255.0059,-518.9874 -94.3613,481.2428 1160.6445,245.3395 556.732,-339.7008 -679.4017,-603.9126 -18.8723,-2745.9153 -971.9219,-1736.2488 264.2118,-462.3706 -377.4454,-349.137 28.3084,-358.5731 1188.953,462.3706 777.3017,-388.0611 2.4409,7083.0708 H 814.02728 Z"
     id="path827"
     inkscape:connector-curvature="0"
     sodipodi:nodetypes="ccccccccccccccccccc" />
  <path
     vector-effect="non-scaling-stroke"
     style="fill:none;stroke:#000000;stroke-width:2;stroke-linecap:butt;stroke-linejoin:miter;stroke-opacity:1;stroke-miterlimit:4;stroke-dasharray:none"
     d="m 3566.859,6011.7023 v 443.4983 l 726.5824,301.9563 188.7227,-434.0622 z"
     id="path829"
     inkscape:connector-curvature="0" />
  <path
     vector-effect="non-scaling-stroke"
     style="fill:none;stroke:#000000;stroke-width:2;stroke-linecap:butt;stroke-linejoin:miter;stroke-opacity:1;stroke-miterlimit:4;stroke-dasharray:none"
     d="m 3142.2329,4737.8241 -75.4891,169.8504 28.3084,217.0311 150.9782,-245.3395 z"
     id="path831"
     inkscape:connector-curvature="0" />
  <path
     vector-effect="non-scaling-stroke"
     style="fill:none;stroke:#000000;stroke-width:2;stroke-linecap:butt;stroke-linejoin:miter;stroke-opacity:1;stroke-miterlimit:4;stroke-dasharray:none"
     d="m 2717.6068,4275.4535 -613.3487,235.9033 -56.6168,198.1589 207.5949,169.8504 339.7009,-47.1807 z"
     id="path833"
     inkscape:connector-curvature="0" />
  <path
     vector-effect="non-scaling-stroke"
     style="fill:none;stroke:#000000;stroke-width:2;stroke-linecap:butt;stroke-linejoin:miter;stroke-opacity:1;stroke-miterlimit:4;stroke-dasharray:none"
     d="m 2934.6379,4426.4316 -84.9252,179.2866 94.3614,37.7445 18.8722,-94.3613 z"
     id="path835"
     inkscape:connector-curvature="0" />
  <path
     vector-effect="non-scaling-stroke"
     style="fill:none;stroke:#000000;stroke-width:2;stroke-linecap:butt;stroke-linejoin:miter;stroke-opacity:1;stroke-miterlimit:4;stroke-dasharray:none"
     d="m 4085.8464,3161.9895 -358.5731,122.6698 66.0529,150.9782 283.0841,-94.3614 z"
     id="path837"
     inkscape:connector-curvature="0" />
      <rect
         style="opacity:1;vector-effect:non-scaling-stroke;fill:none;fill-opacity:1;stroke:coral;stroke-width:1.9993701;stroke-linecap:butt;stroke-linejoin:miter;stroke-miterlimit:4;stroke-dasharray:1.9993701,1.9993701;stroke-opacity:1;paint-order:markers fill stroke;stroke-dashoffset:0"
         id="rect_guernesey"
         width="854.50122"
         height="814.04724"
         x="1952.7815"
         y="4173.5479" />
</svg>
