<?xml version="1.0" encoding="UTF-8"?>
<?xml-stylesheet href='../../../assets/css/svg.css'?>
<svg xmlns:xlink="http://www.w3.org/1999/xlink" xmlns="http://www.w3.org/2000/svg"
     width="2813"
     height="3842"
     viewBox="0 0 2813 3842">
   <image xlink:href="../../thumbnails/CG_1852.jpg" width="2813" height="3842"/>
   <g class="location location-hidden" data-location="Ancresse">
      <title>Ancresse (L’)</title>
      <rect width="207" height="269" x="289" y="379"/>
   </g>
   <g class="location location-hidden" data-location="Archipel">
      <title>Archipel de la Manche</title>
      <rect width="0" height="0" x="0" y="0"/>
   </g>
   <g class="location location-hidden" data-location="B_01"
      data-parent-location="Balise">
      <title>Balise Le Creux</title>
      <rect width="124" height="62" x="1512" y="1802"/>
   </g>
   <g class="location location-hidden" data-location="B_02"
      data-parent-location="Balise">
      <title>Balise L’Alligande</title>
      <rect width="138" height="60" x="1316" y="1972"/>
   </g>
   <g class="location location-hidden" data-location="B_03"
      data-parent-location="Balise">
      <title>Balise Les Trémies</title>
      <rect width="130" height="54" x="410" y="2290"/>
   </g>
   <g class="location location-hidden" data-location="B_04"
      data-parent-location="Balise">
      <title>Balise La Sardrette</title>
      <rect width="102" height="52" x="378" y="2176"/>
   </g>
   <g class="location location-hidden" data-location="B_05"
      data-parent-location="Balise">
      <title>Balise L’Anfré</title>
      <rect width="114" height="50" x="324" y="2806"/>
   </g>
   <g class="location location-hidden" data-location="B_06"
      data-parent-location="Balise">
      <title>Balise La Rousse</title>
      <rect width="146" height="72" x="1488" y="1288"/>
   </g>
   <g class="location location-hidden" data-location="B_07"
      data-parent-location="Balise">
      <title>Balise La Corbette</title>
      <rect width="98" height="57" x="1178" y="927"/>
   </g>
   <g class="location location-hidden" data-location="B_08"
      data-parent-location="Balise">
      <title>Balise Longue-Pierre</title>
      <rect width="186" height="54" x="492" y="3350"/>
   </g>
   <g class="location location-hidden" data-location="B_09"
      data-parent-location="Balise">
      <title>Balise Le Goubeau</title>
      <rect width="122" height="58" x="388" y="2104"/>
   </g>
   <g class="location location-hidden" data-location="B_10"
      data-parent-location="Balise">
      <title>Balise La Platte</title>
      <rect width="198" height="88" x="1090" y="1250"/>
   </g>
   <g class="location location-hidden" data-location="B_11"
      data-parent-location="Balise">
      <title>Balise Les Barbées</title>
      <rect width="124" height="48" x="1396" y="2540"/>
   </g>
   <g class="location location-hidden" data-location="B_12"
      data-parent-location="Balise">
      <title>Balise Le Moulinet</title>
      <rect width="110" height="40" x="404" y="2478"/>
   </g>
   <g class="location location-hidden" data-location="B_13"
      data-parent-location="Balise">
      <title>Balise Les Plattes Fougères</title>
      <rect width="154" height="60" x="1322" y="158"/>
   </g>
   <g class="location location-hidden" data-location="B_14"
      data-parent-location="Balise">
      <title>Balise Saint-Sampson</title>
      <rect width="57" height="40" x="965" y="1431"/>
   </g>
   <g class="location location-hidden" data-location="Bourdeaux">
      <title>Bourdeaux (Le)</title>
      <rect width="161" height="61" x="803" y="1079"/>
   </g>
   <g class="location location-hidden" data-location="Braye_Grande"
      data-parent-location="Deux_Brayes">
      <title>Braye (Grande)</title>
      <rect width="219" height="50" x="782" y="0"/>
   </g>
   <g class="location location-hidden" data-location="Braye_Petite"
      data-parent-location="Deux_Brayes">
      <title>Braye (Petite)</title>
      <rect width="172" height="64" x="893" y="143"/>
   </g>
   <g class="location location-hidden" data-location="Cornet_Chateau">
      <title>Cornet (Château)</title>
      <rect width="216" height="50" x="360" y="2353"/>
   </g>
   <g class="location location-hidden" data-location="Crevel_Mont_Est">
      <title>Mont Crevel de l'Est</title>
      <rect width="335" height="64" x="681" y="1403"/>
   </g>
   <g class="location location-hidden" data-location="Doyle_Fort">
      <title>Fort Doyle</title>
      <rect width="232" height="103" x="673" y="501"/>
   </g>
   <g class="location location-hidden" data-location="Doyle_Point">
      <title>Doyle Point</title>
      <rect width="232" height="103" x="673" y="501"/>
   </g>
   <g class="location location-hidden" data-location="Fermain_Bay">
      <title>Fermain-Bay</title>
      <rect width="222" height="116" x="189" y="2963"/>
   </g>
   <g class="location location-hidden" data-location="George_Fort">
      <title>George (Fort)</title>
      <rect width="320" height="188" x="16" y="2584"/>
   </g>
   <g class="location location-hidden" data-location="Grune_Pierre">
      <title>Grune Pierre</title>
      <rect width="151" height="60" x="1059" y="550"/>
   </g>
   <g class="location location-hidden" data-location="Guernesey">
      <title>Guernesey</title>
      <rect width="0" height="0" x="0" y="0"/>
   </g>
   <g class="location location-hidden" data-location="Herm">
      <title>Herm (île d’)</title>
      <rect width="334" height="684" x="1948" y="1320"/>
   </g>
   <g class="location location-hidden" data-location="Hougue_la_Perre">
      <title>Hougue la Perre (La)</title>
      <rect width="-54" height="-1714" x="250" y="1780"/>
   </g>
   <g class="location location-hidden" data-location="Jet_Hou">
      <title>Jet-Hou</title>
      <rect width="154" height="184" x="1776" y="2096"/>
   </g>
   <g class="location location-hidden" data-location="Lemarchand_Fort">
      <title>Lemarchand (Fort)</title>
      <rect width="-411" height="-282" x="607" y="433"/>
   </g>
   <g class="location location-hidden" data-location="Manche">
      <title>La Manche</title>
      <rect width="0" height="0" x="0" y="0"/>
   </g>
   <g class="location location-hidden" data-location="Roque_Nord">
      <title>Roque-Nord (La)</title>
      <rect width="184" height="57" x="271" y="122"/>
   </g>
   <g class="location location-hidden" data-location="Sablonneuse">
      <title>Sablonneuse (La) </title>
      <rect width="127" height="54" x="340" y="321"/>
   </g>
   <g class="location location-hidden" data-location="Saint_Sampson_Port"
      data-parent-location="Saint_Sampson">
      <title>Saint-Sampson (Port de)</title>
      <rect width="273" height="53" x="602" y="1346"/>
   </g>
</svg>