<?xml version="1.0" encoding="UTF-8"?>
<?xml-stylesheet href='../../../assets/css/svg.css'?>
<svg xmlns:xlink="http://www.w3.org/1999/xlink" xmlns="http://www.w3.org/2000/svg"
     width="12229"
     height="7558"
     viewBox="0 0 12229 7558">
   <image xlink:href="../../thumbnails/CG_1794.jpg" width="12229" height="7558"/>
   <g class="location location-hidden" data-location="Aiguilles_Wight">
      <title>Aiguilles (de Wight)</title>
      <rect width="142" height="60" x="6762" y="2004"/>
   </g>
   <g class="location location-hidden" data-location="Ambleteuse_Baie">
      <title>Ambleteuse (Baie d’)</title>
      <rect width="-8049" height="-1881" x="8228" y="1927"/>
   </g>
   <g class="location location-hidden" data-location="Angleterre">
      <title>Angleterre</title>
      <rect width="0" height="0" x="0" y="0"/>
   </g>
   <g class="location location-hidden" data-location="Archipel">
      <title>Archipel de la Manche</title>
      <rect width="0" height="0" x="0" y="0"/>
   </g>
   <g class="location location-hidden" data-location="Astigarraga">
      <title>Astigarraga</title>
      <rect width="50" height="54" x="6682" y="6616"/>
   </g>
   <g class="location location-hidden" data-location="Aurigny">
      <title>Aurigny</title>
      <rect width="172" height="98" x="6566" y="2562"/>
   </g>
   <g class="location location-hidden" data-location="Belgique">
      <title>Belgique</title>
      <rect width="0" height="0" x="0" y="0"/>
   </g>
   <g class="location location-hidden" data-location="Bilbao">
      <title>Bilbao</title>
      <rect width="118" height="84" x="6154" y="6624"/>
   </g>
   <g class="location location-hidden" data-location="Binic">
      <title>Binic</title>
      <rect width="80" height="44" x="6310" y="3402"/>
   </g>
   <g class="location location-hidden" data-location="Brehat">
      <title>Bréhat</title>
      <rect width="144" height="46" x="6304" y="3226"/>
   </g>
   <g class="location location-hidden" data-location="Brest">
      <title>Brest</title>
      <rect width="92" height="84" x="5626" y="3452"/>
   </g>
   <g class="location location-hidden" data-location="Bretagne">
      <title>Bretagne</title>
      <rect width="0" height="0" x="0" y="0"/>
   </g>
   <g class="location location-hidden" data-location="Calvados">
      <title>Calvados</title>
      <rect width="0" height="0" x="0" y="0"/>
   </g>
   <g class="location location-hidden" data-location="Cancale">
      <title>Cancale </title>
      <rect width="68" height="28" x="6712" y="3338"/>
   </g>
   <g class="location location-hidden" data-location="Carteret">
      <title>Carteret</title>
      <rect width="92" height="40" x="6770" y="2812"/>
   </g>
   <g class="location location-hidden" data-location="Casquets">
      <title>Casquets (Les)</title>
      <rect width="184" height="62" x="6324" y="2584"/>
   </g>
   <g class="location location-hidden" data-location="Charente">
      <title>Charente</title>
      <rect width="0" height="0" x="0" y="0"/>
   </g>
   <g class="location location-hidden" data-location="Cherbourg">
      <title>Cherbourg</title>
      <rect width="98" height="152" x="6856" y="2712"/>
   </g>
   <g class="location location-hidden" data-location="Chousey">
      <title>Chousey</title>
      <rect width="140" height="46" x="6640" y="3178"/>
   </g>
   <g class="location location-hidden" data-location="Coutances">
      <title>Coutances</title>
      <rect width="188" height="54" x="6938" y="3072"/>
   </g>
   <g class="location location-hidden" data-location="Dieppe">
      <title>Dieppe</title>
      <rect width="102" height="80" x="7982" y="2522"/>
   </g>
   <g class="location location-hidden" data-location="Dinan">
      <title>Dinan</title>
      <rect width="100" height="60" x="6672" y="3484"/>
   </g>
   <g class="location location-hidden" data-location="Douvres">
      <title>Douvres</title>
      <rect width="164" height="56" x="6274" y="2988"/>
   </g>
   <g class="location location-hidden" data-location="Dunkerque">
      <title>Dunkerque</title>
      <rect width="176" height="60" x="8578" y="1758"/>
   </g>
   <g class="location location-hidden" data-location="Espagne">
      <title>Espagne</title>
      <rect width="0" height="0" x="0" y="0"/>
   </g>
   <g class="location location-hidden" data-location="Etretat">
      <title>Etretat</title>
      <rect width="102" height="32" x="7668" y="2674"/>
   </g>
   <g class="location location-hidden" data-location="Europe">
      <title>Europe</title>
      <rect width="0" height="0" x="0" y="0"/>
   </g>
   <g class="location location-hidden" data-location="Exeter">
      <title>Exeter</title>
      <rect width="156" height="52" x="5842" y="1930"/>
   </g>
   <g class="location location-hidden" data-location="Finistere">
      <title>Finistère</title>
      <rect width="0" height="0" x="0" y="0"/>
   </g>
   <g class="location location-hidden" data-location="Flandre">
      <title>Flandre</title>
      <rect width="0" height="0" x="0" y="0"/>
   </g>
   <g class="location location-hidden" data-location="France">
      <title>France</title>
      <rect width="0" height="0" x="0" y="0"/>
   </g>
   <g class="location location-hidden" data-location="GB">
      <title>Grande Bretagne</title>
      <rect width="0" height="0" x="0" y="0"/>
   </g>
   <g class="location location-hidden" data-location="Granville">
      <title>Granville</title>
      <rect width="160" height="44" x="6876" y="3248"/>
   </g>
   <g class="location location-hidden" data-location="Greenwich">
      <title>Greenwich</title>
      <rect width="122" height="74" x="7516" y="1454"/>
   </g>
   <g class="location location-hidden" data-location="Groix">
      <title>Ile de Groie</title>
      <rect width="150" height="56" x="6056" y="3970"/>
   </g>
   <g class="location location-hidden" data-location="Guernesey">
      <title>Guernesey</title>
      <rect width="172" height="110" x="6256" y="2730"/>
   </g>
   <g class="location location-hidden" data-location="Harlem">
      <title>Harlem</title>
      <rect width="124" height="46" x="9432" y="832"/>
   </g>
   <g class="location location-hidden" data-location="Herm">
      <title>Herm (île d’)</title>
      <rect width="64" height="26" x="6428" y="2758"/>
   </g>
   <g class="location location-hidden" data-location="Hernani">
      <title>Hernani</title>
      <rect width="38" height="28" x="6664" y="6628"/>
   </g>
   <g class="location location-hidden" data-location="Hollande">
      <title>Hollande</title>
      <rect width="0" height="0" x="0" y="0"/>
   </g>
   <g class="location location-hidden" data-location="Hougue_Cap">
      <title>Hougue (cap de la)</title>
      <rect width="134" height="80" x="6730" y="2656"/>
   </g>
   <g class="location location-hidden" data-location="Irlande">
      <title>Irlande</title>
      <rect width="0" height="0" x="0" y="0"/>
   </g>
   <g class="location location-hidden" data-location="Isigny">
      <title>Isigny</title>
      <rect width="104" height="44" x="7110" y="2934"/>
   </g>
   <g class="location location-hidden" data-location="Jersey">
      <title>Jersey</title>
      <rect width="126" height="86" x="6518" y="2942"/>
   </g>
   <g class="location location-hidden" data-location="La_Rochelle">
      <title>La Rochelle</title>
      <rect width="212" height="46" x="7036" y="4914"/>
   </g>
   <g class="location location-hidden" data-location="Londres">
      <title>Londres</title>
      <rect width="182" height="100" x="7374" y="1364"/>
   </g>
   <g class="location location-hidden" data-location="Lorient">
      <title>Lorient</title>
      <rect width="140" height="70" x="5996" y="3868"/>
   </g>
   <g class="location location-hidden" data-location="Manche">
      <title>La Manche</title>
      <rect width="0" height="0" x="0" y="0"/>
   </g>
   <g class="location location-hidden" data-location="Minquiers">
      <title>Minquiers (Les)</title>
      <rect width="150" height="36" x="6566" y="3086"/>
   </g>
   <g class="location location-hidden" data-location="Nantes">
      <title>Nantes</title>
      <rect width="154" height="80" x="6878" y="4194"/>
   </g>
   <g class="location location-hidden" data-location="Normandie">
      <title>Normandie</title>
      <rect width="0" height="0" x="0" y="0"/>
   </g>
   <g class="location location-hidden" data-location="Ostende">
      <title>Ostende</title>
      <rect width="120" height="44" x="8798" y="1620"/>
   </g>
   <g class="location location-hidden" data-location="Paris">
      <title>Paris</title>
      <rect width="192" height="86" x="8500" y="3168"/>
   </g>
   <g class="location location-hidden" data-location="Pasages">
      <title>Pasages</title>
      <rect width="58" height="108" x="6674" y="6656"/>
   </g>
   <g class="location location-hidden" data-location="Portbail">
      <title>Portbail</title>
      <rect width="96" height="34" x="6782" y="2850"/>
   </g>
   <g class="location location-hidden" data-location="Portland">
      <title>Portland</title>
      <rect width="140" height="66" x="6326" y="2054"/>
   </g>
   <g class="location location-hidden" data-location="Portrieux">
      <title>Portrieux</title>
      <rect width="82" height="56" x="6264" y="3374"/>
   </g>
   <g class="location location-hidden" data-location="Portsmouth">
      <title>Portsmouth</title>
      <rect width="180" height="182" x="7046" y="1738"/>
   </g>
   <g class="location location-hidden" data-location="Pyrenees">
      <title>Pyrénées</title>
      <rect width="0" height="0" x="0" y="0"/>
   </g>
   <g class="location location-hidden" data-location="Quimperle">
      <title>Quimperlé</title>
      <rect width="132" height="38" x="6070" y="3848"/>
   </g>
   <g class="location location-hidden" data-location="Rennes">
      <title>Rennes</title>
      <rect width="192" height="50" x="6748" y="3764"/>
   </g>
   <g class="location location-hidden" data-location="Rochefort">
      <title>Rochefort</title>
      <rect width="214" height="64" x="7102" y="5028"/>
   </g>
   <g class="location location-hidden" data-location="Rouen">
      <title>Rouen</title>
      <rect width="150" height="82" x="8006" y="2786"/>
   </g>
   <g class="location location-hidden" data-location="Saint-Brieuc">
      <title>Saint-Brieuc</title>
      <rect width="140" height="56" x="6290" y="3442"/>
   </g>
   <g class="location location-hidden" data-location="Serk">
      <title>Serk</title>
      <rect width="128" height="70" x="6452" y="2790"/>
   </g>
   <g class="location location-hidden" data-location="Southampton">
      <title>Southampton</title>
      <rect width="226" height="74" x="6876" y="1766"/>
   </g>
   <g class="location location-hidden" data-location="Tamise">
      <title>Tamise</title>
      <rect width="194" height="78" x="7558" y="1404"/>
   </g>
   <g class="location location-hidden" data-location="Tor_Bay">
      <title>Tor Bay</title>
      <rect width="100" height="46" x="5942" y="2126"/>
   </g>
   <g class="location location-hidden" data-location="Treport">
      <title>Tréport</title>
      <rect width="96" height="80" x="8108" y="2458"/>
   </g>
   <g class="location location-hidden" data-location="Wales">
      <title>Wales</title>
      <rect width="482" height="100" x="5768" y="1012"/>
   </g>
   <g class="location location-hidden" data-location="Wight">
      <title>Ile de Wight</title>
      <rect width="168" height="82" x="6894" y="1958"/>
   </g>
   <g class="location location-hidden" data-location="Zuydersee">
      <title>Zuydersée</title>
      <rect width="256" height="122" x="9690" y="790"/>
   </g>
</svg>