<?xml version="1.0" encoding="UTF-8"?>
<?xml-stylesheet href='../../../assets/css/svg.css'?>
<svg xmlns:xlink="http://www.w3.org/1999/xlink" xmlns="http://www.w3.org/2000/svg"
     width="8183"
     height="4691"
     viewBox="0 0 8183 4691">
   <image xlink:href="../../thumbnails/CG_1816.jpg" width="8183" height="4691"/>
   <g class="location location-hidden" data-location="Guernesey">
      <title>Guernesey</title>
      <rect width="0" height="0" x="0" y="0"/>
   </g>
   <g class="location location-hidden" data-location="Serk">
      <title>Serk</title>
      <rect width="0" height="0" x="0" y="0"/>
   </g>
   <g class="location location-hidden" data-location="Serk_Grand"
      data-parent-location="Serk">
      <title>Serk (Grand)</title>
      <rect width="636" height="785" x="6771" y="2641"/>
   </g>
   <g class="location location-hidden" data-location="Herm">
      <title>Herm (île d’)</title>
      <rect width="313" height="527" x="5185" y="1857"/>
   </g>
   <g class="location location-hidden" data-location="Jet_Hou">
      <title>Jet-Hou</title>
      <rect width="113" height="184" x="5039" y="2436"/>
   </g>
   <g class="location location-hidden" data-location="Valette">
      <title>Valette (La)</title>
      <rect width="100" height="41" x="7306" y="2985"/>
   </g>
   <g class="location location-hidden" data-location="Roussel_Ville">
      <title>Roussel (Ville)</title>
      <rect width="63" height="62" x="7217" y="2992"/>
   </g>
   <g class="location location-hidden" data-location="Creux_Port">
      <title>Creux (Port)</title>
      <rect width="113" height="105" x="7415" y="3132"/>
   </g>
   <g class="location location-hidden" data-location="Burons">
      <title>Burons (Les)</title>
      <rect width="137" height="125" x="7480" y="3100"/>
   </g>
   <g class="location location-hidden" data-location="Dicart_Bay">
      <title>Dicart Bay</title>
      <rect width="74" height="113" x="7145" y="3336"/>
   </g>
   <g class="location location-hidden" data-location="Gosselin_Havre">
      <title>Gosselin (Havre)</title>
      <rect width="94" height="71" x="6765" y="3190"/>
   </g>
   <g class="location location-hidden" data-location="Coupee">
      <title>Coupée (La)</title>
      <rect width="186" height="120" x="7001" y="3396"/>
   </g>
   <g class="location location-hidden" data-location="Gouliot">
      <title>Gouliot (Le)</title>
      <rect width="46" height="73" x="6732" y="3065"/>
   </g>
   <g class="location location-hidden" data-location="Brecqhou">
      <title>Brecqhou </title>
      <rect width="312" height="242" x="6401" y="3009"/>
   </g>
   <g class="location location-hidden" data-location="Jument_Port">
      <title>Jument (Port à la)</title>
      <rect width="119" height="137" x="6802" y="2924"/>
   </g>
   <g class="location location-hidden" data-location="Moulin_Port">
      <title>Moulin (Port du)</title>
      <rect width="131" height="69" x="6869" y="2868"/>
   </g>
   <g class="location location-hidden" data-location="Autelets">
      <title>Autelets (Les)</title>
      <rect width="125" height="66" x="6878" y="2844"/>
   </g>
   <g class="location location-hidden" data-location="Terrible_Creux">
      <title>Terrible (Creux)</title>
      <rect width="100" height="41" x="7259" y="3265"/>
   </g>
   <g class="location location-hidden" data-location="Terrible_Point">
      <title>Terrible (Point)</title>
      <rect width="192" height="34" x="7347" y="3335"/>
   </g>
   <g class="location location-hidden" data-location="Serk_Petit"
      data-parent-location="Serk">
      <title>Serk (Petit)</title>
      <rect width="403" height="341" x="6712" y="3486"/>
   </g>
   <g class="location location-hidden" data-location="Fees_Port">
      <title>Fées (Port des)</title>
      <rect width="105" height="66" x="6894" y="3309"/>
   </g>
   <g class="location location-hidden" data-location="Mouton_Moue">
      <title>Mouton (La Moue)</title>
      <rect width="103" height="85" x="6738" y="3013"/>
   </g>
   <g class="location location-hidden" data-location="Nez_Pointe">
      <title>Nez (Pointe du)</title>
      <rect width="121" height="126" x="6927" y="2492"/>
   </g>
   <g class="location location-hidden" data-location="Eperquerie">
      <title>Éperquerie (L’)</title>
      <rect width="140" height="83" x="7055" y="2611"/>
   </g>
   <g class="location location-hidden" data-location="Serk_Fort"
      data-parent-location="Serk">
      <title>Serk (Fort)</title>
      <rect width="88" height="65" x="7102" y="2786"/>
   </g>
   <g class="location location-hidden" data-location="Houmet_Paradis">
      <title>Houmet-Paradis</title>
      <rect width="207" height="99" x="4274" y="1415"/>
   </g>
   <g class="location location-hidden" data-location="Houmet_Benet">
      <title>Houmet-Benet</title>
      <rect width="215" height="55" x="4227" y="1663"/>
   </g>
   <g class="location location-hidden" data-location="Bourdeaux">
      <title>Bourdeaux (Le)</title>
      <rect width="82" height="57" x="4138" y="1654"/>
   </g>
   <g class="location location-hidden" data-location="Saint_Sampson">
      <title>Saint-Sampson</title>
      <rect width="186" height="96" x="3921" y="1853"/>
   </g>
   <g class="location location-hidden" data-location="Lierre_Chateau">
      <title>Lierre (Château de)</title>
      <rect width="130" height="55" x="3563" y="2220"/>
   </g>
   <g class="location location-hidden" data-location="Cornet_Chateau">
      <title>Cornet (Château)</title>
      <rect width="236" height="111" x="3851" y="2747"/>
   </g>
   <g class="location location-hidden" data-location="Valle_Chateau">
      <title>Valle (Château du)</title>
      <rect width="74" height="105" x="4095" y="1760"/>
   </g>
   <g class="location location-hidden" data-location="Saint_Sampson_Eglise"
      data-parent-location="Saint_Sampson">
      <title>Saint-Sampson (Église de)</title>
      <rect width="88" height="34" x="3977" y="1926"/>
   </g>
   <g class="location location-hidden" data-location="Crevel_Mont_Est">
      <title>Mont Crevel de l'Est</title>
      <rect width="187" height="68" x="4099" y="1940"/>
   </g>
   <g class="location location-hidden" data-location="Saint_Pierre_Port">
      <title>Saint-Pierre-Port</title>
      <rect width="442" height="490" x="3157" y="2408"/>
   </g>
   <g class="location location-hidden" data-location="Doyle_Colonne">
      <title>Colonne Doyle</title>
      <rect width="79" height="42" x="3788" y="3548"/>
   </g>
   <g class="location location-hidden" data-location="George_Fort">
      <title>George (Fort)</title>
      <rect width="323" height="188" x="3598" y="2945"/>
   </g>
   <g class="location location-hidden" data-location="Fermain_Bay">
      <title>Fermain-Bay</title>
      <rect width="205" height="70" x="3729" y="3299"/>
   </g>
   <g class="location location-hidden" data-location="B_05"
      data-parent-location="Balise">
      <title>Balise L’Anfré</title>
      <rect width="69" height="50" x="3910" y="3121"/>
   </g>
   <g class="location location-hidden" data-location="Saint_Martin_Point">
      <title>Saint-Martin</title>
      <rect width="214" height="57" x="3930" y="3685"/>
   </g>
   <g class="location location-hidden" data-location="B_08"
      data-parent-location="Balise">
      <title>Balise Longue-Pierre</title>
      <rect width="135" height="47" x="3979" y="3652"/>
   </g>
   <g class="location location-hidden" data-location="Jerbourg">
      <title>Jerbourg</title>
      <rect width="72" height="165" x="3759" y="3580"/>
   </g>
   <g class="location location-hidden" data-location="Saints_Baie">
      <title>Saints (Baie des)</title>
      <rect width="177" height="133" x="3335" y="3720"/>
   </g>
   <g class="location location-hidden" data-location="Dicart_Cap">
      <title>Dicart (Cap)</title>
      <rect width="231" height="209" x="3143" y="3633"/>
   </g>
   <g class="location location-hidden" data-location="Hubert_Mont">
      <title>Hubert (Mont)</title>
      <rect width="217" height="117" x="2914" y="3554"/>
   </g>
   <g class="location location-hidden" data-location="Sommeilleuse">
      <title>Sommeilleuse (La)</title>
      <rect width="171" height="152" x="2681" y="3671"/>
   </g>
   <g class="location location-hidden" data-location="Petit_Bo">
      <title>Petit Bô</title>
      <rect width="153" height="210" x="2868" y="3688"/>
   </g>
   <g class="location location-hidden" data-location="Moie">
      <title>Moie (La)</title>
      <rect width="155" height="134" x="2663" y="3890"/>
   </g>
   <g class="location location-hidden" data-location="Corbiere">
      <title>Corbière (La, Guernesey)</title>
      <rect width="93" height="150" x="2270" y="3913"/>
   </g>
   <g class="location location-hidden" data-location="Tielles">
      <title>Tielles (Le)</title>
      <rect width="79" height="159" x="1772" y="3829"/>
   </g>
   <g class="location location-hidden" data-location="Plainmont">
      <title>Plainmont</title>
      <rect width="144" height="54" x="1365" y="3938"/>
   </g>
   <g class="location location-hidden" data-location="Torteval">
      <title>Torteval</title>
      <rect width="309" height="157" x="1146" y="3581"/>
   </g>
   <g class="location location-hidden" data-location="Saint_Pierre_du_Bois">
      <title>Saint-Pierre-du-Bois </title>
      <rect width="382" height="371" x="1697" y="3298"/>
   </g>
   <g class="location location-hidden" data-location="Saint_Sauveur">
      <title>Saint-Sauveur</title>
      <rect width="154" height="91" x="2138" y="3097"/>
   </g>
   <g class="location location-hidden" data-location="Hanois">
      <title>Hanois (Les)</title>
      <rect width="609" height="491" x="340" y="3207"/>
   </g>
   <g class="location location-hidden" data-location="Pezeris">
      <title>Pezeris </title>
      <rect width="132" height="109" x="1024" y="3389"/>
   </g>
   <g class="location location-hidden" data-location="Rocquaine">
      <title>Rocquaine (La)</title>
      <rect width="296" height="439" x="1081" y="3000"/>
   </g>
   <g class="location location-hidden" data-location="Rocquaine_Chateau">
      <title>Rocquaine (Château)</title>
      <rect width="239" height="64" x="1249" y="3359"/>
   </g>
   <g class="location location-hidden" data-location="Li_Hou">
      <title>Li-Hou </title>
      <rect width="176" height="190" x="1057" y="2683"/>
   </g>
   <g class="location location-hidden" data-location="Li_Houmet">
      <title>Li-Houmet</title>
      <rect width="196" height="119" x="863" y="2733"/>
   </g>
   <g class="location location-hidden" data-location="Grand_Etacre">
      <title>Grand-Etacré (Le)</title>
      <rect width="149" height="91" x="784" y="2571"/>
   </g>
   <g class="location location-hidden" data-location="Pecheresse">
      <title>Pécheresse (La)</title>
      <rect width="177" height="36" x="1090" y="2610"/>
   </g>
   <g class="location location-hidden" data-location="Colombelle">
      <title>Colombelle </title>
      <rect width="117" height="54" x="1403" y="2294"/>
   </g>
   <g class="location location-hidden" data-location="Boue_Vason">
      <title>Boue Vason</title>
      <rect width="124" height="48" x="1776" y="2292"/>
   </g>
   <g class="location location-hidden" data-location="Sambule">
      <title>Sambule (La)</title>
      <rect width="112" height="36" x="1267" y="2091"/>
   </g>
   <g class="location location-hidden" data-location="Souffleresse">
      <title>Souffleresse (La)</title>
      <rect width="118" height="31" x="1142" y="2085"/>
   </g>
   <g class="location location-hidden" data-location="Messellettes">
      <title>Messellettes (Les)</title>
      <rect width="128" height="52" x="1591" y="2195"/>
   </g>
   <g class="location location-hidden" data-location="Perrelle_Bay">
      <title>Perrelle-Bay </title>
      <rect width="188" height="123" x="1641" y="2632"/>
   </g>
   <g class="location location-hidden" data-location="Conchee">
      <title>Conchée (La)</title>
      <rect width="123" height="112" x="1504" y="2367"/>
   </g>
   <g class="location location-hidden" data-location="Richmond_Barracks">
      <title>Richmond (Barracks)</title>
      <rect width="76" height="93" x="1829" y="2548"/>
   </g>
   <g class="location location-hidden" data-location="Leree_Point">
      <title>Lérée-Point </title>
      <rect width="151" height="101" x="1383" y="2759"/>
   </g>
   <g class="location location-hidden" data-location="Vason_Baie">
      <title>Vason (Baie)</title>
      <rect width="336" height="242" x="1949" y="2359"/>
   </g>
   <g class="location location-hidden" data-location="Cobo_Bay">
      <title>Cobo-Bay </title>
      <rect width="193" height="64" x="2371" y="2156"/>
   </g>
   <g class="location location-hidden" data-location="Saline_Bay">
      <title>Saline Bay</title>
      <rect width="106" height="72" x="2539" y="1912"/>
   </g>
   <g class="location location-hidden" data-location="Houmet_Ouest">
      <title>Houmet (Ouest)</title>
      <rect width="171" height="66" x="1974" y="2263"/>
   </g>
   <g class="location location-hidden" data-location="Boin">
      <title>Boin (Le)</title>
      <rect width="86" height="41" x="1305" y="2218"/>
   </g>
   <g class="location location-hidden" data-location="Grunettes">
      <title>Grunettes (Les)</title>
      <rect width="133" height="68" x="1868" y="1645"/>
   </g>
   <g class="location location-hidden" data-location="Suzanne">
      <title>Suzanne (La)</title>
      <rect width="92" height="45" x="1793" y="1419"/>
   </g>
   <g class="location location-hidden" data-location="Grunes_Ouest">
      <title>Grunes de l’Ouest (Les)</title>
      <rect width="117" height="159" x="1638" y="1355"/>
   </g>
   <g class="location location-hidden" data-location="Long_Port">
      <title>Long (Port)</title>
      <rect width="129" height="55" x="2473" y="2059"/>
   </g>
   <g class="location location-hidden" data-location="Port_Enfer">
      <title>Port-Enfer </title>
      <rect width="148" height="42" x="2634" y="1742"/>
   </g>
   <g class="location location-hidden" data-location="Port_Soif">
      <title>Port-Soif </title>
      <rect width="92" height="78" x="2649" y="1774"/>
   </g>
   <g class="location location-hidden" data-location="Port_Grat">
      <title>Port-Grat </title>
      <rect width="108" height="38" x="3054" y="1579"/>
   </g>
   <g class="location location-hidden" data-location="Marquis_Banc">
      <title>Banc-Marquis </title>
      <rect width="108" height="81" x="2868" y="1393"/>
   </g>
   <g class="location location-hidden" data-location="Crevel_Mont_Ouest">
      <title>Mont Crevel de l'Ouest</title>
      <rect width="143" height="96" x="3346" y="1224"/>
   </g>
   <g class="location location-hidden" data-location="Rousse">
      <title>Rousse (La)</title>
      <rect width="88" height="37" x="3241" y="1478"/>
   </g>
   <g class="location location-hidden" data-location="Rousse_Mer">
      <title>Rousse de Mer (roches de la)</title>
      <rect width="98" height="41" x="2986" y="981"/>
   </g>
   <g class="location location-hidden" data-location="Roque_Nord">
      <title>Roque-Nord (La)</title>
      <rect width="190" height="59" x="3524" y="808"/>
   </g>
   <g class="location location-hidden" data-location="Sauts_Roquiers">
      <title>Sauts Roquiers </title>
      <rect width="151" height="42" x="2364" y="1483"/>
   </g>
   <g class="location location-hidden" data-location="Baudu_Ville">
      <title>Baudu (Ville)</title>
      <rect width="105" height="41" x="3569" y="1597"/>
   </g>
   <g class="location location-hidden" data-location="Mare_Pelee">
      <title>Mare Pelée (La)</title>
      <rect width="119" height="36" x="3222" y="1717"/>
   </g>
   <g class="location location-hidden" data-location="Sablonneuse">
      <title>Sablonneuse (La) </title>
      <rect width="100" height="55" x="3733" y="1025"/>
   </g>
   <g class="location location-hidden" data-location="Champ_Fleury">
      <title>Champ Fleury</title>
      <rect width="111" height="66" x="3918" y="1085"/>
   </g>
   <g class="location location-hidden" data-location="Platon">
      <title>Platon (Le)</title>
      <rect width="110" height="57" x="3638" y="1199"/>
   </g>
   <g class="location location-hidden" data-location="Braye_du_Valle">
      <title>Braye du Valle (La)</title>
      <rect width="424" height="203" x="3464" y="1687"/>
   </g>
   <g class="location location-hidden" data-location="Ancresse">
      <title>Ancresse (L’)</title>
      <rect width="194" height="122" x="3625" y="1220"/>
   </g>
   <g class="location location-hidden" data-location="Fontenelle_Pointe">
      <title>Fontenelle (Pointe)</title>
      <rect width="90" height="68" x="3949" y="1115"/>
   </g>
   <g class="location location-hidden" data-location="Clotures_Route">
      <title>Clôtures (Route des)</title>
      <rect width="174" height="77" x="3619" y="1470"/>
   </g>
   <g class="location location-hidden" data-location="Lemarchand_Fort">
      <title>Lemarchand (Fort)</title>
      <rect width="123" height="107" x="3873" y="1016"/>
   </g>
   <g class="location location-hidden" data-location="Doyle_Fort">
      <title>Fort Doyle</title>
      <rect width="114" height="52" x="4141" y="1140"/>
   </g>
   <g class="location location-hidden" data-location="Deux_Brayes">
      <title>Deux Brayes (Les) </title>
      <rect width="272" height="257" x="4173" y="628"/>
   </g>
   <g class="location location-hidden" data-location="Omptolle">
      <title>Omptolle </title>
      <rect width="103" height="89" x="4251" y="1254"/>
   </g>
</svg>