<?xml version="1.0" encoding="UTF-8"?>
<?xml-stylesheet href='../../../assets/css/svg.css'?>
<svg xmlns:xlink="http://www.w3.org/1999/xlink" xmlns="http://www.w3.org/2000/svg"
     width="3354"
     height="4310"
     viewBox="0 0 3354 4310">
   <image xlink:href="../../thumbnails/MVH_2017.0.755.20_Souvenir_de_Serk.jpg"
          width="3354"
          height="4310"/>
   <g class="location location-hidden" data-location="Serk">
      <title>Serk</title>
      <rect width="0" height="0" x="0" y="0"/>
   </g>
</svg>