<?xml version="1.0" encoding="UTF-8"?>
<?xml-stylesheet href='../../../assets/css/svg.css'?>
<svg xmlns:xlink="http://www.w3.org/1999/xlink" xmlns="http://www.w3.org/2000/svg"
     width="1919"
     height="4236"
     viewBox="0 0 1919 4236">
   <image xlink:href="../../thumbnails/MVH_9819.1.10_Douvres.jpg" width="1919"
          height="4236"/>
   <g class="location location-hidden" data-location="Douvres">
      <title>Douvres</title>
      <rect width="0" height="0" x="0" y="0"/>
   </g>
</svg>