<?xml version="1.0" encoding="UTF-8"?>
<?xml-stylesheet href='../../../assets/css/svg.css'?>
<svg xmlns:xlink="http://www.w3.org/1999/xlink" xmlns="http://www.w3.org/2000/svg"
     width="1422"
     height="906"
     viewBox="0 0 1422 906">
   <image xlink:href="../../thumbnails/NAF_13460_81v.jpg" width="1422" height="906"/>
   <g class="location location-hidden" data-location="Exeter">
      <title>Exeter</title>
      <rect width="164" height="96" x="248" y="274"/>
   </g>
   <g class="location location-hidden" data-location="Exeter">
      <title>Exeter</title>
      <rect width="200" height="74" x="980" y="84"/>
   </g>
   <g class="location location-hidden" data-location="Guernesey">
      <title>Guernesey</title>
      <rect width="192" height="170" x="660" y="402"/>
   </g>
   <g class="location location-hidden" data-location="Guernesey">
      <title>Guernesey</title>
      <rect width="276" height="108" x="882" y="160"/>
   </g>
   <g class="location location-hidden" data-location="Saint_Malo">
      <title>Saint-Malo</title>
      <rect width="292" height="94" x="256" y="184"/>
   </g>
   <g class="location location-hidden" data-location="Saint_Malo">
      <title>Saint-Malo</title>
      <rect width="286" height="158" x="992" y="534"/>
   </g>
</svg>