<?xml version="1.0" encoding="UTF-8"?>
<?xml-stylesheet href='../../../assets/css/svg.css'?>
<svg xmlns:xlink="http://www.w3.org/1999/xlink" xmlns="http://www.w3.org/2000/svg"
     width="1024"
     height="1142"
     viewBox="0 0 1024 1142">
   <image xlink:href="../../thumbnails/NAF_24745_123.jpg" width="1024" height="1142"/>
   <g class="location location-hidden" data-location="Maison_visionnee">
      <title>Maison visionnée</title>
      <rect width="0" height="0" x="0" y="0"/>
   </g>
</svg>