<?xml version="1.0" encoding="UTF-8"?>
<?xml-stylesheet href='../../../assets/css/svg.css'?>
<svg xmlns:xlink="http://www.w3.org/1999/xlink" xmlns="http://www.w3.org/2000/svg"
     width="1003"
     height="1537"
     viewBox="0 0 1003 1537">
   <image xlink:href="../../thumbnails/NAF_13459_37V.jpg" width="1003" height="1537"/>
   <g class="location location-hidden" data-location="Douvres">
      <title>Douvres</title>
      <rect width="0" height="0" x="0" y="0"/>
   </g>
</svg>