<?xml version="1.0" encoding="UTF-8"?>
<?xml-stylesheet href='../../../assets/css/svg.css'?>
<svg xmlns:xlink="http://www.w3.org/1999/xlink" xmlns="http://www.w3.org/2000/svg"
     width="998"
     height="1536"
     viewBox="0 0 998 1536">
   <image xlink:href="../../thumbnails/NAF_13459_8.jpg" width="998" height="1536"/>
   <g class="location location-hidden" data-location="Barneville">
      <title>Barneville</title>
      <rect width="56" height="223" x="891" y="1254"/>
   </g>
   <g class="location location-hidden" data-location="Deroute">
      <title>Déroute (La) </title>
      <rect width="277" height="139" x="674" y="302"/>
   </g>
   <g class="location location-hidden" data-location="Douvres">
      <title>Douvres</title>
      <rect width="200" height="111" x="414" y="296"/>
   </g>
   <g class="location location-hidden" data-location="Frehel">
      <title>Cap Fréhel</title>
      <rect width="186" height="87" x="610" y="737"/>
   </g>
   <g class="location location-hidden" data-location="Guernesey">
      <title>Guernesey</title>
      <rect width="240" height="69" x="709" y="439"/>
   </g>
   <g class="location location-hidden" data-location="Guernesey">
      <title>Guernesey</title>
      <rect width="168" height="63" x="731" y="171"/>
   </g>
   <g class="location location-hidden" data-location="Hanois">
      <title>Hanois (Les)</title>
      <rect width="125" height="93" x="621" y="190"/>
   </g>
   <g class="location location-hidden" data-location="Jersey">
      <title>Jersey</title>
      <rect width="51" height="133" x="829" y="1240"/>
   </g>
   <g class="location location-hidden" data-location="Jersey">
      <title>Jersey</title>
      <rect width="111" height="68" x="843" y="479"/>
   </g>
   <g class="location location-hidden" data-location="Mauvais_Cheval">
      <title>Mauvais Cheval (Le) </title>
      <rect width="147" height="259" x="577" y="1167"/>
   </g>
   <g class="location location-hidden" data-location="Minquiers">
      <title>Minquiers (Les)</title>
      <rect width="213" height="106" x="737" y="583"/>
   </g>
   <g class="location location-hidden" data-location="Paimpol">
      <title>Paimpol</title>
      <rect width="198" height="91" x="256" y="645"/>
   </g>
   <g class="location location-hidden" data-location="Plainmont">
      <title>Plainmont</title>
      <rect width="197" height="61" x="760" y="243"/>
   </g>
   <g class="location location-hidden" data-location="Saint_Malo">
      <title>Saint-Malo</title>
      <rect width="160" height="76" x="704" y="814"/>
   </g>
   <g class="location location-hidden" data-location="Saint_Sampson_Bravees"
      data-parent-location="Saint_Sampson">
      <title>Saint-Sampson (Les Bravées)</title>
      <rect width="433" height="581" x="83" y="913"/>
   </g>
   <g class="location location-hidden" data-location="Saint-Brieuc">
      <title>Saint-Brieuc</title>
      <rect width="190" height="111" x="441" y="730"/>
   </g>
   <g class="location location-hidden" data-location="Sillon">
      <title>Pointe du Sillon</title>
      <rect width="258" height="60" x="241" y="139"/>
   </g>
   <g class="location location-hidden" data-location="Sillon">
      <title>Pointe du Sillon</title>
      <rect width="296" height="72" x="264" y="566"/>
   </g>
</svg>