<?xml version="1.0" encoding="UTF-8"?>
<?xml-stylesheet href='../../../assets/css/svg.css'?>
<svg xmlns:xlink="http://www.w3.org/1999/xlink" xmlns="http://www.w3.org/2000/svg"
     width="1294"
     height="1024"
     viewBox="0 0 1294 1024">
   <image xlink:href="../../thumbnails/NAF_13462_27v.jpg" width="1294" height="1024"/>
   <g class="location location-hidden" data-location="Aiguilles_Wight">
      <title>Aiguilles (de Wight)</title>
      <rect width="0" height="0" x="0" y="0"/>
   </g>
</svg>