<?xml version="1.0" encoding="UTF-8"?>
<?xml-stylesheet href='../../../assets/css/svg.css'?>
<svg xmlns:xlink="http://www.w3.org/1999/xlink" xmlns="http://www.w3.org/2000/svg"
     width="986"
     height="1536"
     viewBox="0 0 986 1536">
   <image xlink:href="../../thumbnails/NAF_13459_30.jpg" width="986" height="1536"/>
   <g class="location location-hidden" data-location="Douvres">
      <title>Douvres</title>
      <rect width="0" height="0" x="0" y="0"/>
   </g>
</svg>